{
	"swagger": "2.0",
	"host": "plus.dnb.com",
	"schemes": [
		"https"
	],
	"info": {
		"description": "Identity Resolution returns the best matches for given criteria using Dun & Bradstreet proprietary algorithms.\r\n\r\nData Coverage: Global\r\nNote: This API is available as part of \"Company Entity Resolution\" Non Standard Data Blocks.",
		"title": "Identity Resolution",
		"version": "1"
	},
	"basePath": "/",
	"paths": {
		"/v1/match/cleanseMatch": {
			"x-DNB-Name": "Identity Resolution",
			"x-DNB-ID": "IDRCleanseMatch",
			"get": {
				"description": "Identity Resolution returns the best matches for given criteria using Dun & Bradstreet proprietary algorithms.\r\n\r\nData Coverage: Global\r\nNote: This API is available as part of \"Company Entity Resolution\" Non Standard Data Blocks.",
				"summary": "Endpoint",
				"operationId": "identityResolution",
				"x-monitoring": "Not Available.",
				"x-monitoring-pdf": "Not Available.",
				"tags": [
					"identityResolution"
				],
				"produces": [
					"application/json"
				],
				"responses": {
					"200": {
						"description": "OK",
						"schema": {
							"properties": {
								"transactionDetail": {
									"type": "object",
									"description": "The information used to process this request.",
									"properties": {
										"transactionID": {
											"type": "string",
											"example": "rlh-hi9puyoijk-jop8u-kd-d-1",
											"description": "A value assigned by the Dun & Bradstreet application to uniquely identify this request."
										},
										"transactionTimestamp": {
											"type": "string",
											"example": "2017-02-21T17:46:19.839Z",
											"description": "The date and time, in ISO 8601 UTC Z standard, when this response was created."
										},
										"inLanguage": {
											"type": "string",
											"example": "en-US",
											"description": "An IETF BCP 47 code value that defines the language in which this product was rendered."
										},
										"serviceVersion": {
											"type": "string",
											"example": 1,
											"description": "The product version number provided in the request."
										}
									},
									"additionalProperties": true
								},
								"inquiryDetail": {
									"type": "object",
									"description": "The details of the input data provided.",
									"properties": {
										"inLanguage": {
											"type": "string",
											"example": "en-US",
											"description": "The language provided in the request."
										},
										"duns": {
											"type": "string",
											"example": 804735132,
											"description": "The D-U-N-S number provided in the request."
										},
										"registrationNumber": {
											"type": "string",
											"example": "11514917000120",
											"description": "The registration numbers provided in the request."
										},
										"registrationNumberType": {
											"type": "integer",
											"example": 1340,
											"description": "The registration number type provided in the request.<br/>Refer to Reference code table \"7 [Registration Number Type]\" for all possible values."
										},
										"name": {
											"type": "string",
											"example": "Company name",
											"description": "The name provided in the request."
										},
										"address": {
											"type": "object",
											"description": "The address details provided in the request.",
											"properties": {
												"countryISOAlpha2Code": {
													"type": "string",
													"example": "US",
													"description": "The country code provided in the request."
												},
												"addressLocality": {
													"type": "string",
													"example": "Short Hills",
													"description": "The locality provided in the request."
												},
												"addressRegion": {
													"type": "string",
													"example": "New Jersey",
													"description": "The region provided in the request."
												},
												"postalCode": {
													"type": "string",
													"example": "07040",
													"description": "The postal code provided in the request."
												},
												"streetAddressLine": {
													"type": "object",
													"description": "The street address details provided in the request.",
													"properties": {
														"line1": {
															"type": "string",
															"example": "103 JFK PKWY",
															"description": "The street address line1 provided in the request."
														},
														"line2": {
															"type": "string",
															"example": "4th Floor",
															"description": "The street address line2 provided in the request."
														}
													},
													"additionalProperties": true
												}
											},
											"additionalProperties": true
										},
										"telephoneNumber": {
											"type": "string",
											"example": 9739215500,
											"description": "The telephone number provided in the request."
										},
										"url": {
											"type": "string",
											"example": "https://www.dnb.com",
											"description": "The URL provided in the request."
										},
										"email": {
											"type": "string",
											"example": "jsmith@company.com",
											"description": "The email address provided in the request."
										},
										"customerBillingEndorsement": {
											"type": "string",
											"example": "My billing reminder.",
											"description": "The text submitted in the request. This text is a reference used during the billing process."
										},
										"customerReference": {
											"type": "array",
											"description": "A reference string provided by the customer for this particular transaction.",
											"items": {
												"example": "Some text to describe the request.",
												"type": "string"
											}
										},
										"candidateMaximumQuantity": {
											"type": "integer",
											"example": 25,
											"description": "The maximum number of candidates requested."
										},
										"confidenceLowerLevelThresholdValue": {
											"type": "integer",
											"example": 6,
											"description": "The confidence lower level provided in the request."
										},
										"exclusionCriteria": {
											"type": "array",
											"description": "The exclusion criteria provided in the request.",
											"items": {
												"example": [
													"ExcludeNonHeadQuarters",
													"ExcludeOutofBusiness"
												],
												"type": "string"
											}
										},
										"isCleanseAndStandardizeInformationRequired": {
											"type": "boolean",
											"example": false,
											"description": "The cleanse and standardized information value provided in the request."
										}
									},
									"additionalProperties": true
								},
								"candidatesMatchedQuantity": {
									"type": "integer",
									"example": 100,
									"description": "The total number of DUNS in which candidates are found with matching search criteria."
								},
								"matchDataCriteria": {
									"type": "string",
									"example": "Name and Address Lookup",
									"description": "The type of match performed to identify the identified entity. May be one of the following:<br/><br/>- DUNS Number Lookup: D-U-N-S Number was used to perform match.<br/>- Name and Address Lookup: Name and Address were used to perform match.<br/>- National ID Lookup: Registration Number was used to perform match.<br/>- Telephone Number Lookup: Telephone Number was used to perform match.<br/>- ZIP Code Lookup: Postal Code was used to perform match.<br/><br/>Note: This parameter is not applicable for Multi-Process High-Volume Match."
								},
								"matchCandidates": {
									"type": "array",
									"description": "The details of the entities found by the system.",
									"items": {
										"properties": {
											"displaySequence": {
												"type": "integer",
												"example": 1,
												"description": "The order in which the entity appears in the result set. The lower the number the better the probability of the match."
											},
											"organization": {
												"type": "object",
												"description": "The details of the entity.",
												"properties": {
													"duns": {
														"type": "string",
														"example": 804735132,
														"description": "The D-U-N-S Number, assigned by Dun & Bradstreet, is an identification number that uniquely identifies the entity in accordance with the Data Universal Numbering System (D-U-N-S)."
													},
													"dunsControlStatus": {
														"type": "object",
														"description": "The details of the entity established to provide products and/or services in the marketplace or to the community.",
														"properties": {
															"operatingStatus": {
																"type": "object",
																"description": "The high level categorization of the entity's functional state or trading status.",
																"properties": {
																	"description": {
																		"type": "string",
																		"example": "Active",
																		"description": "The entity's functional state or trading status summarized into either active or out of business."
																	},
																	"dnbCode": {
																		"type": "integer",
																		"example": 9074,
																		"description": "A unique code assigned by Dun & Bradstreet to identify the entity's functional state or trading status.<br/>Possible values:<br/>9074 [Active]<br/>403 [Out of Business]"
																	}
																},
																"additionalProperties": true
															},
															"isMailUndeliverable": {
																"type": "boolean",
																"example": false,
																"description": "Indicates whether it is possible to deliver mail to the address of this entity.\r<br/>\r<br/>- If true, it is not possible to deliver mail to at least one of the addresses listed for this DUNS (Primary, Mailing or Registered).<br/>- If false, it is possible to deliver mail to the address."
															}
														},
														"additionalProperties": true
													},
													"primaryName": {
														"type": "string",
														"example": "GORMAN MANUFACTURING COMPANY, INC.",
														"description": "The single name by which the entity is primarily known or identified."
													},
													"tradeStyleNames": {
														"type": "array",
														"description": "The details of the names that the entity trades under for commercial purposes although its registered legal name used for contracts and other formal situations may be another name.<br/><br/>NOTE: tradeStyleNames will be returned only when customer given input matches against trade style name.",
														"items": {
															"properties": {
																"name": {
																	"type": "string",
																	"example": "Alternate Company Name",
																	"description": "The name that the entity trades under for commercial purposes although its registered legal name used for contracts and other formal situations may be another name.<br/><br/>NOTE: tradeStyleNames will be returned only when customer given input matches against trade style name."
																},
																"priority": {
																	"type": "integer",
																	"example": 1,
																	"description": "The sequence in which the entity mostly uses this trade style name."
																}
															},
															"additionalProperties": true,
															"type": "object"
														}
													},
													"telephone": {
														"type": "array",
														"description": "The details of the telephone information used for voice communication with the entity.",
														"items": {
															"properties": {
																"telephoneNumber": {
																	"type": "string",
																	"example": 6505550000,
																	"description": "A sequence of digits used for voice communication with the entity.<br/>This sequence of digits includes the area code or city code and domestic dialing code."
																},
																"isUnreachable": {
																	"type": "boolean",
																	"example": false,
																	"description": "Indicates whether the telephone number can be connected to successfully.<br/><br/>- If true, connection to the telephone number is unsuccessful.<br/>- If false, connection to the telephone number is successful."
																}
															},
															"additionalProperties": true,
															"type": "object"
														}
													},
													"websiteAddress": {
														"type": "array",
														"description": "The details of the internet URLs used for online information and communication with the Organization.",
														"items": {
															"properties": {
																"url": {
																	"type": "string",
																	"example": "http://www.gorman.com",
																	"description": "The Internet URL (Uniform Resource Locator) that uniquely identifies the proprietary website of the Organization or the website preferred by the Organization that gives more information on the entity."
																},
																"domainName": {
																	"type": "string",
																	"example": "gorman.com",
																	"description": "A unique name used to identify the website of the Organization that serves as an address to access that website."
																}
															},
															"additionalProperties": true,
															"type": "object"
														}
													},
													"primaryAddress": {
														"type": "object",
														"description": "The details of the single primary or physical address at which the entity is located.",
														"properties": {
															"addressCountry": {
																"type": "object",
																"description": "The details of the country/market in which this address is located.",
																"properties": {
																	"isoAlpha2Code": {
																		"type": "string",
																		"example": "US",
																		"description": "The two-letter country code, defined by the International Organization for Standardization (ISO) ISO 3166-1 scheme identifying the country/market in which this address is located."
																	},
																	"name": {
																		"type": "string",
																		"example": "United States",
																		"description": "The name of the country/market in which this address is located."
																	}
																},
																"additionalProperties": true
															},
															"addressLocality": {
																"type": "object",
																"description": "The details of the locality where the organization's Primary Address is located or conducts operations. Locality defined as a district population cluster. City, town, township, village, borough etc.",
																"properties": {
																	"name": {
																		"type": "string",
																		"example": "SAN FRANCISCO",
																		"description": "The name of the locality where the organization's Primary Address is located or conducts operations. Locality defined as a district population cluster. City, town, township, village, borough etc."
																	}
																},
																"additionalProperties": true
															},
															"addressRegion": {
																"type": "object",
																"description": "The details of the locally governed area that forms part of a centrally governed nation to identify where this address is located.",
																"properties": {
																	"name": {
																		"type": "string",
																		"example": "California",
																		"description": "The name of the locally governed area that forms part of a centrally governed nation to identify where this address is located."
																	},
																	"abbreviatedName": {
																		"type": "string",
																		"example": "CA",
																		"description": "The shortened name of the locally governed area that forms part of a centrally governed nation. For example 'NJ' for the US State New Jersey within Country United States.<br/><br/>Note: The abbreviation does not always correspond to the ISO representation and can vary between countries based on data collection."
																	}
																},
																"additionalProperties": true
															},
															"postalCode": {
																"type": "string",
																"example": 941109999,
																"description": "The postal code of the organization's Primary Address.<br/><br/>Also known locally in various English-speaking countries throughout the world as a postcode, post code, Eircode, PIN or ZIP Code) is a series of letters or digits or both, sometimes including spaces or punctuation, included in a postal address for the purpose of sorting mail. The code is used by the country&#39;s postal authority to identify the address where the organization is located or conducts operations ."
															},
															"postalCodeExtension": {
																"type": "string",
																"example": 9999,
																"description": "An extension to the postal code that identifies a street or building within the geographic area covered by the Postal Code."
															},
															"streetAddress": {
																"type": "object",
																"description": "The details of the street address where the entity is located.",
																"properties": {
																	"line1": {
																		"type": "string",
																		"example": "492 KOLLER ST",
																		"description": "The first line of the address where the entity is located.<br/><br/>For example, &quot;41 Central Chambers&quot; in the address <br/>41 Central Chambers<br/>Dame Court<br/>Dublin 2"
																	},
																	"line2": {
																		"type": "string",
																		"example": "Suite 100",
																		"description": "The second line of the address where the entity is located.<br/><br/>For example, &quot;Dame Court&quot; in the address <br/>41 Central Chambers<br/>Dame Court<br/>Dublin 2"
																	}
																},
																"additionalProperties": true
															}
														},
														"additionalProperties": true
													},
													"mailingAddress": {
														"type": "object",
														"description": "The details of the address used by the entity for mailing purposes.",
														"properties": {
															"addressCountry": {
																"type": "object",
																"description": "The details of the country/market in which this address is located.",
																"properties": {
																	"isoAlpha2Code": {
																		"type": "string",
																		"example": "US",
																		"description": "The two-letter country code, defined by the International Organization for Standardization (ISO) ISO 3166-1 scheme identifying the country/market in which this address is located."
																	},
																	"name": {
																		"type": "string",
																		"example": "United States",
																		"description": "The name of the country/market in which this address is located."
																	}
																},
																"additionalProperties": true
															},
															"addressLocality": {
																"type": "object",
																"description": "The details of the locality where the organization's Primary Address is located or conducts operations. Locality defined as a district population cluster. City, town, township, village, borough etc.",
																"properties": {
																	"name": {
																		"type": "string",
																		"example": "SAN FRANCISCO",
																		"description": "The name of the locality where the organization's Primary Address is located or conducts operations. Locality defined as a district population cluster. City, town, township, village, borough etc."
																	}
																},
																"additionalProperties": true
															},
															"addressRegion": {
																"type": "object",
																"description": "The details of the locally governed area that forms part of a centrally governed nation to identify where this address is located.",
																"properties": {
																	"name": {
																		"type": "string",
																		"example": "California",
																		"description": "The name of the locally governed area that forms part of a centrally governed nation to identify where this address is located."
																	},
																	"abbreviatedName": {
																		"type": "string",
																		"example": "CA",
																		"description": "The shortened name of the locally governed area that forms part of a centrally governed nation. For example 'NJ' for the US State New Jersey within Country United States.<br/><br/>Note: The abbreviation does not always correspond to the ISO representation and can vary between countries based on data collection."
																	}
																},
																"additionalProperties": true
															},
															"postalCode": {
																"type": "string",
																"example": 941109999,
																"description": "The postal code of the organization's Primary Address.<br/><br/>Also known locally in various English-speaking countries throughout the world as a postcode, post code, Eircode, PIN or ZIP Code) is a series of letters or digits or both, sometimes including spaces or punctuation, included in a postal address for the purpose of sorting mail. The code is used by the country&#39;s postal authority to identify the address where the organization is located or conducts operations ."
															},
															"postalCodeExtension": {
																"type": "string",
																"example": 9999,
																"description": "An extension to the postal code that identifies a street or building within the geographic area covered by the Postal Code."
															},
															"streetAddress": {
																"type": "object",
																"description": "The details of the street address where the entity is located.",
																"properties": {
																	"line1": {
																		"type": "string",
																		"example": "492 KOLLER ST",
																		"description": "The first line of the address where the entity is located.<br/><br/>For example, &quot;41 Central Chambers&quot; in the address <br/>41 Central Chambers<br/>Dame Court<br/>Dublin 2"
																	},
																	"line2": {
																		"type": "string",
																		"example": "Suite 100",
																		"description": "The second line of the address where the entity is located.<br/><br/>For example, &quot;Dame Court&quot; in the address <br/>41 Central Chambers<br/>Dame Court<br/>Dublin 2"
																	}
																},
																"additionalProperties": true
															}
														},
														"additionalProperties": true
													},
													"registrationNumbers": {
														"type": "array",
														"description": "The details of the numbers assigned by an external body or by Dun & Bradstreet that either uniquely identifies or helps to identify the entity.",
														"items": {
															"properties": {
																"registrationNumber": {
																	"type": "string",
																	"example": "12-3456789",
																	"description": "The number assigned by an external body or by Dun & Bradstreet that either uniquely identifies or helps to identify the entity."
																},
																"typeDescription": {
																	"type": "string",
																	"example": "Federal Taxpayer Identification Number (US)",
																	"description": "The type of registration (e.g., Chamber of Commerce Number, Value Added Tax Number, Federal Taxpayer Identification Number, Companies Registry Office Number)."
																},
																"typeDnBCode": {
																	"type": "integer",
																	"example": 6863,
																	"description": "A unique code assigned by Dun & Bradstreet to identify the type of registration number.<br/>Refer to Reference code table \"7 [Registration Number Type]\" for all possible values."
																}
															},
															"additionalProperties": true,
															"type": "object"
														}
													},
													"mostSeniorPrincipals": {
														"type": "array",
														"description": "The person identified as a highest ranking key stakeholder of a business or organization by the local registry or other official sources. A key stakeholder can be a natural person or an organization. Only one record should be classified as the \"most senior principal\".",
														"items": {
															"properties": {
																"fullName": {
																	"type": "string",
																	"example": "Leslie Ann Smith",
																	"description": "The highest ranking key stakeholder's given and surname in addition to the middle name and name suffix (when available) listed on one field if the key stakeholder is an individual. This will be submitted in the appropriate format for the local country. If the highest ranking key stakeholder is an organization, the name of the organization will be populated in the full name field."
																}
															},
															"additionalProperties": true,
															"type": "object"
														}
													},
													"isStandalone": {
														"type": "boolean",
														"example": false,
														"description": "Indicates if the entity is a member of a legal family tree. <br/><br/>- If true, indicates that the entity is not a member of a legal family tree. This means it cannot play any family tree role and corporateLinkage will not be present.<br/>- If false, indicates that the entity is a member of a legal family tree. The roles it plays is indicated by Family Tree Member Roles played."
													},
													"corporateLinkage": {
														"type": "object",
														"description": "The details of the relationship between the entity and other entities in the legal family tree.",
														"properties": {
															"familytreeRolesPlayed": {
																"type": "array",
																"description": "The details of the roles the entity plays as a member of an ownership structured family tree.<br/><br/>Note : Max 1 value will appear.",
																"items": {
																	"properties": {
																		"description": {
																			"type": "string",
																			"example": "Parent/Headquarters",
																			"description": "The role the entity plays as a member of an ownership structured family tree (e.g., a branch, division, a parent, headquarters, subsidiary)."
																		},
																		"dnbCode": {
																			"type": "integer",
																			"example": 9141,
																			"description": "A unique code assigned by Dun & Bradstreet to identify describing family tree role.<br/><br/>Possible Values:<br/>9140 - Branch/Division<br/>9141 - Parent/Headquarters<br/>9159 - Subsidiary <br/>12769 - Branch"
																		}
																	},
																	"additionalProperties": true,
																	"type": "object"
																}
															}
														},
														"additionalProperties": true
													}
												},
												"additionalProperties": true
											},
											"matchQualityInformation": {
												"type": "object",
												"description": "The details of the parameters and components assessed by the Match engine.",
												"properties": {
													"confidenceCode": {
														"type": "integer",
														"example": 6,
														"description": "A numeric value from 1 (low) up to 10 (high) indicating the level of certainty at which this possible candidate was included in this result set."
													},
													"matchGrade": {
														"type": "string",
														"example": "AZZZZZZZFZZ",
														"description": "The compound rating that comprises one rating per type of data scored by a match engine. <br/><br/>For example, in AABZBAAAFBZ the &quot;A&quot; in the 1st position means that the Name scored between 80-100 and the &quot;A&quot; in the 2nd position means that the Street Number had to score exactly 100.<br/><br/>For more details, please see the Identity Resolution guide."
													},
													"matchGradeComponentsCount": {
														"type": "integer",
														"example": 11,
														"description": "The number of constituent parts that were used in the calculation of the Match Grade."
													},
													"matchGradeComponents": {
														"type": "array",
														"description": "The details of the components measured by the match engine.",
														"items": {
															"properties": {
																"componentType": {
																	"type": "string",
																	"example": "Name",
																	"description": "The component (e.g., Name, Street Number) of the Match Grade that was measured by the match engine."
																},
																"componentRating": {
																	"type": "string",
																	"example": "A",
																	"description": "The quality of the match result on this component. The rating is based on a scoring system."
																}
															},
															"additionalProperties": true,
															"type": "object"
														}
													},
													"matchDataProfile": {
														"type": "string",
														"example": "0000000000989800000000009898",
														"description": "The information that the matching process used to arrive at a match in addition to the application's business rules and parameters specified by the requestor. <br/><br/>This is a 28-byte string consisting of 14 components of 2 bytes each. <br/><br/>The 14 components are, in order, Name, Street Number, Street Name, Town Name, Territory Name, P.O. Box, Telephone, Post Code, D-U-N-S Number, Industry Code, Geographical Density, Location Uniqueness, Registration Number and URL."
													},
													"matchDataProfileComponentsCount": {
														"type": "integer",
														"example": 14,
														"description": "The number of constituent parts (e.g., Name, Street Number) that were used in the calculation of the Match Data Profile."
													},
													"matchDataProfileComponents": {
														"type": "array",
														"description": "The details of the constituent parts (e.g., Name, Street Number) that were used in the calculation of the Match Data Profile.",
														"items": {
															"properties": {
																"componentType": {
																	"type": "string",
																	"example": "Name",
																	"description": "The specific component type used."
																},
																"componentValue": {
																	"type": "string",
																	"example": 0,
																	"description": "The value of the component described in Match Data Profile Component Type."
																}
															},
															"additionalProperties": true,
															"type": "object"
														}
													},
													"nameMatchScore": {
														"type": "number",
														"example": 85.5,
														"description": "A number from -1 to 100 (including decimals) that indicates the detailed level of match on the name of the matched candidate.<br/><br/>- 0 indicates no match.<br/>- 100 indicates most accurate match.<br/><br/>Note: This parameter is not applicable for Multi-Process High-Volume Match."
													}
												},
												"additionalProperties": true
											}
										},
										"additionalProperties": true,
										"type": "object"
									}
								},
								"cleanseAndStandardizeInformation": {
									"type": "object",
									"description": "The details of the standardized values used for industry needs and effective identification. <br/><br/>Note: This parameter is not applicable for Multi-Process High-Volume Match.",
									"properties": {
										"standardizedName": {
											"type": "string",
											"example": "STANDARD COMPANY",
											"description": "The standardized name of the entity."
										},
										"standardizedAddress": {
											"type": "object",
											"description": "The details of the standardized address of the entity.",
											"properties": {
												"addressCountry": {
													"type": "object",
													"description": "The details of the standardized Address Country/Market.",
													"properties": {
														"isoAlpha2Code": {
															"type": "string",
															"example": "AR",
															"description": "The standardized country code."
														},
														"name": {
															"type": "string",
															"example": "ARGENTINA",
															"description": "The standardized Address Country/Market name."
														}
													},
													"additionalProperties": true
												},
												"addressLocality": {
													"type": "object",
													"description": "The details of the standardized address locality.",
													"properties": {
														"name": {
															"type": "string",
															"example": "BUENOS AIRES",
															"description": "The standardized address locality name."
														}
													},
													"additionalProperties": true
												},
												"addressRegion": {
													"type": "object",
													"description": "The details of the standardized address region.",
													"properties": {
														"name": {
															"type": "string",
															"example": "CIUDAD DE BUENOS AIRES",
															"description": "The standardized address region name."
														},
														"abbreviatedName": {
															"type": "string",
															"example": "DF",
															"description": "The standardized abbreviated region name."
														}
													},
													"additionalProperties": true
												},
												"addressCounty": {
													"type": "object",
													"description": "The details of the standardized address county.",
													"properties": {
														"name": {
															"type": "string",
															"example": "SOME COUNTY",
															"description": "The standardized address county name."
														}
													},
													"additionalProperties": true
												},
												"postalCode": {
													"type": "string",
													"example": 750802686,
													"description": "The standardized address postal code."
												},
												"postalCodeExtension": {
													"type": "string",
													"example": 1378,
													"description": "The standardized address postal code extension."
												},
												"streetAddress": {
													"type": "object",
													"description": "The details of the standardized street address.",
													"properties": {
														"line1": {
															"type": "string",
															"example": "CALLEJUELA 508",
															"description": "The standardized street address line 1."
														},
														"line2": {
															"type": "string",
															"example": "LINE TWO",
															"description": "The standardized street address line 2."
														}
													},
													"additionalProperties": true
												},
												"deliveryPointValidationStatus": {
													"type": "string",
													"example": "No DPV Address",
													"description": "Indicates if mail can be delivered to this address.<br/><br/>Possible values; more details on these codes and indicators can be obtained through the US Postal Service:<br/><br/>- Delivery Point Validated: This is equal to DSF Deliverability Indicator #1. <br/><br/>- No DPV: Address is invalid and may be undeliverable. It might however, qualify for a ZIP+4. This is equal to DSF Deliverability Indicator #4 or higher or X. <br/><br/>- DPV STE Bad: Street address is valid, but the submitted secondary address details (e.g., suite, room, floor or apartment number) are incorrect. This address is possibly deliverable, at the letter carrier's option. This is equal to DSF Deliverability Indicator #2. <br/><br/>- Missing STE: Street address is valid, but the secondary address details (e.g., suite, room, floor or apartment number) are missing. This address is possibly deliverable, at the letter carrier's option. <br/><br/>- Invalid Address: Address is invalid, undeliverable, and could not be identified by DPV. This is a fictitious address on the DPV file designed to identify mis-use of USPS data. Contact your DB rep. <br/><br/>- No DPV Address: DPV cannot categorize the input address."
												},
												"deliveryPointValidationCMRAValue": {
													"type": "string",
													"example": "No DPV Address",
													"description": "Indicates if this address is valid Commercial Mail Receiving Agency (CMRA). A CMRA is a private business that accepts mail delivery from the Postal Service for others (addressee), holds it for pickup (in most cases a private mailbox (PMB&quot;) or re-mails it to another address with payment of new postage. <br/><br/>- Delivery Point Validated: The address is a valid CRMA. <br/>- Invalid Address: Address is invalid, undeliverable, and could not be identified by DPV. This is a fictitious address on the DPV file designed to identify mis-use of USPS data. Contact your DB rep. <br/>- No DPV: Address is invalid and may be undeliverable.<br/>- No DPV Address: DPV cannot categorize the input address."
												},
												"isInexactAddress": {
													"type": "boolean",
													"example": true,
													"description": "Indicates if this address is strictly accurate or precise. <br/> <br/>- If true, the address is not strictly accurate or precise.<br/>- If false, the address is strictly accurate or precise; however as this is the assumed condition there is no requirement to create this tag to represent this fact."
												},
												"addressType": {
													"type": "string",
													"example": "Street",
													"description": "Indicates if there is a business at this address. <br/> <br/>Possible Values:<br/>- Firm: There is a business at this address; it could be a residential location with business signage. <br/>- General delivery: The address of the post office where the entity picks up mail. It is not where the entity is located.<br/>- High Rise: Apartment or office building. The USPS defines a High Rise as any location with more than 4 delivery points.<br/>- Military - APO/FPO addresses: The address is an entry point into the military postal system, which delivers to the recipient anywhere in the world. The recipient is not actually at the address.<br/>- Post office box: Address is for a box at a Post Office location. <br/>- Rural or Highway Route: This address is a stop on a route; it is not a physical location.<br/>- Street: A physical location that is not a high-rise.<br/>- Unknown: Address cannot be categorized. This is not a negative. Many delivery points on the DSF file, which is where all these designations come from, have no delivery type categorization. Carriers manually submit these categories."
												}
											},
											"additionalProperties": true
										}
									},
									"additionalProperties": true
								}
							},
							"description": "",
							"type": "object"
						}
					},
					"301": {
						"description": "Moved Permanently",
						"headers": {
							"location": {
								"description": "The URL to retrieve the D-U-N-S Number to which the requested D-U-N-S Number was transferred.",
								"type": "string",
								"x-example": "https://plus.dnb.com/v1/match/cleanseMatch?duns={retainedDUNS}&...."
							}
						},
						"schema": {
							"description": "",
							"type": "object",
							"properties": {}
						}
					}
				},
				"security": [],
				"parameters": [
					{
						"in": "query",
						"name": "inLanguage",
						"description": "An IETF BCP 47 code value that defines the language to be used to perform the match.     <br/>     <br/>Values:     <br/>* auto<br/>* ja-JP (Japanese)<br/>* zh-hans-CN (Simplified Chinese)<br/>* zh-hant-TW (Traditional Chinese)<br/>* ko-hang-KR (Hangul)<br/>* en-US (English)<br/><br/>* If not specified, the default is en-US.    <br/>* If auto is specified, for Name and Address Lookup:   <br/>       - For latin characters, inLanguage is set to en-US.<br/>       - For multi-byte characters, inLanguage is set to zh-hans-CN.    <br/>       - If both latin and mult-byte characters are found, the language from addressLine1 is used.<br/>       - If a language cannot be determined, inLanguage is set to en-US.<br/><br/>Asian Language Matching feature is a Limited Availability feature. Please contact D&B representative before using it.",
						"required": false,
						"type": "string",
						"x-example": "ja-JP"
					},
					{
						"in": "query",
						"name": "duns",
						"description": "A 9-character numeric string identifying the entity by its Dun & Bradstreet D-U-N-S number.",
						"required": false,
						"type": "string",
						"x-example": "804735132"
					},
					{
						"in": "query",
						"name": "registrationNumber",
						"description": "The number assigned by an external body or by Dun & Bradstreet that either uniquely identifies or helps to identify an organization.    <br/>    <br/>This value is required for Registration Match.",
						"required": false,
						"type": "string",
						"x-example": "11514917000120"
					},
					{
						"in": "query",
						"name": "registrationNumberType",
						"description": "A unique code assigned by Dun & Bradstreet to identify the type of registration number.<br/><br/>Possible values: Code Table: 7 [Registration Number Type]<br/><br/>Note : registrationNumberType is optional except for inquiries on the following, where it is mandatory.<br/><br/>* 33461 Office of Scottish Charity Regulator Charity Number (GB)<br/>* 33462 Charity Commission of Northern Ireland Charity Number (GB)<br/>* 33463 Charity Commission for England & Wales Charity Number (GB)<br/>* 33482 Financial Conduct Authority Reference Number (GB)",
						"required": false,
						"type": "integer",
						"x-example": 1340
					},
					{
						"in": "query",
						"name": "name",
						"description": "Up to 240 characters used to find the entity by its primary name, tradestyle names, or former names.   <br/><br/>This value is required for Asian Matching and High-Volume matching.",
						"required": false,
						"type": "string",
						"x-example": "string used to search for entities"
					},
					{
						"in": "query",
						"name": "streetAddressLine1",
						"description": "Up to 70 characters of the first line of the entity's street address.    <br/><br/>This value is required for &quot;Name and Address&quot; Match.",
						"required": false,
						"type": "string",
						"x-example": "street address"
					},
					{
						"in": "query",
						"name": "streetAddressLine2",
						"description": "Up to 70 characters of the second line of the entity's street address.",
						"required": false,
						"type": "string",
						"x-example": "street address line 2"
					},
					{
						"in": "query",
						"name": "countryISOAlpha2Code",
						"description": "The 2-letter country/market code defined by the International Organization for Standardization (ISO) ISO 3166-1 scheme identifying the country of the entity.    <br/>   <br/>This parameter is required for &quot;Name and Address&quot;, &quot;Registration Number&quot; and &quot;Telephone Number&quot; Match.",
						"required": false,
						"type": "string",
						"x-example": "US"
					},
					{
						"in": "query",
						"name": "postalCode",
						"description": "Up to 10 characters of the identifier used by the local country's postal authority to identify where the address is located.    <br/>    <br/>This value is required for Postal Code Match.",
						"required": false,
						"type": "string",
						"x-example": "94536"
					},
					{
						"in": "query",
						"name": "addressLocality",
						"description": "1 to 50 characters that identifies the city, town, township, village, borough, etc. where the entity is located.",
						"required": false,
						"type": "string",
						"x-example": "short hills"
					},
					{
						"in": "query",
						"name": "addressRegion",
						"description": "The name of the locally governed area that forms part of a centrally governed nation to identify where the address is located.     <br/>     <br/>Note: As a guiding principle this is a geographic area which could theoretically exist as a separate nation. In the U.S. this would be a State. In the UK this would be one of the Home Nations.   <br/><br/>If country is US or CA, the Region must be 2 characters.<br/>For other countries, it can be up to 64 characters.",
						"required": false,
						"type": "string",
						"x-example": "NJ"
					},
					{
						"in": "query",
						"name": "addressCounty",
						"description": "The name of the county in which this address is located.<br/><br/>Applies only to high-volume match, not transactional Identity Resolution, Match and Append, or mult-process small batch requests.",
						"required": false,
						"type": "string",
						"x-example": "Essex"
					},
					{
						"in": "query",
						"name": "telephoneNumber",
						"description": "The sequence of digits used for voice communication with the entity.  This sequence of digits includes the area code or city code and domestic dialing code.    <br/><br/>Valid values:<br/>- For Asian matching, up to 16 characters.<br/>- For non-Asian matching, up to 32 characters.<br/><br/>This value is required for Telephone Number Match.",
						"required": false,
						"type": "string",
						"x-example": "5555555555"
					},
					{
						"in": "query",
						"name": "url",
						"description": "A URL used to identify an entity by its email domain.",
						"required": false,
						"type": "string",
						"x-example": "www.dnb.com"
					},
					{
						"in": "query",
						"name": "email",
						"description": "An email address used to identify an entity by its email domain.",
						"required": false,
						"type": "string",
						"x-example": "jones@dnb.com"
					},
					{
						"in": "query",
						"name": "customerBillingEndorsement",
						"description": "Text that is filled in by customer and commonly contains requesting individual or department name, or customer's own account/reference number and/or name for the case on which the product was provided. This text is a reference used during the billing process.",
						"required": false,
						"type": "string",
						"x-example": "request reference text"
					},
					{
						"in": "query",
						"name": "customerReference1",
						"description": "A free form reference string provided by the customer to be linked to the request in order to support subsequent order reconciliation.<br/><br/>Up to 5 attributes for customerReference will be accepted.",
						"required": false,
						"type": "string",
						"x-example": "request reference text"
					},
					{
						"in": "query",
						"name": "customerReference2",
						"description": "A free form reference string provided by the customer to be linked to the request in order to support subsequent order reconciliation.<br/><br/>Up to 5 attributes for customerReference will be accepted.",
						"required": false,
						"type": "string",
						"x-example": "request reference text"
					},
					{
						"in": "query",
						"name": "customerReference3",
						"description": "A free form reference string provided by the customer to be linked to the request in order to support subsequent order reconciliation.<br/><br/>Up to 5 attributes for customerReference will be accepted.<br/><br/>Note: This parameter is not applicable for Multi-Process High-Volume Match.",
						"required": false,
						"type": "string",
						"x-example": "request reference text"
					},
					{
						"in": "query",
						"name": "customerReference4",
						"description": "A free form reference string provided by the customer to be linked to the request in order to support subsequent order reconciliation.<br/><br/>Up to 5 attributes for customerReference will be accepted.<br/><br/>Note: This parameter is not applicable for Multi-Process High-Volume Match.",
						"required": false,
						"type": "string",
						"x-example": "request reference text"
					},
					{
						"in": "query",
						"name": "customerReference5",
						"description": "A free form reference string provided by the customer to be linked to the request in order to support subsequent order reconciliation.<br/><br/>Up to 5 attributes for customerReference will be accepted.<br/><br/>Note: This parameter is not applicable for Multi-Process High-Volume Match.",
						"required": false,
						"type": "string",
						"x-example": "request reference text"
					},
					{
						"in": "query",
						"name": "candidateMaximumQuantity",
						"description": "The maximum number of results to be returned.<br/><br/>Valid values: 1 to 100<br/>If not specified, the default of 10 is used.<br/>​Value is ignored for Multi-Process which always uses value of 1.<br/><br/>Maximum limit is 25, except for a nationwide search in US, CA - Maximum limit is 100.<br/><br/>Note : Refer Guide as this value varies based on IDR Lookup type and this parameter is not applicable for Multi-Process Batch Match and High-Volume Match.",
						"required": false,
						"type": "integer",
						"x-example": 25
					},
					{
						"in": "query",
						"name": "confidenceLowerLevelThresholdValue",
						"description": "The lowest confidence level for entities returned in the response.    <br/><br/>Valid values: 1 to 10<br/>If not specified, the default of 4 is used.<br/>    <br/>Note: This value is ignored for Asian Matching and Multi-Process <br/>High-Volume Match.",
						"required": false,
						"type": "integer",
						"x-example": 7
					},
					{
						"in": "query",
						"name": "exclusionCriteria",
						"description": "Provides the ability to exclude entities based on several properties.    <br/>     <br/>Values:    <br/>* ExcludeNonHeadQuarters: Only entities that are headquarters are returned.  A headquarter is defined as Parent/HQ, Domestic Ultimate, or Global Ultimate.<br/>* ExcludeNonMarketable: Only entities where isMarketable = true are returned.<br/>* ExcludeOutofBusiness: Only entities where isOutofBusiness = false are returned.<br/>* ExcludeUndeliverable: Only entities where isMailUndeliverable = false are returned.<br/>* ExcludeUnreachable: Only entites where isUnreachable = false are returned.<br/><br/>Up to 5 attributes will be accepted.<br/><br/>Note: This parameter is not applicable for Multi-Process High-Volume Match.",
						"required": false,
						"type": "string",
						"x-example": "ExcludeNonHeadQuarters,ExcludeNonMarketable"
					},
					{
						"in": "query",
						"name": "isCleanseAndStandardizeInformationRequired",
						"description": "Indicates if the cleanse and standardize information should be returned with the response.    <br/><br/>* If true, it is returned.<br/>* If false, it is not returned. (default)<br/><br/>Note: This parameter is not applicable for Multi-Process High-Volume Match.",
						"required": false,
						"type": "boolean",
						"x-example": true
					},
					{
						"in": "header",
						"name": "Authorization",
						"description": "The access token provided by authentication.",
						"required": true,
						"type": "string",
						"x-example": "Bearer alphanumerictoken"
					}
				]
			}
		}
	}
}