{
	"swagger": "2.0",
	"host": "plus.dnb.com",
	"schemes": [
		"https"
	],
	"info": {
		"description": "Manage Monitoring registrations",
		"version": "1",
		"title": "Monitoring API"
	},
	"basePath": "/",
	"tags": [
		{
			"name": "registrations"
		}
	],
	"paths": {
		"/v1/monitoring/registrations/{reference}/duns/{duns}": {
			"x-DNB-Name": "Remove Single D-U-N-S Number from LOD Registration",
			"x-DNB-ID": "monRemoveSingleDunsFromRegistration",
			"delete": {
				"tags": [
					"registrations"
				],
				"summary": "Endpoint",
				"description": "Provides the ability to remove Single D-U-N-S Number from an existing LOD Monitoring Registration.",
				"operationId": "removeSingleDunsFromRegistration",
				"produces": [
					"application/json"
				],
				"parameters": [
					{
						"in": "path",
						"name": "reference",
						"description": "A string used to identify the registration.  The reference must be unique for each subscriber.",
						"required": true,
						"type": "string",
						"x-example": "myregistration"
					},
					{
						"in": "path",
						"name": "duns",
						"description": "A 9-character numeric string identifying the entity by its Dun & Bradstreet D-U-N-S number.",
						"required": true,
						"type": "string",
						"x-example": "804735132"
					},
					{
						"in": "header",
						"name": "Authorization",
						"description": "The access token provided by authentication.",
						"required": true,
						"type": "string",
						"x-example": "Bearer alphanumerictoken"
					}
				],
				"responses": {
					"200": {
						"description": "OK",
						"schema": {
							"properties": {
								"transactionDetail": {
									"type": "object",
									"description": "The information used to process this request.",
									"properties": {
										"transactionID": {
											"description": "A value assigned by the Dun & Bradstreet application to uniquely identify this request.",
											"example": "rlh-hi9puyoijk-jop8u-kd-d-1",
											"type": "string"
										},
										"transactionTimestamp": {
											"description": "The date and time, in ISO 8601 UTC Z standard, when this response was created.",
											"example": "2017-02-21T17:46:19.839Z",
											"type": "string"
										},
										"inLanguage": {
											"description": "An IETF BCP 47 code value that defines the language in which this product was rendered.",
											"example": "en-US",
											"type": "string"
										}
									}
								},
								"information": {
									"description": "The details of the request.",
									"type": "object",
									"properties": {
										"code": {
											"description": "A unique code assigned by Dun & Bradstreet to identify the status of this request. See the Error and Information Code list for more information.",
											"example": 99999,
											"type": "string"
										},
										"message": {
											"description": "The description assigned to the information code.",
											"example": "A message appropriate to the request outcome.",
											"type": "string"
										}
									}
								}
							}
						}
					}
				}
			}
		}
	}
}