{
	"swagger": "2.0",
	"host": "plus.dnb.com",
	"schemes": [
		"https"
	],
	"info": {
		"description": "Searches for companies or contacts.",
		"title": "Search for a Company or Contact",
		"version": "1"
	},
	"basePath": "/",
	"paths": {
		"/v1/search/companyList": {
			"x-DNB-Name": "Search: Company List",
			"x-DNB-ID": "SearchCompanyList",
			"post": {
				"description": "Identifies the entities from the Dun & Bradstreet data source that match all the specified criteria. Allows a maximum of 10,000 results. \r\n\r\nData Coverage: Global",
				"summary": "Endpoint",
				"operationId": "SearchCompanyList",
				"x-monitoring": "Not Available.",
				"x-monitoring-pdf": "Not Available.",
				"tags": [
					"searchCompanyList"
				],
				"produces": [
					"application/json"
				],
				"responses": {
					"200": {
						"description": "OK",
						"schema": {
							"properties": {
								"transactionDetail": {
									"type": "object",
									"description": "The information used to process this request.",
									"properties": {
										"transactionID": {
											"type": "string",
											"example": "rlh-hi9puyoijk-jop8u-kd-d-1",
											"description": "A value assigned by the Dun & Bradstreet application to uniquely identify this request."
										},
										"transactionTimestamp": {
											"type": "string",
											"example": "2017-02-21T17:46:19.839Z",
											"description": "The date and time, in ISO 8601 UTC Z standard, when this response was created."
										},
										"inLanguage": {
											"type": "string",
											"example": "en-US",
											"description": "An IETF BCP 47 code value that defines the language in which this product was rendered."
										},
										"serviceVersion": {
											"type": "string",
											"example": 1,
											"description": "The product version number provided in the request."
										}
									},
									"additionalProperties": true
								},
								"inquiryDetail": {
									"type": "object",
									"description": "The details of the input data provided.",
									"properties": {
										"searchTerm": {
											"type": "string",
											"example": "The DUN & BRADSTREET",
											"description": "The search term provided in the request."
										},
										"countryISOAlpha2Code": {
											"type": "string",
											"example": "US",
											"description": "The country code provided in the request."
										},
										"duns": {
											"type": "string",
											"example": 804735132,
											"description": "The D-U-N-S number provided in the request."
										},
										"dunsList": {
											"type": "array",
											"description": "The list of D-U-N-S numbers provided in the request.",
											"items": {
												"example": [
													"804735132"
												],
												"type": "string"
											}
										},
										"isOutOfBusiness": {
											"type": "boolean",
											"example": false,
											"description": "The out of business value provided in the request."
										},
										"isMarketable": {
											"type": "boolean",
											"example": true,
											"description": "The marketable value provided in the request."
										},
										"isStandalone": {
											"type": "boolean",
											"example": true,
											"description": "The isStandalone value provided in the request"
										},
										"isImporter": {
											"type": "boolean",
											"example": "true",
											"description": "When 'true' indicates that the subject imports goods, raw materials, products etc., from other countries."
										},
										"isExporter": {
											"type": "boolean",
											"example": "true",
											"description": "When 'true' indicates that the subject exports goods, raw materials, products etc., to other countries."
										},
										"isFortune1000Listed": {
											"type": "boolean",
											"example": true,
											"description": "The isFortune1000Listed provided in the request."
										},
										"usSicV4": {
											"type": "array",
											"description": "The usSicV4 values provided in the request.",
											"items": {
												"example": [
													"5461"
												],
												"type": "string"
											}
										},
										"yearlyRevenue": {
											"type": "object",
											"description": "The details of the yearly revenue provided in the request.",
											"properties": {
												"minimumValue": {
													"type": "integer",
													"format": "int64",
													"example": 100000000,
													"description": "The yearly revenue minimum value provided in the request."
												},
												"maximumValue": {
													"type": "integer",
													"format": "int64",
													"example": 5000000000,
													"description": "The yearly revenue maximum value provided in the request."
												}
											},
											"additionalProperties": true
										},
										"isMailUndeliverable": {
											"type": "boolean",
											"example": false,
											"description": "The is mail undeliverable value provided in the request."
										},
										"isTelephoneDisconnected": {
											"type": "boolean",
											"example": false,
											"description": "The telephone disconnected value provided in the request."
										},
										"telephoneNumber": {
											"type": "string",
											"example": 9739215500,
											"description": "The telephone number provided in the request."
										},
										"domain": {
											"type": "string",
											"example": "dnb.com",
											"description": "The domain provided in the request."
										},
										"registrationNumbers": {
											"type": "array",
											"description": "The registration numbers provided in the request.",
											"items": {
												"example": [
													"11514917000120",
													"22-3725387"
												],
												"type": "string"
											}
										},
										"businessEntityType": {
											"type": "array",
											"description": "The business entity types provided in the request.",
											"items": {
												"example": [
													451,
													452,
													453
												],
												"type": "integer"
											}
										},
										"addressLocality": {
											"type": "string",
											"example": "Short Hills",
											"description": "The locality provided in the request."
										},
										"addressRegion": {
											"type": "string",
											"example": "New Jersey",
											"description": "The region provided in the request."
										},
										"addressCounty": {
											"type": "string",
											"example": "Santa Clara County",
											"description": "Text recording the name of a county where the business is located."
										},
										"streetAddressLine1": {
											"type": "string",
											"example": "103 JFK PKWY",
											"description": "The street address provided in the request."
										},
										"postalCode": {
											"type": "string",
											"example": "07040",
											"description": "The postal code provided in the request."
										},
										"postalCodesList": {
											"type": "array",
											"description": "A list of identifiers used by the local country Postal Authority to identify where the business is located.",
											"items": {
												"example": [
													"94536",
													"94538"
												],
												"type": "string"
											}
										},
										"locationRadius": {
											"type": "object",
											"description": "The location radius details provided in the request.",
											"properties": {
												"lat": {
													"type": "number",
													"example": 40.7431319,
													"description": "The latitude provided in the request."
												},
												"lon": {
													"type": "number",
													"example": -74.3620265,
													"description": "The longitude provided in the request."
												},
												"postalCode": {
													"type": "string",
													"example": 94536,
													"description": "The location radius postal code provided in the request."
												},
												"radius": {
													"type": "number",
													"example": 3,
													"description": "The radius provided in the request."
												},
												"unit": {
													"type": "string",
													"example": "mi",
													"description": "The unit provided in the request."
												}
											},
											"additionalProperties": true
										},
										"primaryName": {
											"type": "string",
											"example": "The DUN & BRADSTREET",
											"description": "The primary name provided in the request."
										},
										"tradeStyleName": {
											"type": "string",
											"example": "D&B",
											"description": "The trade style name provided in the request."
										},
										"tickerSymbol": {
											"type": "string",
											"example": "DNB",
											"description": "The ticker symbol provided in the request."
										},
										"familytreeRolesPlayed": {
											"type": "array",
											"description": "The family tree roles provided in the request.",
											"items": {
												"example": [
													12775,
													12774
												],
												"type": "integer"
											}
										},
										"globalUltimateFamilyTreeMembersCount": {
											"type": "object",
											"description": "The family tree count details provided in the request.",
											"properties": {
												"minimumValue": {
													"type": "integer",
													"example": 500,
													"description": "The family tree minimum count provided in the request."
												},
												"maximumValue": {
													"type": "integer",
													"example": 100,
													"description": "The family tree maximum count provided in the request."
												}
											},
											"additionalProperties": true
										},
										"numberOfEmployees": {
											"type": "object",
											"description": "The details of the Number of Employees criteria provided in the request.",
											"properties": {
												"informationScope": {
													"type": "integer",
													"example": 9066,
													"description": "The code provided in the request that represents the scope the requested values are checked against.<br/><br/>Valid values:<br/>- 9066: Individual<br/>- 9067: Consolidated"
												},
												"minimumValue": {
													"type": "integer",
													"example": 10000,
													"description": "The minimum number of employees provided in the request."
												},
												"maximumValue": {
													"type": "integer",
													"example": 1000,
													"description": "The maximum number of employees provided in the request."
												}
											},
											"additionalProperties": true
										},
										"industryCodes": {
											"type": "array",
											"description": "The details of the codes that were included in the request.",
											"items": {
												"properties": {
													"code": {
														"type": "array",
														"items": {
															"example": [
																"313240"
															],
															"type": "string"
														},
														"description": "A list of codes that were included in the request."
													},
													"description": {
														"type": "array",
														"items": {
															"example": [
																"mills"
															],
															"type": "string"
														},
														"description": "A list of descriptions that were included in the request."
													},
													"typeDnbCode": {
														"type": "integer",
														"example": 30832,
														"description": "The Industry Type Code that was included in the request.<br/>Refer to Reference code table \"30 [Industry Code Type]\" for all possible values."
													}
												},
												"additionalProperties": true,
												"type": "object"
											}
										},
										"isManufacturingLocation": {
											"type": "boolean",
											"example": true,
											"description": "An indicator of whether manufacturing activity is performed at this location."
										},
										"isPubliclyTradedCompany": {
											"type": "boolean",
											"example": false,
											"description": "An indication of whether the organization offers its securities to general public or not."
										},
										"isMinorityOwned": {
											"type": "boolean",
											"example": true,
											"description": "An indication of whether or not the organization is certified as a business that is greater than 50% owned by and whose management and daily business operations are controlled by one or more minority group members."
										},
										"isFemaleOwned": {
											"type": "boolean",
											"example": false,
											"description": "An indication of whether the organization is certified as a business that is greater than 50% owned by, and whose management and daily business operations are controlled by, one or more female persons."
										},
										"sort": {
											"type": "array",
											"description": "The details of the sort values in the request.",
											"items": {
												"properties": {
													"item": {
														"type": "string",
														"example": "countryISOAlpha2Code",
														"description": "The sort item values provided in the request."
													},
													"direction": {
														"type": "string",
														"example": "ascending",
														"description": "The sort direction values provided in the request."
													}
												},
												"additionalProperties": true,
												"type": "object"
											}
										},
										"pageSize": {
											"type": "integer",
											"example": 25,
											"description": "The number of results to be returned per page in the response."
										},
										"pageNumber": {
											"type": "integer",
											"example": 1,
											"description": "The page number provided in the request."
										},
										"returnNavigators": {
											"type": "boolean",
											"example": true,
											"description": "The value of this parameter provided in the request."
										},
										"globalUltimateCountryISOAlpha2Code": {
											"type": "string",
											"example": "US",
											"description": "The 2-letter country/market code defined by the International Organization for Standardization (ISO) ISO 3166-1 scheme identifying the Global Ultimate country/market of the entity."
										}
									},
									"additionalProperties": true
								},
								"candidatesMatchedQuantity": {
									"type": "integer",
									"example": 100,
									"description": "The total number of DUNS in which candidates are found with matching search criteria."
								},
								"candidatesReturnedQuantity": {
									"type": "integer",
									"example": 50,
									"description": "The total number of candidates returned in the response."
								},
								"searchCandidates": {
									"type": "array",
									"description": "The details for the entities returned in the search.",
									"items": {
										"properties": {
											"displaySequence": {
												"type": "integer",
												"example": 1,
												"description": "The order in which the entity appears in the result set. The lower the number the better the probability of the match."
											},
											"organization": {
												"type": "object",
												"description": "The details of the entity.",
												"properties": {
													"duns": {
														"type": "string",
														"example": 804735132,
														"description": "The D-U-N-S Number, assigned by Dun & Bradstreet, is an identification number that uniquely identifies the entity in accordance with the Data Universal Numbering System (D-U-N-S)."
													},
													"dunsControlStatus": {
														"type": "object",
														"description": "The details of the entity established to provide products and/or services in the marketplace or to the community.",
														"properties": {
															"isOutOfBusiness": {
																"type": "boolean",
																"example": false,
																"description": "Indicates whether the entity is longer functional or trading. <br/><br/>- If true, the entity is no longer functional or trading.<br/>- If false, the entity is actively functional or trading."
															},
															"isMarketable": {
																"type": "boolean",
																"example": true,
																"description": "Indicates whether the data on the entity satisfies Dun & Bradstreet's marketability rules for Sales & Marketing Solutions products. <br/><br/>- If true, the entity data satisfies the marketability rules.<br/>- If false, the entity data does not satisfy the marketability rules."
															},
															"isMailUndeliverable": {
																"type": "boolean",
																"example": false,
																"description": "Indicates whether it is possible to deliver mail to the address of this entity.\r<br/>\r<br/>- If true, it is not possible to deliver mail to at least one of the addresses listed for this DUNS (Primary, Mailing or Registered).<br/>- If false, it is possible to deliver mail to the address."
															},
															"isTelephoneDisconnected": {
																"type": "boolean",
																"example": false,
																"description": "Indicates whether the telephone number can be connected to successfully.<br/><br/>- If true, connection to the telephone number is unsuccessful.<br/>- If false, connection to the telephone number is successful."
															},
															"isDelisted": {
																"type": "boolean",
																"example": false,
																"description": "Indicates whether the entity has requested that they not be included in any Direct marketing lists (e.g., mailing, telephone).<br/><br/>- If true, the entity has objected to and MUST NOT receive direct marketing material.<br/>- If false, the entity has not objected to receiving direct marketing material."
															},
															"subjectHandlingDetails": {
																"type": "array",
																"description": "The details of the manner in which the entity is to receive special care being contacted. In many cases, this was specifically requested by the entity.",
																"items": {
																	"properties": {
																		"description": {
																			"type": "string",
																			"example": "Do not call",
																			"description": "The manner in which the entity is to receive special care when being contacted (e.g., do not call or do not send information requests). In many cases, this was specifically requested by the entity."
																		},
																		"dnbCode": {
																			"type": "integer",
																			"example": 7974,
																			"description": "A unique code assigned by Dun & Bradstreet to identify the manner in which the entity is to receive special care from Dun & Bradstreet when it is being contacted.<br/>Refer to Reference code table \"199 [Subject Handling]\" for all possible values."
																		}
																	},
																	"additionalProperties": true,
																	"type": "object"
																}
															}
														},
														"additionalProperties": true
													},
													"primaryName": {
														"type": "string",
														"example": "GORMAN MANUFACTURING COMPANY, INC.",
														"description": "The single name by which the entity is primarily known or identified."
													},
													"tradeStyleNames": {
														"type": "array",
														"description": "The details of the names that the entity trades under for commercial purposes although its registered legal name used for contracts and other formal situations may be another name.",
														"items": {
															"properties": {
																"name": {
																	"type": "string",
																	"example": "Alternate Company Name",
																	"description": "The name that the entity trades under for commercial purposes although its registered legal name used for contracts and other formal situations may be another name."
																},
																"priority": {
																	"type": "integer",
																	"example": 1,
																	"description": "The sequence in which the entity mostly uses this trade style name."
																}
															},
															"additionalProperties": true,
															"type": "object"
														}
													},
													"formerPrimaryNames": {
														"type": "array",
														"description": "The details of the entity's former names.",
														"items": {
															"properties": {
																"name": {
																	"type": "string",
																	"example": "Gorman & Sons Manufacturing",
																	"description": "The name by which the entity was previously known or identified."
																},
																"startDate": {
																	"type": "string",
																	"example": "2013-01-30",
																	"description": "The date when this entity name was first used or registered, or the date when Dun & Bradstreet was first informed that the entity was using this name."
																},
																"endDate": {
																	"type": "string",
																	"example": "2015-02-03",
																	"description": "The date the entity ceased using this name."
																}
															},
															"additionalProperties": true,
															"type": "object"
														}
													},
													"isImporter": {
														"type": "boolean",
														"example": false,
														"description": "Indicates if the entity is an importer.<br/><br/>- If true, the entity imports a quantity of goods from other countries.<br/>- If false, the entity does not import a quantity of goods from other countries."
													},
													"isExporter": {
														"type": "boolean",
														"example": false,
														"description": "Indicates if the entity is an exporter.<br/><br/>- If true, the entity exports a quantity of goods to other countries.<br/>- If false, the entity does not export a quantity of goods to other countries."
													},
													"isFortune1000Listed": {
														"type": "boolean",
														"example": false,
														"description": "Indicates whether the entity has ever been listed as one of the 1000 largest American companies, ranked on revenues alone by the American business magazine Fortune.<br/><br/><br/>- If true, the entity has been listed.<br/>- If false, the entity has not been listed."
													},
													"primaryAddress": {
														"type": "object",
														"description": "The details of the single primary or physical address at which the entity is located.",
														"properties": {
															"addressCountry": {
																"type": "object",
																"description": "The details of the country/market in which this address is located.",
																"properties": {
																	"name": {
																		"type": "string",
																		"example": "United States",
																		"description": "The name of the country/market in which this address is located."
																	},
																	"isoAlpha2Code": {
																		"type": "string",
																		"example": "US",
																		"description": "The two-letter country code, defined by the International Organization for Standardization (ISO) ISO 3166-1 scheme identifying the country/market in which this address is located."
																	}
																},
																"additionalProperties": true
															},
															"addressLocality": {
																"type": "object",
																"description": "The details of the locality where the organization's Primary Address is located or conducts operations. Locality defined as a district population cluster. City, town, township, village, borough etc.",
																"properties": {
																	"name": {
																		"type": "string",
																		"example": "SAN FRANCISCO",
																		"description": "The name of the locality where the organization's Primary Address is located or conducts operations. Locality defined as a district population cluster. City, town, township, village, borough etc."
																	}
																},
																"additionalProperties": true
															},
															"addressRegion": {
																"type": "object",
																"description": "The details of the locally governed area that forms part of a centrally governed nation to identify where this address is located.",
																"properties": {
																	"name": {
																		"type": "string",
																		"example": "California",
																		"description": "The name of the locally governed area that forms part of a centrally governed nation to identify where this address is located."
																	},
																	"abbreviatedName": {
																		"type": "string",
																		"example": "CA",
																		"description": "The shortened name of the locally governed area that forms part of a centrally governed nation. For example 'NJ' for the US State New Jersey within Country United States.<br/><br/>Note: The abbreviation does not always correspond to the ISO representation and can vary between countries based on data collection."
																	}
																},
																"additionalProperties": true
															},
															"addressCounty": {
																"type": "object",
																"description": "Records the details of the county where the business is located.",
																"properties": {
																	"name": {
																		"type": "string",
																		"example": "Santa Clara County",
																		"description": "Text recording the name of a county where the business is located."
																	}
																},
																"additionalProperties": true
															},
															"postalCode": {
																"type": "string",
																"example": 941109999,
																"description": "The postal code of the organization's Primary Address.<br/><br/>Also known locally in various English-speaking countries throughout the world as a postcode, post code, Eircode, PIN or ZIP Code) is a series of letters or digits or both, sometimes including spaces or punctuation, included in a postal address for the purpose of sorting mail. The code is used by the country&#39;s postal authority to identify the address where the organization is located or conducts operations ."
															},
															"streetNumber": {
																"type": "string",
																"example": "492",
																"description": "The number part of the street address where the entity is located.<br/>This may be a single number, a number with an appendix, or a range of street numbers.<br/>For example, the \"51 - 59C\" in the address 51 - 59C Wall Street."
															},
															"streetName": {
																"type": "string",
																"example": "KOLLER ST",
																"description": "The name of the street where the entity is located.<br/>For example, \"Wall Street\" in the address 51 - 59C Wall Street."
															},
															"streetAddress": {
																"type": "object",
																"description": "The details of the street address where the entity is located.",
																"properties": {
																	"line1": {
																		"type": "string",
																		"example": "492 KOLLER ST",
																		"description": "The first line of the address where the entity is located.<br/><br/>For example, &quot;41 Central Chambers&quot; in the address <br/>41 Central Chambers<br/>Dame Court<br/>Dublin 2"
																	},
																	"line2": {
																		"type": "string",
																		"example": "Suite 100",
																		"description": "The second line of the address where the entity is located.<br/><br/>For example, &quot;Dame Court&quot; in the address <br/>41 Central Chambers<br/>Dame Court<br/>Dublin 2"
																	}
																},
																"additionalProperties": true
															},
															"latitude": {
																"type": "number",
																"example": 37.777709,
																"description": "The latitude component of the entity's location defined as the angular distance of the primary physical address north or south from the Earth's equator expressed in decimal numbers. <br/><br/>Positive numbers indicate degrees north. Negative numbers indicate degrees south."
															},
															"longitude": {
																"type": "number",
																"example": -122.404624,
																"description": "The longitude component of the entity's location defined as the angular distance of the primary physical address east or west from an imaginary line (called the prime meridian) that goes from the North Pole to the South Pole expressed in decimal numbers. <br/><br/>Positive numbers indicate degrees east. Negative numbers indicate degrees west."
															},
															"isManufacturingLocation": {
																"type": "boolean",
																"example": true,
																"description": "Indicates if manufacturing activity is performed at this facility by the entity.<br/><br/>- If true, the entity performs manufacturing activity at this facility.<br/>- If false, the entity does not performs manufacturing activity at this facility."
															}
														},
														"additionalProperties": true
													},
													"registeredAddress": {
														"type": "object",
														"description": "The details of the official address of the entity as registered with a local or national registry to which all official correspondence must be sent.",
														"properties": {
															"addressCountry": {
																"type": "object",
																"description": "The details of the Country or Region where the organization's official address is located.",
																"properties": {
																	"name": {
																		"type": "string",
																		"example": "United States",
																		"description": "The name of the country/region where the organization's official address is located"
																	},
																	"isoAlpha2Code": {
																		"type": "string",
																		"example": "US",
																		"description": "The 2 letter alpha country code assigned by the International Organization for Standardization (ISO) identifying the country/region where the organization's official address is located."
																	}
																},
																"additionalProperties": true
															},
															"addressLocality": {
																"type": "object",
																"description": "The details of the locality where the organization's official address is located.",
																"properties": {
																	"name": {
																		"type": "string",
																		"example": "SAN FRANCISCO",
																		"description": "The name of the locality where the organization's official address is located. <br/>Locality defined as a district population cluster. City, Town, Township, Village, Borough etc."
																	}
																},
																"additionalProperties": true
															},
															"addressRegion": {
																"type": "object",
																"description": "The details of the locally governed area that forms part of a centrally governed nation to identify where this address is located.",
																"properties": {
																	"name": {
																		"type": "string",
																		"example": "California",
																		"description": "The name of the locally governed area that forms part of a centrally governed nation to identify where this address is located."
																	},
																	"abbreviatedName": {
																		"type": "string",
																		"example": "CA",
																		"description": "The shortened name of the geographical area where the organization's official address is located.<br/>For example NJ for the US State New Jersey within Country United States."
																	}
																},
																"additionalProperties": true
															},
															"addressCounty": {
																"type": "object",
																"description": "Records the details of the county where the business is located.",
																"properties": {
																	"name": {
																		"type": "string",
																		"example": "Santa Clara County",
																		"description": "Text recording the name of a county where the business is located."
																	}
																},
																"additionalProperties": true
															},
															"postalCode": {
																"type": "string",
																"example": 941109999,
																"description": "The postal code of the organization's Primary Address.<br/><br/>Also known locally in various English-speaking countries throughout the world as a postcode, post code, Eircode, PIN or ZIP Code) is a series of letters or digits or both, sometimes including spaces or punctuation, included in a postal address for the purpose of sorting mail. The code is used by the country&#39;s postal authority to identify the address where the organization is located or conducts operations ."
															},
															"streetNumber": {
																"type": "string",
																"example": "492",
																"description": "The number part of the street address where the entity is located.<br/>This may be a single number, a number with an appendix, or a range of street numbers.<br/>For example, the \"51 - 59C\" in the address 51 - 59C Wall Street."
															},
															"streetName": {
																"type": "string",
																"example": "KOLLER ST",
																"description": "The name of the street where the entity is located.<br/>For example, \"Wall Street\" in the address 51 - 59C Wall Street."
															},
															"streetAddress": {
																"type": "object",
																"description": "The details of the street address where the entity is located.",
																"properties": {
																	"line1": {
																		"type": "string",
																		"example": "492 KOLLER ST",
																		"description": "The first line of the address where the entity is located.<br/><br/>For example, &quot;41 Central Chambers&quot; in the address <br/>41 Central Chambers<br/>Dame Court<br/>Dublin 2"
																	},
																	"line2": {
																		"type": "string",
																		"example": "Suite 100",
																		"description": "The second line of the address where the entity is located.<br/><br/>For example, &quot;Dame Court&quot; in the address <br/>41 Central Chambers<br/>Dame Court<br/>Dublin 2"
																	}
																},
																"additionalProperties": true
															}
														},
														"additionalProperties": true
													},
													"mailingAddress": {
														"type": "object",
														"description": "The details of the address used by the entity for mailing purposes.",
														"properties": {
															"addressCountry": {
																"type": "object",
																"description": "The details of the country/market in which this address is located.",
																"properties": {
																	"name": {
																		"type": "string",
																		"example": "United States",
																		"description": "The name of the country/market in which this address is located."
																	},
																	"isoAlpha2Code": {
																		"type": "string",
																		"example": "US",
																		"description": "The two-letter country code, defined by the International Organization for Standardization (ISO) ISO 3166-1 scheme identifying the country/market in which this address is located."
																	}
																},
																"additionalProperties": true
															},
															"addressLocality": {
																"type": "object",
																"description": "The details of the locality where the organization's Primary Address is located or conducts operations. Locality defined as a district population cluster. City, town, township, village, borough etc.",
																"properties": {
																	"name": {
																		"type": "string",
																		"example": "SAN FRANCISCO",
																		"description": "The name of the locality where the organization's Primary Address is located or conducts operations. Locality defined as a district population cluster. City, town, township, village, borough etc."
																	}
																},
																"additionalProperties": true
															},
															"addressRegion": {
																"type": "object",
																"description": "The details of the locally governed area that forms part of a centrally governed nation to identify where this address is located.",
																"properties": {
																	"name": {
																		"type": "string",
																		"example": "California",
																		"description": "The name of the locally governed area that forms part of a centrally governed nation to identify where this address is located."
																	},
																	"abbreviatedName": {
																		"type": "string",
																		"example": "CA",
																		"description": "The shortened name of the locally governed area that forms part of a centrally governed nation. For example 'NJ' for the US State New Jersey within Country United States.<br/><br/>Note: The abbreviation does not always correspond to the ISO representation and can vary between countries based on data collection."
																	}
																},
																"additionalProperties": true
															},
															"addressCounty": {
																"type": "object",
																"description": "Records the details of the county where the business is located.",
																"properties": {
																	"name": {
																		"type": "string",
																		"example": "Santa Clara County",
																		"description": "Text recording the name of a county where the business is located."
																	}
																},
																"additionalProperties": true
															},
															"postalCode": {
																"type": "string",
																"example": 941109999,
																"description": "The postal code of the organization's Primary Address.<br/><br/>Also known locally in various English-speaking countries throughout the world as a postcode, post code, Eircode, PIN or ZIP Code) is a series of letters or digits or both, sometimes including spaces or punctuation, included in a postal address for the purpose of sorting mail. The code is used by the country&#39;s postal authority to identify the address where the organization is located or conducts operations ."
															},
															"streetNumber": {
																"type": "string",
																"example": "492",
																"description": "The number part of the street address where the entity is located.<br/>This may be a single number, a number with an appendix, or a range of street numbers.<br/>For example, the \"51 - 59C\" in the address 51 - 59C Wall Street."
															},
															"streetName": {
																"type": "string",
																"example": "KOLLER ST",
																"description": "The name of the street where the entity is located.<br/>For example, \"Wall Street\" in the address 51 - 59C Wall Street."
															},
															"streetAddress": {
																"type": "object",
																"description": "The details of the street address where the entity is located.",
																"properties": {
																	"line1": {
																		"type": "string",
																		"example": "492 KOLLER ST",
																		"description": "The first line of the address where the entity is located.<br/><br/>For example, &quot;41 Central Chambers&quot; in the address <br/>41 Central Chambers<br/>Dame Court<br/>Dublin 2"
																	},
																	"line2": {
																		"type": "string",
																		"example": "Suite 100",
																		"description": "The second line of the address where the entity is located.<br/><br/>For example, &quot;Dame Court&quot; in the address <br/>41 Central Chambers<br/>Dame Court<br/>Dublin 2"
																	}
																},
																"additionalProperties": true
															}
														},
														"additionalProperties": true
													},
													"telephone": {
														"type": "array",
														"description": "The details of the telephone information used for voice communication with the entity.",
														"items": {
															"properties": {
																"telephoneNumber": {
																	"type": "string",
																	"example": 6505550000,
																	"description": "A sequence of digits used for voice communication with the entity.<br/>This sequence of digits includes the area code or city code and domestic dialing code."
																},
																"isdCode": {
																	"type": "string",
																	"example": 1,
																	"description": "The country calling code assigned by the International Telecommunication Union (ITU) required to connect to this telephone number when dialing from outside the entity's country (e.g., '1' for the US, '44' for the UK, '91' for India)."
																}
															},
															"additionalProperties": true,
															"type": "object"
														}
													},
													"domain": {
														"type": "string",
														"example": "gorman.com",
														"description": "A unique name used to identify the website of the Organization that serves as an address to access that website."
													},
													"registrationNumbers": {
														"type": "array",
														"description": "The details of the numbers assigned by an external body or by Dun & Bradstreet that either uniquely identifies or helps to identify the entity.",
														"items": {
															"properties": {
																"registrationNumber": {
																	"type": "string",
																	"example": "12-3456789",
																	"description": "The number assigned by an external body or by Dun & Bradstreet that either uniquely identifies or helps to identify the entity."
																},
																"typeDescription": {
																	"type": "string",
																	"example": "Federal Taxpayer Identification Number (US)",
																	"description": "The type of registration (e.g., Chamber of Commerce Number, Value Added Tax Number, Federal Taxpayer Identification Number, Companies Registry Office Number)."
																},
																"typeDnBCode": {
																	"type": "integer",
																	"example": 6863,
																	"description": "A unique code assigned by Dun & Bradstreet to identify the type of registration number.<br/>Refer to Reference code table \"7 [Registration Number Type]\" for all possible values."
																}
															},
															"additionalProperties": true,
															"type": "object"
														}
													},
													"numberOfEmployees": {
														"type": "array",
														"description": "The details of the people engaged by the entity to perform its operations.",
														"items": {
															"properties": {
																"value": {
																	"type": "integer",
																	"example": 1234,
																	"description": "The total number of people engaged by the entity to perform its operations. The scope of this employee figure is identified in informationScopeDescription."
																},
																"informationScopeDescription": {
																	"type": "string",
																	"example": "Consolidated",
																	"description": "The scope of Number of Employees value (e.g., Consolidated, Individual, HQ only)."
																},
																"informationScopeDnBCode": {
																	"type": "integer",
																	"example": 9067,
																	"description": "A unique code assigned by Dun & Bradstreet to identify the scope of Number of Employees.<br/>Refer to Reference code table \"192 [Information Scope]\" for all possible values."
																},
																"reliabilityDescription": {
																	"type": "string",
																	"example": "Actual",
																	"description": "The integrity of the employee figures (e.g., actual, estimated, or modeled)."
																},
																"reliabilityDnBCode": {
																	"type": "integer",
																	"example": 9092,
																	"description": "A unique code assigned by Dun & Bradstreet to identify the integrity of the employee figures.<br/>Refer to Reference code table \"171 [Reliability]\" for all possible values."
																}
															},
															"additionalProperties": true,
															"type": "object"
														}
													},
													"businessEntityType": {
														"type": "object",
														"description": "The details of the legal form or structure of the entity as registered with government authorities.",
														"properties": {
															"description": {
																"type": "string",
																"example": "Corporation",
																"description": "The name of the legal form or structure of the entity as registered with government authorities (e.g., partnership, corporation, private limited company, government department, proprietorship)."
															},
															"dnbCode": {
																"type": "integer",
																"example": 451,
																"description": "A unique code assigned by Dun & Bradstreet to identify the legal form or structure of the entity as registered with government authorities.<br/>Refer to Reference code table \"197 [Business Entity Type]\" for all possible values."
															}
														},
														"additionalProperties": true
													},
													"tickerSymbol": {
														"type": "string",
														"example": "NYSE:DNB",
														"description": "The entity's identifier for share trading purposes at the Stock Exchange where the entity does most of the trading. For example &quot;NYSE: DNB&quot; is the ticker symbol for Dun & Bradstreet in New York Stock Exchange."
													},
													"financials": {
														"type": "array",
														"description": "The details of the standardized view of the financial results of the entity; this is usually extracted from a set of accounts.",
														"items": {
															"properties": {
																"yearlyRevenue": {
																	"type": "array",
																	"description": "The details of the income received from customers from the sale of the entity's goods and/or services. This is the gross sales minus any returns, rebates/discounts, allowances for damages or shortages, shipping expenses passed on to the customer, and amounts due where there is not a reasonable expectation of collection.",
																	"items": {
																		"properties": {
																			"value": {
																				"type": "number",
																				"example": 19945238,
																				"description": "The monetary value of income received from customers from the sale of the entity's goods and/or services. This is the gross sales minus any returns, rebates/discounts, allowances for damages or shortages, shipping expenses passed on to the customer."
																			},
																			"currency": {
																				"type": "string",
																				"example": "USD",
																				"description": "The three-letter currency code, defined in the ISO 4217 scheme published by International Organization for Standardization (ISO) identifying the type of money in which this amount is expressed (e.g. USD, CAD, GBP, EUR)."
																			}
																		},
																		"additionalProperties": true,
																		"type": "object"
																	}
																}
															},
															"additionalProperties": true,
															"type": "object"
														}
													},
													"isStandalone": {
														"type": "boolean",
														"example": false,
														"description": "Indicates if the entity is a member of a legal family tree. <br/><br/>- If true, indicates that the entity is not a member of a legal family tree. This means it cannot play any family tree role and corporateLinkage will not be present.<br/>- If false, indicates that the entity is a member of a legal family tree. The roles it plays is indicated by Family Tree Member Roles played."
													},
													"corporateLinkage": {
														"type": "object",
														"description": "The details of the relationship between the entity and other entities in the legal family tree.",
														"properties": {
															"isBranch": {
																"type": "boolean",
																"example": false,
																"description": "Indicates if the entity is a Branch.<br/><br/>- If true, the entity is a branch.<br/>- If false, the entity is not a branch."
															},
															"familytreeRolesPlayed": {
																"type": "array",
																"description": "The details of the roles the entity plays as a member of an ownership structured family tree.",
																"items": {
																	"properties": {
																		"description": {
																			"type": "string",
																			"example": "Parent/Headquarters",
																			"description": "The role the entity plays as a member of an ownership structured family tree (e.g., a branch, division, a parent, headquarters, subsidiary, global ultimate, domestic ultimate)."
																		},
																		"dnbCode": {
																			"type": "integer",
																			"example": 9141,
																			"description": "A unique code assigned by Dun & Bradstreet to identify describing family tree role.<br/>Refer to Reference code table \"202 [Family Tree Role]\" for all possible values."
																		}
																	},
																	"additionalProperties": true,
																	"type": "object"
																}
															},
															"globalUltimateFamilyTreeMembersCount": {
																"type": "integer",
																"example": 9000,
																"description": "The total number of entities in the entity's Family tree starting from Global Ultimate."
															},
															"globalUltimate": {
																"type": "object",
																"description": "The details of the top most entity in the family tree, tracing each parent up to its own parent. <br/><br/>For example, Company-A is based in the US and has Company-B as its parent also in the US. In turn Company-B is owned by Company-C, also in the US, which is owned by Company-D which is in the UK. Thus, the Global Ultimate of this family tree (and therefore of each member of the family tree) is Company-D.",
																"properties": {
																	"duns": {
																		"type": "string",
																		"example": 804735132,
																		"description": "The D-U-N-S Number, assigned by Dun & Bradstreet, is an identification number that uniquely identifies the entity in accordance with the Data Universal Numbering System (D-U-N-S)."
																	},
																	"primaryName": {
																		"type": "string",
																		"example": "GORMAN MANUFACTURING COMPANY, INC.",
																		"description": "The single name by which the entity is primarily known or identified."
																	},
																	"primaryAddress": {
																		"type": "object",
																		"description": "The details of the single primary or physical address at which the entity is located.",
																		"properties": {
																			"addressCountry": {
																				"type": "object",
																				"description": "The details of the country/market in which this address is located.",
																				"properties": {
																					"isoAlpha2Code": {
																						"type": "string",
																						"example": "US",
																						"description": "The two-letter country code, defined by the International Organization for Standardization (ISO) ISO 3166-1 scheme identifying the country/market in which this address is located."
																					}
																				},
																				"additionalProperties": true
																			}
																		},
																		"additionalProperties": true
																	}
																},
																"additionalProperties": true
															},
															"parent": {
																"type": "object",
																"description": "Records information about the organization which owns more than 50% of the subject and the organization at the very top of the legal family.",
																"properties": {
																	"duns": {
																		"type": "string",
																		"example": 804735132,
																		"description": "The D-U-N-S Number is D&B's identification number, which provides unique identification of this organization, in accordance with the Data Universal Numbering System (D-U-N-S)."
																	},
																	"primaryName": {
																		"type": "string",
																		"example": "GORMAN MANUFACTURING COMPANY, INC.",
																		"description": "The single name by which the organization is primarily known / identified."
																	}
																},
																"additionalProperties": true
															},
															"headQuarter": {
																"type": "object",
																"description": "The details of the office that serves as the administrative center for the entity.",
																"properties": {
																	"duns": {
																		"type": "string",
																		"example": 804735132,
																		"description": "The D-U-N-S Number, assigned by Dun & Bradstreet, is an identification number that uniquely identifies the entity in accordance with the Data Universal Numbering System (D-U-N-S)."
																	},
																	"primaryName": {
																		"type": "string",
																		"example": "GORMAN MANUFACTURING COMPANY, INC.",
																		"description": "The single name by which the entity is primarily known or identified."
																	}
																},
																"additionalProperties": true
															}
														},
														"additionalProperties": true
													},
													"primaryIndustryCodes": {
														"type": "array",
														"description": "The primary activity in which the organization is engaged as defined by the 4 digit 1987 US Standard Industry Classification (SIC). Additional coding schemes may be added in the future.",
														"items": {
															"properties": {
																"usSicV4": {
																	"type": "string",
																	"example": 7323,
																	"description": "The 1987 version of a 4-digit numeric coding system developed by the US Government for the classification of industrial activities to denote the industry in which the entity does most of its business."
																},
																"usSicV4Description": {
																	"type": "string",
																	"example": "Credit reporting services",
																	"description": "The business activity based on the scheme used for the industry code (e.g., 'highway and street construction' is the description of industry code 1611 in the U.S. SIC (Standard Industrial Classification) system)."
																}
															},
															"additionalProperties": true,
															"type": "object"
														}
													},
													"industryCodes": {
														"type": "array",
														"description": "The details of the business activities in which the entity is actively engaged using standardized coding schemes such as European NACE and U.S. Standard Industry Classifications (SIC).<br/><br/>Note: Since some of the industry coding schemes are derived, multiple codes from a more granular coding scheme can result in same code in another less granular coding scheme.",
														"items": {
															"properties": {
																"code": {
																	"type": "string",
																	"example": 323111,
																	"description": "An alphanumeric value assigned to an organization categorizing the business activities performed at its location. Business activities are coded using standardized coding schemes. For example, 1611 represents the highway and street construction industry in the U.S. SIC (Standard Industrial Classification) 1987 system."
																},
																"description": {
																	"type": "string",
																	"example": "Commercial Printing ",
																	"description": "The business activity description as assigned by the coding scheme used."
																},
																"priority": {
																	"type": "integer",
																	"example": 1,
																	"description": "A number identifying the order in which this industry code should be presented relative to other industry codes of the same type. Priority is based on the percentage of business the entity does in the industry."
																},
																"typeDescription": {
																	"type": "string",
																	"example": "North American Industry Classification System (NAICS)",
																	"description": "The industry coding scheme used for this Industry Code (e.g., North American Industry Classification System (NAICS), Nomenclature General des Activities Economiques dans L`Union Europeenne (NACE))."
																},
																"typeDnbCode": {
																	"type": "integer",
																	"example": 25838,
																	"description": "A unique code assigned by Dun & Bradstreet to identify the industry coding scheme.<br/>Valid values:<br/><br/>25838: D&B Hoovers Industry Code<br/>24664: NAICS 2012<br/>30832: NAICS 2017<br/>19295: UK Standard Industry Code 2007"
																}
															},
															"additionalProperties": true,
															"type": "object"
														}
													},
													"socioEconomicInformation": {
														"type": "object",
														"description": "The details of the business subject has indication of having a socio-economic/diverse ownership status on file.",
														"properties": {
															"isMinorityOwned": {
																"type": "boolean",
																"example": true,
																"description": "An Indicator tagging a business concern that is at least 51% owned by one or more minority persons (such as Black, Hispanic or Native American), or in the case of a corporation, at least 51% of the stock in which is owned by one or more minority persons or, in the case of any publicly owned business, at least 51% of the stock of which is owned by one or more minority persons, and the management and daily business operations of which are controlled by one or more of the minority individuals who own it. Control in this context means exercising the power to make policy decisions and operate means to be actively involved in the day-to-day management of the business."
															},
															"isFemaleOwned": {
																"type": "boolean",
																"example": true,
																"description": "An Indicator tagging a business concern which is at least 51% owned by one or more women or, in the case of any publicly owned business, at least 51% of the stock of which is owned by one or more women, and whose management and daily business operations are controlled by one or more women. Control in this context means exercising the power to make policy decisions and operate means to be actively involved in the day-to-day management of the business."
															}
														},
														"additionalProperties": true
													},
													"isPubliclyTradedCompany": {
														"type": "boolean",
														"example": true,
														"description": "Indicates whether the entity offers its securities to general public, typically through a stock exchange.<br/><br/>- If true, entity offers securities to the general public.<br/>- If false, entity does not offer securities to the general public."
													}
												},
												"additionalProperties": true
											}
										},
										"additionalProperties": true,
										"type": "object"
									}
								},
								"navigators": {
									"type": "object",
									"description": "The details of the available navigators, or filters, for the search response.<br/><br/>The navigators can be added to a follow-up search request to narrow the results. See the Search Criteria Guide for more information.",
									"properties": {
										"yearlyRevenue": {
											"type": "array",
											"description": "The available filters for Yearly Revenue.",
											"items": {
												"properties": {
													"query": {
														"type": "object",
														"description": "The details of a Yearly Revenue filter.",
														"properties": {
															"yearlyRevenue": {
																"type": "object",
																"description": "The Yearly Revenue request details that can be used in a follow-up query.",
																"properties": {
																	"minimumValue": {
																		"type": "integer",
																		"format": "int64",
																		"example": 1000000,
																		"description": "The minimum Yearly Revenue for the follow-up query."
																	},
																	"maximumValue": {
																		"type": "integer",
																		"format": "int64",
																		"example": 10000000,
																		"description": "The maximum Yearly Revenue for the follow-up query."
																	}
																},
																"additionalProperties": true
															}
														},
														"additionalProperties": true
													},
													"candidatesMatchedQuantity": {
														"type": "integer",
														"example": 500000,
														"description": "The number of candidates that meet this filter's criteria."
													}
												},
												"additionalProperties": true,
												"type": "object"
											}
										},
										"numberOfEmployees": {
											"type": "array",
											"description": "The available filters for Number of Employees.",
											"items": {
												"properties": {
													"query": {
														"type": "object",
														"description": "The details of a Number of Employees filter.",
														"properties": {
															"numberOfEmployees": {
																"type": "object",
																"description": "The Number of Employees request details that can be used in a follow-up query.",
																"properties": {
																	"informationScope": {
																		"type": "integer",
																		"example": 9066,
																		"description": "The Number of Employees Information Scope for the follow-up query.<br/><br/>- 9066: Individual<br/>- 9067: Consolidated"
																	},
																	"minimumValue": {
																		"type": "integer",
																		"example": 5000,
																		"description": "The minimum Number of Employees for the follow-up query."
																	},
																	"maximumValue": {
																		"type": "integer",
																		"example": 10000,
																		"description": "The maximum Number of Employees for the follow-up query."
																	}
																},
																"additionalProperties": true
															}
														},
														"additionalProperties": true
													},
													"candidatesMatchedQuantity": {
														"type": "integer",
														"example": 500000,
														"description": "The number of candidates that meet this filter's criteria."
													}
												},
												"additionalProperties": true,
												"type": "object"
											}
										},
										"industry": {
											"type": "array",
											"description": "The available filters for usSicV4 codes.",
											"items": {
												"properties": {
													"query": {
														"type": "object",
														"description": "The usSicV4 request details that can be used in a follow-up query.",
														"properties": {
															"usSicV4": {
																"type": "array",
																"description": "The usSicV4 codes for the follow-up query.<br/><br/>This parameter is an array for compatibility with the request format; however, it will only contain a single value.",
																"items": {
																	"example": [
																		"7323"
																	],
																	"type": "string"
																}
															}
														},
														"additionalProperties": true
													},
													"description": {
														"type": "string",
														"example": "Credit reporting services",
														"description": "The usSicV4 code descriptions."
													},
													"candidatesMatchedQuantity": {
														"type": "integer",
														"example": 500000,
														"description": "The number of candidates that meet this filter's criteria."
													}
												},
												"additionalProperties": true,
												"type": "object"
											}
										},
										"businessEntityType": {
											"type": "array",
											"description": "The available filters for Business Entity Types.",
											"items": {
												"properties": {
													"query": {
														"type": "object",
														"description": "The Business Entity Type request details that can be used in a follow-up query.",
														"properties": {
															"businessEntityType": {
																"type": "array",
																"description": "The Business Entity Type codes for the follow-up query.<br/><br/>This parameter is an array for compatibility with the request format; however, it will only contain a single value.",
																"items": {
																	"example": [
																		451
																	],
																	"type": "integer"
																}
															}
														},
														"additionalProperties": true
													},
													"description": {
														"type": "string",
														"example": "Corporation",
														"description": "The Business Entity Type code descriptions; the descriptions are in the same order as the codes."
													},
													"candidatesMatchedQuantity": {
														"type": "integer",
														"example": 500000,
														"description": "The number of candidates that meet this filter's criteria."
													}
												},
												"additionalProperties": true,
												"type": "object"
											}
										},
										"familyTreeRole": {
											"type": "array",
											"description": "The available filters for Family Tree Roles.",
											"items": {
												"properties": {
													"query": {
														"type": "object",
														"description": "The Family Tree Role request details to be used in a follow-up query.",
														"properties": {
															"familytreeRolesPlayed": {
																"type": "array",
																"description": "A list of the Family Tree Role codes to be used in the follow-up query.<br/><br/>This parameter is an array for compatibility with the request format; however, it will only contain a single value.",
																"items": {
																	"example": [
																		12775
																	],
																	"type": "integer"
																}
															}
														},
														"additionalProperties": true
													},
													"description": {
														"type": "string",
														"example": "Global Ultimate",
														"description": "The Family Tree Role code description."
													},
													"candidatesMatchedQuantity": {
														"type": "integer",
														"example": 500000,
														"description": "The number of candidates that meet this filter's criteria."
													}
												},
												"additionalProperties": true,
												"type": "object"
											}
										},
										"location": {
											"type": "object",
											"description": "The available filters for the various location-related search parameters.",
											"properties": {
												"country": {
													"type": "array",
													"description": "The available filters for Country.",
													"items": {
														"properties": {
															"query": {
																"type": "object",
																"description": "The Country request details that can be used in a follow-up query.",
																"properties": {
																	"countryISOAlpha2Code": {
																		"type": "string",
																		"example": "US",
																		"description": "The Country ISO Alpha 2 code for the follow-up query."
																	}
																},
																"additionalProperties": true
															},
															"name": {
																"type": "string",
																"example": "United States",
																"description": "The name of the country associated with the code."
															},
															"candidatesMatchedQuantity": {
																"type": "integer",
																"example": 500000,
																"description": "The number of candidates that meet this filter's criteria."
															},
															"region": {
																"type": "array",
																"description": "The available filters for Region.",
																"items": {
																	"properties": {
																		"query": {
																			"type": "object",
																			"description": "The Region request details that can be used in a follow-up query.",
																			"properties": {
																				"addressRegion": {
																					"type": "string",
																					"example": "New Jersey",
																					"description": "The Region string for the follow-up query."
																				}
																			},
																			"additionalProperties": true
																		},
																		"candidatesMatchedQuantity": {
																			"type": "integer",
																			"example": 500000,
																			"description": "The number of candidates that meet this filter's criteria."
																		},
																		"locality": {
																			"type": "array",
																			"description": "The available filters for Locality.",
																			"items": {
																				"properties": {
																					"query": {
																						"type": "object",
																						"description": "The Locality request details that can be used in a follow-up query.",
																						"properties": {
																							"addressLocality": {
																								"type": "string",
																								"example": "Short Hills",
																								"description": "The Locality string to be used in the follow-up query."
																							}
																						},
																						"additionalProperties": true
																					},
																					"candidatesMatchedQuantity": {
																						"type": "integer",
																						"example": 500000,
																						"description": "The number of candidates that meet this filter's criteria."
																					}
																				},
																				"additionalProperties": true,
																				"type": "object"
																			}
																		}
																	},
																	"additionalProperties": true,
																	"type": "object"
																}
															}
														},
														"additionalProperties": true,
														"type": "object"
													}
												}
											},
											"additionalProperties": true
										}
									},
									"additionalProperties": true
								}
							},
							"description": "",
							"type": "object"
						}
					}
				},
				"security": [],
				"parameters": [
					{
						"in": "header",
						"name": "Authorization",
						"description": "The access token provided by authentication.",
						"required": true,
						"type": "string",
						"x-example": "Bearer alphanumerictoken"
					},
					{
						"in": "header",
						"name": "Content-Type",
						"description": "The content type must be &quot;application/json&quot;.",
						"required": true,
						"type": "string",
						"x-example": "application/json"
					},
					{
						"in": "body",
						"name": "body",
						"description": "",
						"required": true,
						"schema": {
							"properties": {
								"searchTerm": {
									"type": "string",
									"example": "name to search",
									"description": "2 to 60 characters used to find entities by their primary or tradestyle names or D-U-N-S, Former primary names (last 5) or stockTicker.    <br/>    <br/>This is a Standalone parameter; at least one Standalone parameter must be included in the request."
								},
								"countryISOAlpha2Code": {
									"type": "string",
									"example": "US",
									"description": "The 2-letter country/market code defined by the International Organization for Standardization (ISO) ISO 3166-1 scheme identifying the country of the entity."
								},
								"duns": {
									"type": "string",
									"example": "804735132",
									"description": "A 9-character numeric string identifying the entity by its Dun & Bradstreet D-U-N-S number.    <br/>    <br/>This is a Standalone parameter; at least one Standalone parameter must be included in the request."
								},
								"dunsList": {
									"type": "array",
									"description": "A list of 9-character numeric string identifying the entity by its Dun & Bradstreet D-U-N-S number.<br/><br/>This array may contain up to 10 values separated by a comma.<br/><br/>Note: Either duns OR dunsList may be included.<br/><br/>This is a Standalone parameter; at least one Standalone parameter must be included in the request.",
									"items": {
										"example": [
											"804735132"
										],
										"type": "string"
									}
								},
								"isOutOfBusiness": {
									"type": "boolean",
									"example": false,
									"description": "Limits the search to entities with an isOutOfBusiness flag set to the specified value.    <br/>    <br/>* true = the entity is no longer functional or trading.<br/>* false = the entity is actively functional or trading."
								},
								"isMarketable": {
									"type": "boolean",
									"example": true,
									"description": "Limits the search to entities with an isMarketable flag set to the specified value.<br/><br/>* true = the data on the entity satisfies Dun & Bradstreet's marketability rules for Sales & Marketing Solutions products. <br/>* false = the data on the entity does not satisfies Dun & Bradstreet's marketability rules."
								},
								"isStandalone": {
									"type": "boolean",
									"example": true,
									"description": "When set to \"true\" it indicates that this organization is not a member of a legal family tree. This means it cannot play the role of a subsidiary, parent, headquarters or branch; i.e., Family Tree Member Role cannot be present.<br/>When set to \"false\" it indicates that this organization  is a member of a legal family tree. In this condition the Family Tree Member Role must be present."
								},
								"isMailUndeliverable": {
									"type": "boolean",
									"example": false,
									"description": "Limits the search to entities with an isMailDeliverable flag set to the specified value.       <br/>        <br/>* true = mail cannot be delivered to the address.<br/>* false = mail can be delivered to the address."
								},
								"usSicV4": {
									"type": "array",
									"description": "The 1987 version of a 4-digit numeric coding system developed by the US Government for the classification of industrial activities to denote the industry in which the business entity does most of its business.     <br/>     <br/>This array may contain up to 50 strings of 4 characters each.    <br/>    <br/>This is a Standalone parameter; at least one Standalone parameter must be included in the request.",
									"items": {
										"example": [
											"5461"
										],
										"type": "string"
									}
								},
								"yearlyRevenue": {
									"type": "object",
									"description": "The details of the revenue range to be used to limit the search results.",
									"properties": {
										"minimumValue": {
											"type": "integer",
											"format": "int64",
											"example": 1000000,
											"description": "The minimum amount of yearly revenue (the monetary value of income received from customers from the sale of the business' goods and/or services) used to limit the search.     <br/>    <br/>Valid value: 1 to 100000000000000    <br/><br/>If maximum value is not also specified, the search results include entities with yearly revenue values that are greater than or equal to the maximum value."
										},
										"maximumValue": {
											"type": "integer",
											"format": "int64",
											"example": 10000000,
											"description": "The maximum amount of yearly revenue (the monetary value of income received from customers from the sale of the business' goods and/or services) used to limit the search      <br/>    <br/>Valid value: 1 to 100000000000000    <br/><br/>If minimum value is not also specified, the search results include entities with yearly revenue values that are less than or equal to the minimum value."
										}
									},
									"additionalProperties": true
								},
								"isTelephoneDisconnected": {
									"type": "boolean",
									"example": false,
									"description": "Limits the search to entities with an isTelephoneDisconnected flag set to the specified value.       <br/>        <br/>* true = the entity cannot be successfully reached by the telephone number.<br/>* false = the entity can be successfully reached by the telephone number."
								},
								"telephoneNumber": {
									"type": "string",
									"example": "555555555",
									"description": "2 to 20 characters of the telephone number for the entity.  This string search uses a partial match from the beginning of the string meaning that you can use this parameter to search by phone numbers beginning with a min of 2 characters. This enables users to search using an area code. <br/>    <br/>This is a Standalone parameter; at least one Standalone parameter must be included in the request."
								},
								"domain": {
									"type": "string",
									"example": "dnb.com",
									"description": "4 to 216 characters used to find entities by their domain names.    <br/>    <br/>This is a Standalone parameter; at least one Standalone parameter must be included in the request."
								},
								"registrationNumbers": {
									"type": "array",
									"description": "The number assigned by an external body or by Dun & Bradstreet that either uniquely identifies or helps to identify an organization.    <br/><br/>This array may contain up to 50 values of 1-30 characters each.    <br/>    <br/>This is a Standalone parameter; at least one Standalone parameter must be included in the request.",
									"items": {
										"example": [
											"11514917000120"
										],
										"type": "string"
									}
								},
								"businessEntityType": {
									"type": "array",
									"description": "A list of codes, assigned by Dun & Bradstreet, to identify the legal form or structure of the entity as registered with government authorities.   <br/>   <br/>This array may contain up to 50 strings of 1 to 5 characters each.",
									"items": {
										"example": [
											451,
											457
										],
										"type": "integer"
									}
								},
								"addressLocality": {
									"type": "string",
									"example": "short hills",
									"description": "1 to 50 characters used to find entities by the name of the city, town, township, village, borough, etc. where the entity is located."
								},
								"addressCounty": {
									"type": "string",
									"example": "Santa Clara County",
									"description": "Text recording the name of a county where the business is located."
								},
								"addressRegion": {
									"type": "string",
									"example": "New Jersey",
									"description": "1 to 50 characters used to find entities by the name or US State abbreviation of the locally governed area that forms part of a centrally governed nation to identify where the address is located.     <br/>     <br/>Note: As a guiding principle this is a geographic area which could theoretically exist as a separate nation. In the U.S. this would be a State (full name). In the UK this would be one of the Home Nations."
								},
								"streetAddressLine1": {
									"type": "string",
									"example": "street address",
									"description": "3 to 60 characters of the first line of the entity's street address or the street name of the company's address.\r<br/>\r<br/>This is a Standalone parameter; at least one Standalone parameter must be included in the request."
								},
								"postalCode": {
									"type": "string",
									"example": "94536",
									"description": "1 to 20 characters used to find the entity by the postal code (an identifier used by the local country's postal authority to identify where the address is located)."
								},
								"postalCodesList": {
									"type": "array",
									"description": "A list of identifiers used by the local country Postal Authority to identify where the business is located. The search result will return companies within the radius specified from the centorid of this post code.",
									"items": {
										"example": [
											"94536",
											"94538"
										],
										"type": "string"
									}
								},
								"locationRadius": {
									"type": "object",
									"description": "The details identifying the geographic coordinates to be used in the search.    <br/>    <br/>This is a Standalone parameter; at least one Standalone parameter must be included in the request.",
									"properties": {
										"lat": {
											"type": "number",
											"example": 40.7431319,
											"description": "The latitude to be used as the center of the radius search.<br/><br/>Only addresses with a street-centric latitude/longitude are included in search."
										},
										"lon": {
											"type": "number",
											"example": -74.3620265,
											"description": "The longitude to be used as the center of the radius search.<br/><br/>Only addresses with a street-centric latitude/longitude are included in search."
										},
										"postalCode": {
											"type": "string",
											"example": "94536",
											"description": "5 digits for the US postal code (an identifier used by the local country's postal authority to identify where the address is located) used as the center of the radius search.<br/><br/>Note: Currently, only 5-digit US postal codes can be used for location radius searches.<br/><br/>Either latitude/ longitude or postal code must be included."
										},
										"radius": {
											"type": "number",
											"example": 5,
											"description": "The circle radius in the units specified to be considered along with the latitude and longitude to locate entities.<br/><br/>Maximum values:<br/>* 100mi<br/>* 160.9km<br/>* or equivalent for other units<br/><br/>Either latitude/ longitude or postal code must be included."
										},
										"unit": {
											"type": "string",
											"example": "km",
											"description": "The unit of measure for the specified radius. <br/><br/>Valid values: <br/>* m = meters<br/>* km = kilometers<br/>* mi = miles<br/>* yd = yards<br/>* ft = feet"
										}
									},
									"additionalProperties": true
								},
								"primaryName": {
									"type": "string",
									"example": "name search",
									"description": "2 to 60 characters to be used to find entities by the primary names.<br/><br/>This is a Standalone parameter; at least one Standalone parameter must be included in the request."
								},
								"tradeStyleName": {
									"type": "string",
									"example": "name to search",
									"description": "2 to 60 characters used to find entities by one of its tradestyle names.    <br/>    <br/>This is a Standalone parameter; at least one Standalone parameter must be included in the request."
								},
								"tickerSymbol": {
									"type": "string",
									"example": "dnb",
									"description": "1 to 6 characters that identifies the entity for share trading purposes at the primary Stock Exchange where the business entity does most of the trading.     <br/>     <br/>This is a Standalone parameter; at least one Standalone parameter must be included in the request."
								},
								"familytreeRolesPlayed": {
									"type": "array",
									"description": "A list of codes, assigned by Dun & Bradstreet, to identify the family tree roles the entity plays in the organization hierarchy.      <br/><br/>Valid values:<br/>* 12775: Global Ultimate<br/>* 12774: Domestic Ultimate<br/>* 9141: Parent/Headquarters<br/>* 9140: Branch/Division<br/>* 9159: Subsidiary",
									"items": {
										"example": [
											12775,
											12774
										],
										"type": "integer"
									}
								},
								"globalUltimateFamilyTreeMembersCount": {
									"type": "object",
									"description": "The details of the family tree member count range to be used to limit the search.",
									"properties": {
										"minimumValue": {
											"type": "integer",
											"example": 100000,
											"description": "The minimum family tree members an entity can have and be included in the search results.<br/>    <br/>Values: 1 to 999999    <br/>    <br/>If maximum value is not also specified, the search results include entities that are part of a family tree with greater than or equal to the minimum value number of entities."
										},
										"maximumValue": {
											"type": "integer",
											"example": 10000,
											"description": "The maximum family tree members an entity can have and be included in the search results.    <br/><br/>Values: 1 to 999999    <br/>    <br/>If minimum value is not also specified, the search results include entities that are part of a family tree with less than or equal to the maximum value number of entities."
										}
									},
									"additionalProperties": true
								},
								"numberOfEmployees": {
									"type": "object",
									"description": "The details of the number of employees values to be used in the search.",
									"properties": {
										"informationScope": {
											"type": "integer",
											"example": 9066,
											"description": "A code that represents the scope the requested values are checked against.<br/><br/>Valid values:<br/>* 9066: Individual<br/>* 9067: Consolidated"
										},
										"minimumValue": {
											"type": "integer",
											"example": 10000,
											"description": "The minimum number of employees an entity can have and be included in the search results.    <br/><br/>Value : 1 to 999999    <br/>    <br/>If maximum value is not also specified, the search results include entities with an employee count greater than or equal to the minimum value number of entities."
										},
										"maximumValue": {
											"type": "integer",
											"example": 5000,
											"description": "The maximum number of employees an entity can have and be included in the search results.    <br/><br/>Value : 1 to 999999    <br/>    <br/>If minimum value is not also specified, the search results include entities with an employee count less than or equal to the maximum value number of entities."
										}
									},
									"additionalProperties": true
								},
								"industryCodes": {
									"type": "array",
									"description": "The details of the industry codes to be used to limit the search.<br/><br/>This is a Standalone parameter; at least one Standalone parameter must be included in the request.",
									"items": {
										"properties": {
											"typeDnbCode": {
												"type": "integer",
												"example": 24664,
												"description": "A unique code assigned by Dun & Bradstreet to identify the industry coding scheme for this Industry Code.<br/><br/>Valid values:<br/>* 25838: D&B Hoovers Industry Code<br/>* 24664: NAICS 2012<br/>* 30832: NAICS 2017<br/>* 19295: UK Standard Industry Code 2007<br/>* 3599: US SIC 8 digit"
											},
											"description": {
												"type": "array",
												"description": "A list of strings used to search by the industry code description. <br/><br/>Either a list of codes OR a list of descriptions may be included.",
												"items": {
													"example": [
														"Commercial Printing (except Screen and Books)"
													],
													"type": "string"
												}
											},
											"code": {
												"type": "array",
												"description": "A list of alphanumeric codes identifying a business activity.  <br/><br/>Either a list of codes OR a list of descriptions may be included.",
												"items": {
													"example": [
														"42362"
													],
													"type": "string"
												}
											}
										},
										"additionalProperties": true,
										"type": "object"
									}
								},
								"isManufacturingLocation": {
									"type": "boolean",
									"example": true,
									"description": "When 'true' indicates that manufacturing activity is performed at this facility by the subject."
								},
								"isPubliclyTradedCompany": {
									"type": "boolean",
									"example": true,
									"description": "When set to 'True' it indicates that the organization offers its securities to general public, typically through a stock exchange.<br/>When set to 'False' it indicates that the organization does not offer its securities to general public."
								},
								"isMinorityOwned": {
									"type": "boolean",
									"example": true,
									"description": "When 'true' indicates that this organization is certified as a business that is greater than 50% owned by and whose management and daily business operations are controlled by one or more minority group members."
								},
								"isFemaleOwned": {
									"type": "boolean",
									"example": true,
									"description": "When 'true', it indicates that this organization is certified as a business that is greater than 50% owned by, and whose management and daily business operations are controlled by, one or more female persons.<br/>When 'false', it indicates that this organization is not certified as a business that is greater than 50% owned by, and whose management and daily business operations are controlled by, one or more female persons."
								},
								"isImporter": {
									"type": "boolean",
									"example": true,
									"description": "When 'true' indicates that the subject imports goods, raw materials, products etc., from other countries."
								},
								"isExporter": {
									"type": "boolean",
									"example": true,
									"description": "When 'true' indicates that the subject exports goods, raw materials, products etc., to other countries."
								},
								"isFortune1000Listed": {
									"type": "boolean",
									"example": true,
									"description": "When set to \"true\" it indicates that the business entity has ever been listed as one of the 1000 largest American companies, ranked on revenues alone by the American business magazine Fortune. <br/>When set to \"false\" it indicates that the business entity has not been listed as one of the 1000 largest American companies, ranked on revenues alone by the American business magazine Fortune."
								},
								"sort": {
									"type": "array",
									"description": "This aggregate is used to specify the ordering of records in the API response.",
									"items": {
										"properties": {
											"item": {
												"type": "string",
												"example": "countryISOAlpha2Code",
												"description": "The property by which the response is to be sorted.<br/><br/>Valid values:<br/>* numberOfEmployees * countryISOAlpha2Code * primaryName * isOutOfBusiness * isBranch * yearlyRevenue"
											},
											"direction": {
												"type": "string",
												"example": "ascending",
												"description": "This determines the ordering direction in the response. Possible values:<br/>ascending<br/>descending"
											}
										},
										"additionalProperties": true,
										"type": "object"
									}
								},
								"pageSize": {
									"type": "integer",
									"example": 5000,
									"description": "The number of results to return in a single page.    <br/>    <br/>Valid values: Integers from 1 to 10000."
								},
								"pageNumber": {
									"type": "integer",
									"example": 5,
									"description": "Search results can be paginated; this attribute specifies which page is to be returned.<br/><br/>The maximum value depends on pageSize.  A maximum of 10000 results can be returned.  So, for example, if pageSize is 1000, the maximum pageNumber is 10; if pageSize is 2000, the maximum pageNumber is 5."
								},
								"returnNavigators": {
									"type": "boolean",
									"example": true,
									"description": "Indicates if Navigators should be returned in the search response; Navigators can be used in followup requests to narrow down the search results.<br/><br/>Valid values:<br/>* true: return Navigators<br/>* false: do not return Navigators (default)"
								},
								"customerReference": {
									"type": "string",
									"example": "customer reference text",
									"description": "Up to 240 characters for a reference string to be linked to the request in order to support subsequent order reconciliation."
								},
								"globalUltimateCountryISOAlpha2Code": {
									"type": "string",
									"example": "US",
									"description": "The 2-letter country/market code defined by the International Organization for Standardization (ISO) ISO 3166-1 scheme identifying the Global Ultimate country/market of the entity."
								}
							}
						}
					}
				]
			}
		}
	}
}