{
	"swagger": "2.0",
	"host": "plus.dnb.com",
	"schemes": [
		"https"
	],
	"info": {
		"description": "Searches for companies or contacts.",
		"title": "Search for a Company or Contact",
		"version": "1"
	},
	"basePath": "/",
	"paths": {
		"/v1/search/contact": {
			"x-DNB-Name": "Search: Contacts",
			"x-DNB-ID": "searchContactsStandard",
			"post": {
				"description": "The Contact Search API allows D&B Direct+ customers to find individuals using a variety of criteria.\r\n\r\nData Coverage: Global\r\n\r\nNote: This API is available as part of \"Contact Search\" Add-Ons.",
				"summary": "POST",
				"operationId": "searchContactPost",
				"x-monitoring": "Not Available.",
				"x-monitoring-pdf": "Not Available.",
				"tags": [
					"searchContactsPost"
				],
				"produces": [
					"application/json"
				],
				"responses": {
					"200": {
						"description": "OK",
						"schema": {
							"properties": {
								"transactionDetail": {
									"type": "object",
									"description": "The information used to process this request.",
									"properties": {
										"transactionID": {
											"type": "string",
											"example": "rlh-hi9puyoijk-jop8u-kd-d-1",
											"description": "A value assigned by the Dun & Bradstreet application to uniquely identify this request."
										},
										"transactionTimestamp": {
											"type": "string",
											"example": "2017-02-21T17:46:19.839Z",
											"description": "The date and time, in ISO 8601 UTC Z standard, when this response was created."
										},
										"inLanguage": {
											"type": "string",
											"example": "en-US",
											"description": "An IETF BCP 47 code value that defines the language in which this product was rendered."
										},
										"serviceVersion": {
											"type": "string",
											"example": 1,
											"description": "The product version number provided in the request."
										}
									},
									"additionalProperties": true
								},
								"inquiryDetail": {
									"type": "object",
									"description": "The details of the input data provided.",
									"properties": {
										"searchTerm": {
											"type": "string",
											"example": "The DUN & BRADSTREET",
											"description": "The search term provided in the request."
										},
										"familyTreeScope": {
											"type": "string",
											"example": "Full",
											"description": "This allows the customer to request for contacts to be returned from a defined universe of companies in the family tree of the inquired DUNS ."
										},
										"contactID": {
											"type": "string",
											"example": 321976318,
											"description": "The contact ID provided in the request."
										},
										"contactEmail": {
											"type": "string",
											"example": "someone@company.com",
											"description": "The contact email provided in the request."
										},
										"view": {
											"type": "string",
											"example": "standard",
											"description": "The view provided in the request."
										},
										"givenName": {
											"type": "string",
											"example": "john",
											"description": "The given name provided in the request."
										},
										"familyName": {
											"type": "string",
											"example": "smith",
											"description": "The family name provided in the request."
										},
										"duns": {
											"type": "string",
											"example": 804735132,
											"description": "The D-U-N-S number provided in the request."
										},
										"countryISOAlpha2Code": {
											"type": "string",
											"example": "US",
											"description": "The country code provided in the request."
										},
										"addressRegion": {
											"type": "string",
											"example": "New Jersey",
											"description": "The region provided in the request."
										},
										"addressLocality": {
											"type": "string",
											"example": "Short Hills",
											"description": "The locality provided in the request."
										},
										"postalCode": {
											"type": "string",
											"example": "07040",
											"description": "The postal code provided in the request."
										},
										"tickerSymbol": {
											"type": "string",
											"example": "DNB",
											"description": "The ticker symbol provided in the request."
										},
										"jobTitles": {
											"type": "array",
											"description": "The list of job titles included in the request.",
											"items": {
												"properties": {
													"title": {
														"type": "string",
														"example": "manager",
														"description": "The job title included in the request."
													}
												},
												"type": "object"
											}
										},
										"usSicV4": {
											"type": "array",
											"description": "The usSicV4 values provided in the request.",
											"items": {
												"example": [
													"5461"
												],
												"type": "string"
											}
										},
										"mrcCode": {
											"type": "array",
											"description": "The code provided in the request.",
											"items": {
												"example": [
													"A125"
												],
												"type": "string"
											}
										},
										"primaryName": {
											"type": "string",
											"example": "The DUN & BRADSTREET",
											"description": "The primary name provided in the request."
										},
										"industryCodes": {
											"type": "array",
											"description": "The details of the codes that were included in the request.",
											"items": {
												"properties": {
													"code": {
														"type": "array",
														"description": "A list of codes that were included in the request.",
														"items": {
															"example": [
																"313240"
															],
															"type": "string"
														}
													},
													"description": {
														"type": "array",
														"description": "A list of descriptions that were included in the request.",
														"items": {
															"example": [
																"mills"
															],
															"type": "string"
														}
													},
													"typeDnbCode": {
														"type": "integer",
														"example": 30832,
														"description": "The Industry Type Code that was included in the request.<br/>Refer to Reference code table \"30 [Industry Code Type]\" for all possible values."
													}
												},
												"additionalProperties": true,
												"type": "object"
											}
										},
										"telephoneAccuracyScoreThresholdValue": {
											"type": "integer",
											"example": 1,
											"description": "A numeric value from 0 (low) up to 100 (high) indicating the predicted probability that a contact can be reached at least one of their listed phone numbers, at the time of the most recent phone verification.<br/><br/>Search results include contacts which are greater than or equal to the inputted value."
										},
										"sort": {
											"type": "array",
											"description": "The details of the sort values in the request.",
											"items": {
												"properties": {
													"item": {
														"type": "string",
														"example": "duns",
														"description": "The sort item values provided in the request."
													},
													"direction": {
														"type": "string",
														"example": "ascending",
														"description": "The sort direction values provided in the request."
													}
												},
												"additionalProperties": true,
												"type": "object"
											}
										},
										"pageSize": {
											"type": "integer",
											"example": 25,
											"description": "The number of results to be returned per page in the response."
										},
										"pageNumber": {
											"type": "integer",
											"example": 1,
											"description": "The page number provided in the request."
										},
										"customerReference": {
											"type": "string",
											"example": "Some text to describe the request.",
											"description": "A reference string provided by the customer for this particular transaction."
										},
										"returnNavigators": {
											"type": "boolean",
											"example": true,
											"description": "The value of this parameter provided in the request."
										},
										"emailAccuracyScoreThresholdValue": {
											"type": "integer",
											"example": 1,
											"description": "A value from 0 to 100 which designates the probability of an email reaching its intended audience.<br/><br/>For example, a record with an Email Deliverability Score of 16 has a 16% chance of reaching the intended inbox."
										}
									},
									"additionalProperties": true
								},
								"candidatesMatchedQuantity": {
									"type": "integer",
									"example": 100,
									"description": "The total number of DUNS in which candidates are found with matching search criteria."
								},
								"candidatesReturnedQuantity": {
									"type": "integer",
									"example": 50,
									"description": "The total number of candidates returned in the response."
								},
								"searchCandidates": {
									"type": "array",
									"description": "The details for the entities returned in the search.",
									"items": {
										"properties": {
											"displaySequence": {
												"type": "integer",
												"example": 1,
												"description": "The order in which the entity appears in the result set. The lower the number the better the probability of the match."
											},
											"contact": {
												"type": "object",
												"description": "The details of an individual associated with a business and their publishable data. A Contact must be a natural person and is not limited to key stakeholders. Contains business card details which may include email and/or direct dial numbers. Can be sourced from official and non official sources of data. Only available where Compliance and Privacy has approved the market and the sources as being compliant with D&B policies.",
												"properties": {
													"id": {
														"type": "string",
														"example": 12345678,
														"description": "The ID of the contact."
													},
													"email": {
														"type": "string",
														"example": "joeblogg@company.com",
														"description": "The published professional email address for the individual that is specific to their place of employment."
													},
													"emailDomainName": {
														"type": "string",
														"example": "dnb.com",
														"description": "The component of the published professional email address for the Contact that follows the \"@\" character."
													},
													"emailAccuracy": {
														"type": "object",
														"description": "The details of the probability that a message sent to the Contact Email Address is likely to not hard bounce expressed as a score from 0 to 100. (A hard bounce is defined as a returned message from the mail server that the inbox does not exist.)",
														"properties": {
															"deliverabilityScore": {
																"type": "integer",
																"example": 50,
																"description": "The published professional email address for the individual that is specific to their place of employment."
															},
															"verifiedDate": {
																"type": "string",
																"example": "2017-11-01",
																"description": "A calculated date at which this contact would have had an Email Deliverability Score of 100. Format: YYYY-MM-DD."
															}
														},
														"additionalProperties": true
													},
													"givenName": {
														"type": "string",
														"example": "Joseph",
														"description": "The given name of the individual. In western cultures this is usually presented first."
													},
													"middleName": {
														"type": "string",
														"example": "G",
														"description": "Additional name associated to the individual to distinguish them from other people with the same given name and surname. In several cultures, the middle name is a portion of a personal name that is written between the individual's given name and their surname. In some countries such as the US, a single letter can be populated in this field."
													},
													"familyName": {
														"type": "string",
														"example": "Blogg",
														"description": "The surname of the individual without suffixes."
													},
													"namePrefix": {
														"type": "string",
														"example": "Mr.",
														"description": "The correct form of address for the individual (e.g., Dr., Professor, Lord)."
													},
													"nameSuffix": {
														"type": "string",
														"example": "Jr.",
														"description": "Letters or numbers representing the familial or professional component of the individual's name."
													},
													"additionalName": {
														"type": "string",
														"example": "Joe",
														"description": "Nickname or informal version of the individual's given name. Value is generated, not collected. Provided for matching assistance only, not intended for customer use."
													},
													"titleAccuracy": {
														"type": "object",
														"description": "Details regarding the accuracy of the job title for this person.",
														"properties": {
															"accuracyScore": {
																"type": "integer",
																"example": 50,
																"description": "The probability (from 0 to 100) that the provided Job Title for this contact is up-to-date and accurate."
															}
														},
														"additionalProperties": true
													},
													"isTitleMatched": {
														"type": "boolean",
														"example": true,
														"description": "Indicates whether social research has determined that this contact has the exact Job Title listed.<br/><br/>- If true, social research has determined that the listed Job Title exactly matches the listed contact. <br/>- If false, social research was not done or was inconclusive."
													},
													"organization": {
														"type": "object",
														"description": "The details of the entity.",
														"properties": {
															"duns": {
																"type": "string",
																"example": 123456789,
																"description": "The Dun & Bradstreet D-U-N-S Number with which the contact is associated. The D-U-N-S Number is an identification number assigned by Dun & Bradstreet that uniquely identifies the entity in accordance with the Data Universal Numbering System (D-U-N-S)."
															},
															"primaryName": {
																"type": "string",
																"example": "GORMAN MANUFACTURING COMPANY, INC.",
																"description": "The single name by which the entity is primarily known or identified."
															},
															"globalUltimate": {
																"type": "object",
																"description": "Records information about the top most business in the family tree, tracing each parent up to its own parent. For example, Company A is a business based in the US and has company B as its parent also in the US. In turn company B is owned by company C, also in the US, which is owned by company D which is in the UK. Thus the &quot;Global Ultimate&quot; of this family tree (and therefore of each member of the family tree) is Company D.",
																"properties": {
																	"duns": {
																		"type": "string",
																		"example": "123456789",
																		"description": "The D-U-N-S Number is D&B's identification number, which provides unique identification of this organization, in accordance with the Data Universal Numbering System (D-U-N-S)."
																	}
																},
																"additionalProperties": true
															},
															"primaryAddress": {
																"type": "object",
																"description": "The details of the single primary or physical address at which the entity is located.",
																"properties": {
																	"addressCountry": {
																		"type": "object",
																		"description": "The details of the country/market in which this address is located.",
																		"properties": {
																			"isoAlpha2Code": {
																				"type": "string",
																				"example": "US",
																				"description": "The two-letter country code, defined by the International Organization for Standardization (ISO) ISO 3166-1 scheme, identifying the country in which the entity is located."
																			}
																		},
																		"additionalProperties": true
																	},
																	"addressLocality": {
																		"type": "object",
																		"description": "The details of the locality where the organization's Primary Address is located or conducts operations. Locality defined as a district population cluster. City, town, township, village, borough etc.",
																		"properties": {
																			"name": {
																				"type": "string",
																				"example": "SAN FRANCISCO",
																				"description": "The name of the locality where the organization's Primary Address is located or conducts operations. Locality defined as a district population cluster. City, town, township, village, borough etc."
																			}
																		},
																		"additionalProperties": true
																	},
																	"addressRegion": {
																		"type": "object",
																		"description": "The details of the locally governed area that forms part of a centrally governed nation to identify where this address is located.",
																		"properties": {
																			"name": {
																				"type": "string",
																				"example": "California",
																				"description": "The name of the locally governed area that forms part of a centrally governed nation to identify where this address is located."
																			},
																			"abbreviatedName": {
																				"type": "string",
																				"example": "CA",
																				"description": "The shortened name of the locally governed area that forms part of a centrally governed nation. For example 'NJ' for the US State New Jersey within Country United States.<br/><br/>Note: The abbreviation does not always correspond to the ISO representation and can vary between countries based on data collection."
																			}
																		},
																		"additionalProperties": true
																	},
																	"postalCode": {
																		"type": "string",
																		"example": 941109999,
																		"description": "The postal code of the organization's Primary Address.<br/><br/>Also known locally in various English-speaking countries throughout the world as a postcode, post code, Eircode, PIN or ZIP Code) is a series of letters or digits or both, sometimes including spaces or punctuation, included in a postal address for the purpose of sorting mail. The code is used by the country&#39;s postal authority to identify the address where the organization is located or conducts operations ."
																	}
																},
																"additionalProperties": true
															},
															"dunsControlStatus": {
																"type": "object",
																"description": "The details of the entity established to provide products and/or services in the marketplace or to the community.",
																"properties": {
																	"operatingStatus": {
																		"type": "object",
																		"description": "The high level categorization of the entity's functional state or trading status.",
																		"properties": {
																			"description": {
																				"type": "string",
																				"example": "Active",
																				"description": "The entity's functional state or trading status summarized into either active or out of business."
																			},
																			"dnbCode": {
																				"type": "integer",
																				"example": 9074,
																				"description": "A unique code assigned by Dun & Bradstreet to identify the entity's functional state or trading status.<br/>Possible values:<br/>9074 [Active]<br/>403 [Out of Business]"
																			}
																		},
																		"additionalProperties": true
																	},
																	"isMarketable": {
																		"type": "boolean",
																		"example": true,
																		"description": "Indicates whether the data on the entity satisfies Dun & Bradstreet's marketability rules for Sales & Marketing Solutions products. <br/><br/>- If true, the entity data satisfies the marketability rules.<br/>- If false, the entity data does not satisfy the marketability rules."
																	},
																	"isMailUndeliverable": {
																		"type": "boolean",
																		"example": false,
																		"description": "Indicates whether it is possible to deliver mail to the address of this entity.\r<br/>\r<br/>- If true, it is not possible to deliver mail to at least one of the addresses listed for this DUNS (Primary, Mailing or Registered).<br/>- If false, it is possible to deliver mail to the address."
																	},
																	"isTelephoneDisconnected": {
																		"type": "boolean",
																		"example": false,
																		"description": "Indicates whether the telephone number can be connected to successfully.<br/><br/>- If true, connection to the telephone number is unsuccessful.<br/>- If false, connection to the telephone number is successful."
																	},
																	"isDelisted": {
																		"type": "boolean",
																		"example": false,
																		"description": "Indicates whether the entity has requested that they not be included in any Direct marketing lists (e.g., mailing, telephone).<br/><br/>- If true, the entity has objected to and MUST NOT receive direct marketing material.<br/>- If false, the entity has not objected to receiving direct marketing material."
																	}
																},
																"additionalProperties": true
															},
															"tickerSymbol": {
																"type": "string",
																"example": "NYSE:DNB",
																"description": "The entity's identifier for share trading purposes at the Stock Exchange where the entity does most of the trading. For example &quot;NYSE: DNB&quot; is the ticker symbol for Dun & Bradstreet in New York Stock Exchange."
															},
															"primaryIndustryCodes": {
																"type": "array",
																"description": "The primary activity in which the organization is engaged as defined by the 4 digit 1987 US Standard Industry Classification (SIC). Additional coding schemes may be added in the future.",
																"items": {
																	"properties": {
																		"usSicV4": {
																			"type": "string",
																			"example": 7323,
																			"description": "The 1987 version of a 4-digit numeric coding system developed by the US Government for the classification of industrial activities to denote the industry in which the entity does most of its business."
																		},
																		"usSicV4Description": {
																			"type": "string",
																			"example": "Credit reporting services",
																			"description": "The business activity based on the scheme used for the industry code (e.g., 'highway and street construction' is the description of industry code 1611 in the U.S. SIC (Standard Industrial Classification) system)."
																		}
																	},
																	"additionalProperties": true,
																	"type": "object"
																}
															},
															"numberOfEmployees": {
																"type": "array",
																"description": "The details of the people engaged by the entity to perform its operations.",
																"items": {
																	"properties": {
																		"value": {
																			"type": "integer",
																			"example": 1234,
																			"description": "The total number of people engaged by the entity to perform its operations. The scope of this employee figure is identified in informationScopeDescription."
																		},
																		"informationScopeDescription": {
																			"type": "string",
																			"example": "Consolidated",
																			"description": "The scope of Number of Employees value (e.g., Consolidated, Individual, HQ only)."
																		},
																		"informationScopeDnBCode": {
																			"type": "integer",
																			"example": 9067,
																			"description": "A unique code assigned by Dun & Bradstreet to identify the scope of Number of Employees.<br/>Refer to Reference code table \"192 [Information Scope]\" for all possible values."
																		},
																		"reliabilityDescription": {
																			"type": "string",
																			"example": "Actual",
																			"description": "The integrity of the employee figures (e.g., actual, estimated, or modeled)."
																		},
																		"reliabilityDnBCode": {
																			"type": "integer",
																			"example": 9092,
																			"description": "A unique code assigned by Dun & Bradstreet to identify the integrity of the employee figures.<br/>Refer to Reference code table \"171 [Reliability]\" for all possible values."
																		}
																	},
																	"additionalProperties": true,
																	"type": "object"
																}
															},
															"industryCodes": {
																"type": "array",
																"description": "The details of the business activities in which the entity is actively engaged using standardized coding schemes such as European NACE and U.S. Standard Industry Classifications (SIC).<br/><br/>Note: Since some of the industry coding schemes are derived, multiple codes from a more granular coding scheme can result in same code in another less granular coding scheme.",
																"items": {
																	"properties": {
																		"code": {
																			"type": "string",
																			"example": 323111,
																			"description": "An alphanumeric value assigned to an organization categorizing the business activities performed at its location. Business activities are coded using standardized coding schemes. For example, 1611 represents the highway and street construction industry in the U.S. SIC (Standard Industrial Classification) 1987 system."
																		},
																		"description": {
																			"type": "string",
																			"example": "Commercial Printing ",
																			"description": "The business activity description as assigned by the coding scheme used."
																		},
																		"typeDescription": {
																			"type": "string",
																			"example": "North American Industry Classification System 2012",
																			"description": "The industry coding scheme used for this Industry Code (e.g., Standard Industry Code - 8 digit, North American Industry Classification System (NAICS), Nomenclature General des Activities Economiques dans L`Union Europeenne (NACE))."
																		},
																		"typeDnbCode": {
																			"type": "integer",
																			"example": 25838,
																			"description": "A unique code assigned by Dun & Bradstreet to identify the industry coding scheme.<br/>Valid values:<br/><br/>25838: D&B Hoovers Industry Code<br/>24664: NAICS 2012<br/>30832: NAICS 2017<br/>19295: UK Standard Industry Code 2007<br/>3599 : US SIC 8 digit"
																		},
																		"priority": {
																			"type": "integer",
																			"example": 1,
																			"description": "A number identifying the order in which this industry code should be presented relative to other industry codes of the same type. Priority is based on the percentage of business the entity does in the industry."
																		}
																	},
																	"additionalProperties": true,
																	"type": "object"
																}
															}
														},
														"additionalProperties": true
													},
													"telephone": {
														"type": "array",
														"description": "The details of the sequence of digits used for voice communication with the individual. This sequence of digits includes the area code or city code and domestic dialing code.",
														"items": {
															"properties": {
																"telephoneNumber": {
																	"type": "string",
																	"example": "(212) 555-1212",
																	"description": "A sequence of digits used for voice communication with the individual. This sequence of digits includes the area code or city code and domestic dialing code."
																},
																"telephoneAccuracy": {
																	"type": "object",
																	"description": "The details of the predicted probability (from 0 to 100) that the Contact can be reached via one of their listed phone numbers, at the time of the most recent phone verification.",
																	"properties": {
																		"accuracyScore": {
																			"type": "integer",
																			"example": 36,
																			"description": "The predicted probability (from 0 to 100) that the Contact can be reached via one of their listed phone numbers, at the time of the most recent phone verification."
																		}
																	},
																	"additionalProperties": true
																}
															},
															"additionalProperties": true,
															"type": "object"
														}
													},
													"socialMedia": {
														"type": "array",
														"description": "The details of the websites and applications that enable the contact to create and share content or to participate in social networking.",
														"items": {
															"properties": {
																"platform": {
																	"type": "object",
																	"description": "The details of a website or application the contact uses to participate in social networking.",
																	"properties": {
																		"description": {
																			"type": "string",
																			"example": "LinkedIn",
																			"description": "Social media platform description."
																		},
																		"dnbCode": {
																			"type": "integer",
																			"example": 27755,
																			"description": "A unique code assigned by Dun & Bradstreet to identify the social media platform.<br/>Refer to Reference code table \"638 [Social Media Platform]\" for all possible values."
																		}
																	},
																	"additionalProperties": true
																},
																"url": {
																	"type": "string",
																	"example": "http://socialmedia.com",
																	"description": "The URL of the social media website or application."
																}
															},
															"additionalProperties": true,
															"type": "object"
														}
													},
													"isSocialVerified": {
														"type": "boolean",
														"example": true,
														"description": "Indicates whether social research has determined that this contact currently works at the company listed.<br/><br/>- If true, social research has determined that this contact currently works for the company listed.<br/>- If false, social research has determined that the contact worked for the company listed as some point in the past."
													},
													"jobTitles": {
														"type": "array",
														"description": "The details of the professional job role(s) held by the individual.",
														"items": {
															"properties": {
																"title": {
																	"type": "string",
																	"example": "Sales Operations Manager",
																	"description": "The professional job role(s) for the individual."
																}
															},
															"additionalProperties": true,
															"type": "object"
														}
													},
													"vanityTitles": {
														"type": "array",
														"description": "The details of the highly-formatted version of a contact’s Job Title to remove errant characters and to expand on abbreviated titles.",
														"items": {
															"properties": {
																"title": {
																	"type": "string",
																	"example": "Sales Operations Manager",
																	"description": "The highly-formatted version of a contact’s Job Title to remove errant characters and to expand on abbreviated titles."
																}
															},
															"additionalProperties": true,
															"type": "object"
														}
													},
													"managementResponsibilities": {
														"type": "array",
														"description": "The details of the current business function of the entity represented as a standard Management Responsibility Code (MRC).",
														"items": {
															"properties": {
																"mrcCode": {
																	"type": "string",
																	"example": "I7P1",
																	"description": "A standardized alphanumeric classification code generated by D&B that identifies the business function and hierarchical level of the Contact based on their professional job title.<br/>Refer to Reference code table \"27751 [MRC]\" for all possible values."
																}
															},
															"additionalProperties": true,
															"type": "object"
														}
													},
													"dataFreshnessScore": {
														"type": "integer",
														"example": 75,
														"description": "The predicted relative age of records, expressed as a score from 0 to 100, where 100 indicates highest freshness."
													},
													"confidenceLevel": {
														"type": "string",
														"example": 100,
														"description": "The predicted probability that a contact can be reached by at least one of the phone numbers listed for that contact, at the time of the most recent phone verification."
													},
													"verifiedDate": {
														"type": "string",
														"example": "2017-10-31",
														"description": "The date on which this contact went through the verification process or was part of a sample file that went through the verification process.<br/><br/>Format: YYYY-MM-DD or YYYY-MM"
													},
													"matchQualityInformation": {
														"type": "object",
														"description": "Details of the match quality information provided by the Dun & Bradstreet match engine when matching contact to D-U-N-S Number.",
														"properties": {
															"confidenceCode": {
																"type": "integer",
																"example": 8,
																"description": "A value ranging from 0 to 10, assigned by Dun & Bradstreet, to indicate how well the contact data collected matches to company data recorded in Dun & Bradstreet reference files, with 10 being the best match."
															},
															"matchGrade": {
																"type": "string",
																"example": "AZZZZZZZFZZ",
																"description": "The compound rating that comprises one rating per type of data scored by a match engine. <br/><br/>For example, in AABZBAAAFBZ the &quot;A&quot; in the 1st position means that the Name scored between 80-100 and the &quot;A&quot; in the 2nd position means that the Street Number had to score exactly 100.<br/><br/>For more details, please see the Identity Resolution guide."
															},
															"matchDataProfile": {
																"type": "integer",
																"example": 1,
																"description": "A two-digit code that identifies how the record was matched. This is the same as the Business Name Profile Code for company matches. Please see the Identity Resolution Guide for possible values and their meanings."
															}
														},
														"additionalProperties": true
													}
												},
												"additionalProperties": true
											}
										},
										"additionalProperties": true,
										"type": "object"
									}
								},
								"navigators": {
									"type": "object",
									"description": "The details of the available navigators, or filters, for the search response.<br/><br/>The navigators can be added to a follow-up search request to narrow the results. See the Search Criteria Guide for more information.",
									"properties": {
										"managementResponsibilities": {
											"type": "array",
											"description": "The available filters for Management Responsibilities.",
											"items": {
												"properties": {
													"query": {
														"type": "object",
														"description": "The details for a Management Responsibilities filter.",
														"properties": {
															"mrcCode": {
																"type": "array",
																"description": "The Management Responsibilities code for the follow-up query.<br/>Refer to Reference code table \"27751 [MRC]\" for all possible values.",
																"items": {
																	"example": [
																		"A125"
																	],
																	"type": "string"
																}
															}
														},
														"additionalProperties": true
													},
													"candidatesMatchedQuantity": {
														"type": "integer",
														"example": 500000,
														"description": "The number of candidates that meet this filter's criteria."
													}
												},
												"additionalProperties": true,
												"type": "object"
											}
										},
										"industry": {
											"type": "array",
											"description": "The available filters for usSicV4 codes.",
											"items": {
												"properties": {
													"query": {
														"type": "object",
														"description": "The usSicV4 request details that can be used in a follow-up query.",
														"properties": {
															"usSicV4": {
																"type": "array",
																"description": "The usSicV4 codes for the follow-up query.<br/><br/>This parameter is an array for compatibility with the request format; however, it will only contain a single value.",
																"items": {
																	"example": [
																		"7323"
																	],
																	"type": "string"
																}
															}
														},
														"additionalProperties": true
													},
													"description": {
														"type": "string",
														"example": "Credit reporting services",
														"description": "The usSicV4 code descriptions."
													},
													"candidatesMatchedQuantity": {
														"type": "integer",
														"example": 500000,
														"description": "The number of candidates that meet this filter's criteria."
													}
												},
												"additionalProperties": true,
												"type": "object"
											}
										},
										"location": {
											"type": "object",
											"description": "The available filters for the various location-related search parameters.",
											"properties": {
												"country": {
													"type": "array",
													"description": "The available filters for Country.",
													"items": {
														"properties": {
															"query": {
																"type": "object",
																"description": "The Country request details that can be used in a follow-up query.",
																"properties": {
																	"countryISOAlpha2Code": {
																		"type": "string",
																		"example": "US",
																		"description": "The Country ISO Alpha 2 code for the follow-up query."
																	}
																},
																"additionalProperties": true
															},
															"name": {
																"type": "string",
																"example": "United States",
																"description": "The name of the country associated with the code."
															},
															"candidatesMatchedQuantity": {
																"type": "integer",
																"example": 500000,
																"description": "The number of candidates that meet this filter's criteria."
															},
															"region": {
																"type": "array",
																"description": "The available filters for Region.",
																"items": {
																	"properties": {
																		"query": {
																			"type": "object",
																			"description": "The Region request details that can be used in a follow-up query.",
																			"properties": {
																				"addressRegion": {
																					"type": "string",
																					"example": "New Jersey",
																					"description": "The Region string for the follow-up query."
																				}
																			},
																			"additionalProperties": true
																		},
																		"candidatesMatchedQuantity": {
																			"type": "integer",
																			"example": 500000,
																			"description": "The number of candidates that meet this filter's criteria."
																		},
																		"locality": {
																			"type": "array",
																			"description": "The available filters for Locality.",
																			"items": {
																				"properties": {
																					"query": {
																						"type": "object",
																						"description": "The Locality request details that can be used in a follow-up query.",
																						"properties": {
																							"addressLocality": {
																								"type": "string",
																								"example": "Short Hills",
																								"description": "The Locality string to be used in the follow-up query."
																							}
																						},
																						"additionalProperties": true
																					},
																					"candidatesMatchedQuantity": {
																						"type": "integer",
																						"example": 500000,
																						"description": "The number of candidates that meet this filter's criteria."
																					}
																				},
																				"additionalProperties": true,
																				"type": "object"
																			}
																		}
																	},
																	"additionalProperties": true,
																	"type": "object"
																}
															}
														},
														"additionalProperties": true,
														"type": "object"
													}
												}
											},
											"additionalProperties": true
										}
									},
									"additionalProperties": true
								}
							},
							"description": "",
							"type": "object"
						}
					}
				},
				"security": [],
				"parameters": [
					{
						"in": "header",
						"name": "Authorization",
						"description": "The access token provided by authentication.",
						"required": true,
						"type": "string",
						"x-example": "Bearer alphanumerictoken"
					},
					{
						"in": "header",
						"name": "Content-Type",
						"description": "The content type must be &quot;application/json&quot;.",
						"required": true,
						"type": "string",
						"x-example": "application/json"
					},
					{
						"in": "body",
						"name": "body",
						"description": "",
						"required": true,
						"schema": {
							"properties": {
								"searchTerm": {
									"type": "string",
									"example": "name to search",
									"description": "2 to 60 characters used to find entities by their givenName, middleName, familyName, additionalName, company or jobTitle.    <br/><br/>This is a Standalone parameter; at least one Standalone parameter must be included in the request."
								},
								"familyTreeScope": {
									"type": "string",
									"example": "Full",
									"description": "This allows the customer to request for contacts to be returned from a defined universe of companies in the family tree of the inquired DUNS .<br/><br/>Possible value : Full<br/><br/>Note : Can be used only when duns is a Global Ultimate. If the duns provided is not a Global Ultimate, an error will be returned."
								},
								"contactID": {
									"type": "string",
									"example": "12345678",
									"description": "1 to 16 characters used to find entities by a unique ID assigned to the contact. <br/><br/>This is a Standalone parameter; at least one Standalone parameter must be included in the request."
								},
								"contactEmail": {
									"type": "string",
									"example": "someone@company.com",
									"description": "1 to 128 characters used to find entities by the contact's email address.<br/><br/>This is a Standalone parameter; at least one Standalone parameter must be included in the request."
								},
								"givenName": {
									"type": "string",
									"example": "John",
									"description": "2 to 30 characters used to find entities by their given name.<br/><br/>This is a Standalone parameter; at least one Standalone parameter must be included in the request."
								},
								"familyName": {
									"type": "string",
									"example": "Smith",
									"description": "2 to 30 characters used to find entities by their family name.<br/><br/>This is a Standalone parameter; at least one Standalone parameter must be included in the request."
								},
								"primaryName": {
									"type": "string",
									"example": "name search",
									"description": "2 to 60 characters to be used to find entities by the primary names.<br/><br/>This is a Standalone parameter; at least one Standalone parameter must be included in the request."
								},
								"duns": {
									"type": "string",
									"example": "804735132",
									"description": "A 9-character numeric string identifying the entity by its Dun & Bradstreet D-U-N-S number.    <br/>    <br/>This is a Standalone parameter; at least one Standalone parameter must be included in the request."
								},
								"countryISOAlpha2Code": {
									"type": "string",
									"example": "US",
									"description": "The 2-letter country/market code defined by the International Organization for Standardization (ISO) ISO 3166-1 scheme identifying the country of the entity.<br/><br/>This is a Standalone parameter; at least one Standalone parameter must be included in the request."
								},
								"addressRegion": {
									"type": "string",
									"example": "New Jersey",
									"description": "1 to 50 characters used to find entities by the name or US State abbreviation of the locally governed area that forms part of a centrally governed nation to identify where the address is located.     <br/>     <br/>Note: As a guiding principle this is a geographic area which could theoretically exist as a separate nation. In the U.S. this would be a State (full name). In the UK this would be one of the Home Nations.<br/><br/>This is a Standalone parameter; at least one Standalone parameter must be included in the request."
								},
								"addressLocality": {
									"type": "string",
									"example": "short hills",
									"description": "1 to 50 characters used to find entities by the name of the city, town, township, village, borough, etc. where the entity is located.<br/><br/>This is a Standalone parameter; at least one Standalone parameter must be included in the request."
								},
								"postalCode": {
									"type": "string",
									"example": "94536",
									"description": "1 to 20 characters used to find the entity by the postal code (an identifier used by the local country's postal authority to identify where the address is located).<br/><br/>This is a Standalone parameter; at least one Standalone parameter must be included in the request."
								},
								"usSicV4": {
									"type": "array",
									"description": "The 1987 version of a 4-digit numeric coding system developed by the US Government for the classification of industrial activities to denote the industry in which the business entity does most of its business.     <br/>     <br/>This array may contain up to 50 strings of 4 characters each.    <br/>    <br/>This is a Standalone parameter; at least one Standalone parameter must be included in the request.",
									"items": {
										"example": [
											"5461"
										],
										"type": "string"
									}
								},
								"jobTitles": {
									"type": "array",
									"description": "List of strings used to search contact job titles.<br/>This array may contain up to 10 titles.<br/><br/>This is a Standalone parameter; at least one Standalone parameter must be included in the request.",
									"items": {
										"example": "",
										"additionalProperties": true,
										"type": "string"
									}
								},
								"mrcCode": {
									"type": "array",
									"description": "The standard Management Responsibility Code (MRC) value that identifies the business function of the principal.<br/><br/>This is a Standalone parameter; at least one Standalone parameter must be included in the request.",
									"items": {
										"example": [
											"A125"
										],
										"type": "string"
									}
								},
								"industryCodes": {
									"type": "array",
									"description": "The details of the industry codes to be used to limit the search.<br/><br/>This is a Standalone parameter; at least one Standalone parameter must be included in the request.",
									"items": {
										"properties": {
											"code": {
												"type": "array",
												"description": "A list of alphanumeric codes identifying a business activity.  <br/><br/>Either a list of codes OR a list of descriptions may be included.",
												"items": {
													"example": [
														"42362"
													],
													"type": "string"
												}
											},
											"description": {
												"type": "array",
												"description": "A list of strings used to search by the industry code description. <br/><br/>Either a list of codes OR a list of descriptions may be included.",
												"items": {
													"example": [
														"Commercial Printing (except Screen and Books)"
													],
													"type": "string"
												}
											},
											"typeDnbCode": {
												"type": "integer",
												"example": 24664,
												"description": "A unique code assigned by Dun & Bradstreet to identify the industry coding scheme for this Industry Code.<br/><br/>Valid values:<br/>* 25838: D&B Hoovers Industry Code<br/>* 24664: NAICS 2012<br/>* 30832: NAICS 2017<br/>* 19295: UK Standard Industry Code 2007"
											}
										},
										"additionalProperties": true,
										"type": "object"
									}
								},
								"tickerSymbol": {
									"type": "string",
									"example": "dnb",
									"description": "1 to 16 characters that identifies the entity for share trading purposes at the primary Stock Exchange where the business entity does most of the trading.<br/><br/>This is a Standalone parameter; at least one Standalone parameter must be included in the request."
								},
								"telephoneAccuracyScoreThresholdValue": {
									"type": "integer",
									"example": 1,
									"description": "A numeric value from 0 (low) up to 100 (high) indicating theThe predicted probability that a contact can be reached at least one of their listed phone numbers, at the time of the most recent phone verification.<br/><br/>Search results include contacts which are greater than or equal to the inputted value.<br/><br/>* Valid Values: 0 to 100"
								},
								"view": {
									"type": "string",
									"example": "standard",
									"description": "Indicates the level of content to be returned.    <br/>    <br/>Values:   <br/>* standard (default)<br/>* premium"
								},
								"sort": {
									"type": "array",
									"description": "This aggregate is used to specify the ordering of records in the API response.",
									"items": {
										"properties": {
											"item": {
												"type": "string",
												"example": "duns",
												"description": "The property by which the response is to be sorted.<br/><br/>Valid values:<br/>* givenName: sorts by contact's given name<br/>* familyName: sorts by contact's family name<br/>* duns: sorts by contact's company D-U-N-S Number <br/>* isoAlpha2Code: sorts by contact's company country<br/>* usSicV4: sorts by contact's company US Sic v4 code"
											},
											"direction": {
												"type": "string",
												"example": "ascending",
												"description": "This determines the ordering direction in the response. Possible values:<br/>ascending<br/>descending"
											}
										},
										"additionalProperties": true,
										"type": "object"
									}
								},
								"pageSize": {
									"type": "integer",
									"example": 2,
									"description": "The number of results to return in a single page.    <br/>    <br/>Valid values: Integers from 1 to 50."
								},
								"pageNumber": {
									"type": "integer",
									"example": 50,
									"description": "Search results can be paginated; this attribute specifies which page is to be returned.<br/><br/>The maximum value depends on pageSize.  A maximum of 5000 results can be returned.  So, for example, if pageSize is 10, the maximum pageNumber is 500; if pageSize is 50, the maximum pageNumber is 100."
								},
								"returnNavigators": {
									"type": "boolean",
									"example": true,
									"description": "Indicates if Navigators should be returned in the search response; Navigators can be used in followup requests to narrow down the search results.<br/><br/>Valid values:<br/>* true: return Navigators<br/>* false: do not return Navigators (default)"
								},
								"customerReference": {
									"type": "string",
									"example": "customer reference text",
									"description": "Up to 240 characters for a reference string to be linked to the request in order to support subsequent order reconciliation."
								},
								"emailAccuracyScoreThresholdValue": {
									"type": "integer",
									"example": 10,
									"description": "A value from 0 to 100 which designates the probability of an email reaching its intended audience.<br/><br/>For example, a record with an Email Deliverability Score of 16 has a 16% chance of reaching the intended inbox. <br/><br/>* Valid Values: 0 to 100"
								}
							}
						}
					}
				]
			}
		}
	}
}