{
	"swagger": "2.0",
	"host": "plus.dnb.com",
	"schemes": [
		"https"
	],
	"info": {
		"description": "Providing additional detailed insight of the shipping transaction, the Shipping Add-On will enable the user to narrow details regarding the shipment including disembarkment location, destination, cargo packaging, weight of the cargo, classification of dangerous goods where applicable among other details of the shipment.\r\n\r\nNote: This API is available as part of \"Shipping Insight Details\" Add-Ons.",
		"title": "Shipping Insight Details",
		"version": "1"
	},
	"basePath": "/",
	"paths": {
		"/v1/shippingInsightDetails": {
			"x-DNB-Name": "Shipping Insight Details",
			"x-DNB-ID": "shippingInsightDetails",
			"get": {
				"description": "Providing additional detailed insight of the shipping transaction, the Shipping Add-On will enable the user to narrow details regarding the shipment including disembarkment location, destination, cargo packaging, weight of the cargo, classification of dangerous goods where applicable among other details of the shipment.\r\n\r\nNote: This API is available as part of \"Shipping Insight Details\" Add-Ons.",
				"operationId": "shippingInsightDetails",
				"x-monitoring": "Not Available.",
				"x-monitoring-pdf": "Not Available.",
				"tags": [
					"shippingInsightDetails"
				],
				"produces": [
					"application/json;charset=utf-8"
				],
				"responses": {
					"200": {
						"description": "OK",
						"schema": {
							"properties": {
								"transactionDetail": {
									"type": "object",
									"description": "The information used to process this request.",
									"properties": {
										"transactionID": {
											"type": "string",
											"example": "rlh-hi9puyoijk-jop8u-kd-d-1",
											"description": "A value assigned by the Dun & Bradstreet application to uniquely identify this request."
										},
										"customerTransactionID": {
											"type": "string",
											"example": 1234,
											"description": "The customerTransactionID provided in the request"
										},
										"transactionTimestamp": {
											"type": "string",
											"example": "2017-02-21T17:46:19.839Z",
											"description": "The date and time, in ISO 8601 UTC Z standard, when this response was created."
										}
									},
									"additionalProperties": true
								},
								"inquiryDetail": {
									"type": "object",
									"description": "The details of the input data provided.",
									"properties": {
										"duns": {
											"type": "string",
											"example": 804735132,
											"description": "The D-U-N-S number provided in the request."
										},
										"shipmentUniqueKey": {
											"type": "string",
											"example": "si:334351482",
											"description": "A unique key identifying this shipment record."
										},
										"vesselOriginIMONumber": {
											"type": "string",
											"example": "IMO8814275",
											"description": "The IMO number of the main carrier vessel from port of load. International Maritime Organization (IMO) number is a unique identifier for vessels. IMO numbers help to improve maritime safety and security and to reduce illegal activities. For ships, the IMO number remains linked to the hull for its lifetime, regardless of a change in name, flag, or owner."
										},
										"txnStartDate": {
											"type": "string",
											"example": "2018-01-01",
											"description": "The date by when no transactions originated before this date will be returned. If this optional property is not specified, then there will be no constraint on how old a returned request may be.<br/><br/>Note : YYYY-MM-DD format only. Should always be used along with txnEndDate.<br/>If user requires records from a specific date, both txnStartDate and txnEndDate should be the same."
										},
										"txnEndDate": {
											"type": "string",
											"example": "2020-01-01",
											"description": "The date by when no transactions originated after this date will be returned. If this optional property is not specified, then there will be no constraint on how old a returned request may be.<br/><br/>Note : YYYY-MM-DD format only. Should always be used along with txnEndDate.<br/>If user requires records from a specific date, both txnStartDate and txnEndDate should be the same."
										},
										"departureStartDate": {
											"type": "string",
											"example": "2020-01-21",
											"description": "The date by when shipments departed on or after this date will be returned. If this optional property is not specified, then there will be no constraint on how old a returned request may be.<br/><br/>Format : YYYY-MM-DD"
										},
										"departureEndDate": {
											"type": "string",
											"example": "2020-12-22",
											"description": "The date by when shipments departed on or beforethis date will be returned. If this optional property is not specified, then there will be no constraint on how old a returned request may be.<br/><br/>Format : YYYY-MM-DD"
										},
										"arrivalStartDate": {
											"type": "string",
											"example": "2020-01-21",
											"description": "The date by when shipments are estimated to arrive on or after this date will be returned. If this optional property is not specified, then there will be no constraint on how old a returned request may be.<br/><br/>Format : YYYY-MM-DD"
										},
										"arrivalEndDate": {
											"type": "string",
											"example": "2020-12-22",
											"description": "The date by when shipments are estimated to arrive on or beforethis date will be returned. If this optional property is not specified, then there will be no constraint on how old a returned request may be.<br/><br/>Format : YYYY-MM-DD"
										},
										"vesselOriginCountryISOAlpha2Code": {
											"type": "string",
											"example": "CN",
											"description": "The 2-letter country/market code defined by the International Organization for Standardization (ISO) ISO 3166-1 scheme identifying the country of the origin of the shipping vessel."
										},
										"vesselDestinationCountryISOAlpha2Code": {
											"type": "string",
											"example": "CN",
											"description": "The 2-letter country/market code defined by the International Organization for Standardization (ISO) ISO 3166-1 scheme identifying the country of the destination of the shipping vessel."
										},
										"dataProviderCode": {
											"type": "integer",
											"example": 34956,
											"description": "A unique code assigned by Dun & Bradstreet to identify the source from which the Shipping data was extracted originally for inclusion in this record.<br/>Refer to Reference code table \"34956 [CBP Data]\r\n34957 [Industry Data]\" for all possible values."
										},
										"shipmentStatusCode": {
											"type": "integer",
											"example": 34993,
											"description": "A unique code assigned by Dun & Bradstreet identifying the status of shipping's.<br/>Refer to Reference code table \"800 [Shipping Status]\" for all possible values."
										},
										"counterPartyTypeCode": {
											"type": "integer",
											"example": 35020,
											"description": "A unique code assigned by Dun & Bradstreet, identifying the type of the counter party.<br/>Refer to Reference code table \"35020 [Shipper]\r\n35022 [Consignee]\r\n35023 [Notify Party]\r\n\" for all possible values."
										},
										"harmonizedSystemCode": {
											"type": "string",
											"example": "640220",
											"description": "A numeric value that records the harmonized system codes derived based on the container cargo.<br/>Note:<br/>1.This can either be the 6 digit codes from WCO HS Coding scheme or the 10 digit codes form the HS coding scheme used by shipping country<br/>2.The results with an exact match will be returned"
										},
										"originPortCountryName": {
											"type": "string",
											"example": "China",
											"description": "The name of the country in which port of load is located."
										},
										"destinationPortCountryName": {
											"type": "string",
											"example": "United States",
											"description": "The name of the country in which port of unload is located."
										},
										"originPortAddressLocalityName": {
											"type": "string",
											"example": "Tuticorin",
											"description": "The city in which port of load is located."
										},
										"destinationPortAddressLocalityName": {
											"type": "string",
											"example": "Shanghai",
											"description": "The city in which port of unload is located."
										},
										"pageSize": {
											"type": "integer",
											"example": 25,
											"description": "The number of results to be returned per page in the response."
										},
										"pageNumber": {
											"type": "integer",
											"example": 1,
											"description": "The page number provided in the request."
										},
										"customerReference": {
											"type": "string",
											"example": "Some text to describe the request.",
											"description": "A reference string provided by the customer for this particular transaction."
										},
										"returnNavigators": {
											"type": "boolean",
											"example": true,
											"description": "The value of this parameter provided in the request."
										}
									},
									"additionalProperties": true
								},
								"candidatesMatchedQuantity": {
									"type": "integer",
									"example": 100,
									"description": "The total number of DUNS in which candidates are found with matching search criteria."
								},
								"candidatesReturnedQuantity": {
									"type": "integer",
									"example": 50,
									"description": "The total number of candidates returned in the response."
								},
								"shipments": {
									"type": "array",
									"description": "Records details about individual shipments that match the search criteria.",
									"items": {
										"properties": {
											"carrierName": {
												"type": "string",
												"example": "APL, HAPAG-LLOYD",
												"description": "Text that contains the name of the ocean shipping operator responsible for the shipment."
											},
											"carrierSCACCode": {
												"type": "string",
												"example": "BANQ",
												"description": "A code representing the automated importing carrier/NVOCC. This is the Standard Carrier Alpha Code (SCAC) issued by the National Motor Freight Traffic Association, Inc. In the case of water carriers who own their containers, the SCAC code is issued by the Intermodal Association of North America."
											},
											"moveType": {
												"type": "object",
												"description": "Records the type of shipment move, e.g. Port to Port.",
												"properties": {
													"dnbCode": {
														"type": "integer",
														"example": 34958,
														"description": "A unique code assigned by Dun & Bradstreet to identify the type of shipment move, e.g. Port to Port.<br/>Refer to Reference code table \"795 [Shipping Move Type]\" for all possible values."
													},
													"description": {
														"type": "string",
														"example": "Port to Port",
														"description": "Text that denotes the type of shipment move, e.g. Port to Port."
													}
												},
												"additionalProperties": true
											},
											"versionID": {
												"type": "number",
												"example": 219490658,
												"description": "A unique number that identifies this version of shipping transaction.<br/><br/>Note: The transaction id’s are the version id’s. For example, a shipping can have updates to them. When we receive updates to a shipping, it will have a different transaction id but the original id remains the same. This will help to know which shipping's have updates so that latest version id can be picked up based on version date"
											},
											"versionDate": {
												"type": "string",
												"example": "2010-10-30",
												"description": "Records the version date when the shipping was recorded in GMT."
											},
											"originID": {
												"type": "number",
												"example": 308903967,
												"description": "A unique number that identifies the shipping transaction."
											},
											"dataProvider": {
												"type": "object",
												"description": "Records the source from which the Shipping data was extracted originally for inclusion in this record. This may identify the DNB or partner company supplying the data, however a country may decide to develop different feeds from different databases and therefore different source codes may prove necessary.",
												"properties": {
													"dnbCode": {
														"type": "integer",
														"example": 34956,
														"description": "A unique code assigned by Dun & Bradstreet to identify the source from which the Shipping data was extracted originally for inclusion in this record.<br/>Refer to Reference code table \"29 [Information Sources]\" for all possible values."
													},
													"description": {
														"type": "string",
														"example": "Customs and Border Patrol Data",
														"description": "Text that identifies the source from which the Shipping data was extracted originally for inclusion in this record."
													}
												},
												"additionalProperties": true
											},
											"shipmentStatus": {
												"type": "object",
												"description": "Records the status of shipping's, e.g., Original.",
												"properties": {
													"dnbCode": {
														"type": "integer",
														"example": 34993,
														"description": "A unique code assigned by Dun & Bradstreet identifying the status of shipping's.<br/>Refer to Reference code table \"800 [Shipping Status]\" for all possible values."
													},
													"description": {
														"type": "string",
														"example": "Original",
														"description": "Text identifying the status of shipping's."
													}
												},
												"additionalProperties": true
											},
											"billType": {
												"type": "object",
												"description": "Records the type of bill of lading.",
												"properties": {
													"dnbCode": {
														"type": "integer",
														"example": 35008,
														"description": "A unique code assigned by Dun & Bradstreet identifying the type of bill of lading.<br/>Refer to Reference code table \"803 [Bill of Lading Type]\" for all possible values."
													},
													"description": {
														"type": "string",
														"example": "Master Bill",
														"description": "Text identifying the type of bill of lading."
													}
												},
												"additionalProperties": true
											},
											"masterBillOfLadingNumber": {
												"type": "string",
												"example": "SUDUN9SHA074172X",
												"description": "A number representing the master bill of lading, including the 4-character issuer code plus the issuer-assigned sequence number, which identifies the shipment. A Master Bill of Lading (MBL) is issued by the Shipping Line (Carrier) to the NVOCC Operator, or Freight Forwarder.<br/><br/>Clarification Note: A bill of lading is a legal document issued by a carrier to a shipper that details the type, quantity, and destination of the goods being carried. A bill of lading is a document of title, a receipt for shipped goods, and a contract between a carrier and shipper."
											},
											"houseBillOfLadingNumber": {
												"type": "string",
												"example": "BANQSHA7752447",
												"description": "A number used to report individual portions of a consolidated shipment. Populate with the carrier assigned number that identifies the portion of the consolidation being reported. A House Bill of Lading (HBL) is issued by an NVOCC operator, or a Freight Forwarder to their customers."
											},
											"subHouseBillOfLadingNumber": {
												"type": "string",
												"example": "BANQSHA7752448",
												"description": "Sub-House Bills are codes used to further report individual portions of a consolidated shipment<br/>Carrier-assigned number identifies the portion of the consolidation being reported. Number must be unique within the BOL."
											},
											"manifestNumber": {
												"type": "integer",
												"example": 1,
												"description": "Manifest number is the Line-item/sequence number of the shipments listed on a manifest/BOL."
											},
											"billOfLadingExtractDate": {
												"type": "string",
												"example": "20200318",
												"description": "The date when the bill of lading extract is produced."
											},
											"actualArrivalDate": {
												"type": "string",
												"example": "20200418",
												"description": "The date on which the conveyance was actually arrived at the first U.S. port"
											},
											"modeOfTransportation": {
												"type": "object",
												"description": "Records the mode of transportation, e.g., Containerized Vessel.",
												"properties": {
													"dnbCode": {
														"type": "integer",
														"example": 35016,
														"description": "A unique code assigned by Dun & Bradstreet identifying the mode of transportation.<br/>Refer to Reference code table \"805 [Shipping Transportation Mode Type]\" for all possible values."
													},
													"description": {
														"type": "integer",
														"example": "Containerized Vessel",
														"description": "Text identifying the mode of transportation."
													}
												},
												"additionalProperties": true
											},
											"inBondEntryType": {
												"type": "object",
												"description": "Records the entry type, required for in-bond shipments. Note : An import or export shipment that has not yet cleared customs is referred to as in bond. e.g., Immediate Exportation (IE).",
												"properties": {
													"dnbCode": {
														"type": "integer",
														"example": 35004,
														"description": "A unique code assigned by Dun & Bradstreet representing the entry type, required for in-bond shipments.<br/>Refer to Reference code table \"802 [Shipping In-bond Entry Type]\" for all possible values."
													},
													"description": {
														"type": "string",
														"example": "Immediate Exportation (IE",
														"description": "Text representing the entry type, required for in-bond shipments."
													}
												},
												"additionalProperties": true
											},
											"containers": {
												"type": "array",
												"description": "Records details of the container. A Container is a truck trailer loaded with cargo that can be detached for loading onto a vessel or railcar. Different types of containers exist for different shipping needs. For example, a container may be ventilated, refrigerated, insulated, dehumidified, or equipped with special devices used to secure certain types of cargo. A container shipment is a large shipment, typically over 20,000 pounds.",
												"items": {
													"properties": {
														"containerNumber": {
															"type": "string",
															"example": "MSKU8910260",
															"description": "Records the container number.<br/>Note:<br/>This is the container/equipment number associated with the bill of lading. This container/equipment number must reflect the number exactly as it physically appears on the container. Indicate NC for non‑containerized freight. Neither an identical container/equipment number nor the designation NC should be repeated within the same bill."
														},
														"containerTypeCode": {
															"type": "string",
															"example": "4510",
															"description": "A numeric and/or alpha value specifying the type of the container, e.g., 20 Standard Dry, 40 High Cube. A container/equipment type code alone may be used in lieu of the container/equipment length, height and width. Description Code and Container Type .This will be industry standard value from Customs Automated Manifest Interface Requirements(CAMIR) – Ocean ACE M1Appendix I."
														},
														"containerProfileCode": {
															"type": "string",
															"example": "22G0",
															"description": "A numeric and/or alpha value specifying the type of the container, e.g., 22G0."
														},
														"containerLength": {
															"type": "string",
															"example": "175.5",
															"description": "The length of the container or equipment ordered or used to transport shipment. The formula is FFFII, where FFF is feet and II is inches. The range for II is 00 through 11."
														},
														"containerWidth": {
															"type": "string",
															"example": "120.5",
															"description": "A shorter measurement of the two horizontal dimensions measured with the object in the upright position. The formula is FFFFFFII, where FFFFFF is feet and II is inches."
														},
														"containerHeight": {
															"type": "string",
															"example": "12.5",
															"description": "The vertical dimension of an object when object is in upright position. The formula is FFFFFFII, where FFFFFF is feet and II is inches."
														},
														"equipmentCode": {
															"type": "string",
															"example": "CN",
															"description": "A code describing the type of container or equipment used for shipment. This will be industry standard value from Customs Automated Manifest Interface Requirements(CAMIR) – Ocean ACE M1Appendix ."
														},
														"serviceType": {
															"type": "object",
															"description": "Records the extent of transportation service required, e.g., Break Bulk.",
															"properties": {
																"dnbCode": {
																	"type": "integer",
																	"example": 34892,
																	"description": "A unique code assigned by Dun & Bradstreet, identifying the extent of transportation service required.<br/>Refer to Reference code table \"799 [Service Type]\" for all possible values."
																},
																"description": {
																	"type": "string",
																	"example": "Break Bulk",
																	"description": "Text identifying the extent of transportation service required."
																}
															},
															"additionalProperties": true
														},
														"loadStatus": {
															"type": "object",
															"description": "Records the loaded condition of the transportation equipment, e.g., Empty",
															"properties": {
																"dnbCode": {
																	"type": "integer",
																	"example": 34980,
																	"description": "A unique code assigned by Dun & Bradstreet that specifies the loaded condition of the transportation equipment.<br/>Refer to Reference code table \"798 [Load Status]\" for all possible values."
																},
																"description": {
																	"type": "string",
																	"example": "Empty",
																	"description": "Text that specifies the loaded condition of the transportation equipment."
																}
															},
															"additionalProperties": true
														},
														"sealNumber1": {
															"type": "string",
															"example": "KN503295",
															"description": "An exporter/carrier seal number is an identification number associated with the container/equipment."
														},
														"sealNumber2": {
															"type": "string",
															"example": "WIND00293765",
															"description": "A secondary exporter/carrier seal number is an identification number associated with the container/equipment."
														},
														"packages": {
															"type": "array",
															"description": "Records details of the package within the container.",
															"items": {
																"properties": {
																	"packageCount": {
																		"type": "integer",
																		"example": 120,
																		"description": "The count of packages in the cargo item."
																	},
																	"packageLevel": {
																		"type": "object",
																		"description": "Records the level of cargo package usually per dangerous goods, e.g., Inner.",
																		"properties": {
																			"dnbCode": {
																				"type": "integer",
																				"example": 35019,
																				"description": "A unique code assigned by Dun & Bradstreet identifying the level of cargo package usually per dangerous goods.<br/>Refer to Reference code table \"807 [Package Level Type]\" for all possible values."
																			},
																			"description": {
																				"type": "string",
																				"example": "Inner",
																				"description": "Text identifying the level of cargo package usually per dangerous goods."
																			}
																		},
																		"additionalProperties": true
																	},
																	"packageTypeDescription": {
																		"type": "string",
																		"example": "Cartons",
																		"description": "Text that records the type of goods in cargo package, e.g., pallets, cartons."
																	},
																	"weight": {
																		"type": "number",
																		"example": 1500.55,
																		"description": "The gross weight in specified unit of measure. The value must be greater than zero."
																	},
																	"weightUnit": {
																		"type": "object",
																		"description": "Records the unit in which the weight of the goods present in the container cargo. Unit of the weight can be in kilograms or tons or any other common metric unit.",
																		"properties": {
																			"dnbCode": {
																				"type": "integer",
																				"example": 34968,
																				"description": "A unique code assigned by Dun & Bradstreet specifying unit of the weight can be in kilograms or tons or any other common metric unit.<br/>Refer to Reference code table \"67 [Unit of Measure]\" for all possible values."
																			},
																			"description": {
																				"type": "string",
																				"example": "Load",
																				"description": "Text specifying unit of the weight can be in kilograms or tons or any other common metric unit."
																			}
																		},
																		"additionalProperties": true
																	},
																	"allocatedContainerCount": {
																		"type": "number",
																		"example": 12,
																		"description": "Records the allocated container count.<br/>Count is allocated to avoid double counting containers Cargo line items are not always assigned to a particular container so counts are allocated."
																	},
																	"allocatedTwentyFootContainerCount": {
																		"type": "number",
																		"example": 10,
																		"description": "Records the allocated twenty-foot container equivalent count."
																	},
																	"importExportUSScheduleBCode": {
																		"type": "string",
																		"example": "4016",
																		"description": "Records the United States import/export code or Schedule B code of container cargo. This is used in the US based on HS Codes. If there are multiple Schedule B codes per line item, they will be listed together separated by a comma and space."
																	},
																	"ncmTariffCode": {
																		"type": "string",
																		"example": "4016",
																		"description": "Records the Cargo Mercosur common nomenclature (ncm) tariff code.NCM code of container cargo is similar to standard HS code. This is used primarily in Brazil and other South American countries"
																	},
																	"cargoDescription": {
																		"type": "string",
																		"example": "PUMP WITH PARTS",
																		"description": "Text that records the free form description of the cargo item. This will provide details of the items available inside the package."
																	},
																	"harmonizedSystemDetails": {
																		"type": "array",
																		"description": "Records various details from harmonized system. Package Harmonized Detail System is an internationally accepted system used to classify products. The first six digits of an HS code are universal across all countries, but each country will add additional digits to further specify products. HS codes play a role in determining import and export controls as well as duty rates.",
																		"items": {
																			"properties": {
																				"wcoHarmonizedSystemCode": {
																					"type": "string",
																					"example": "4016",
																					"description": "A numeric value that records up to 6 digit harmonized system codes derived based on the container cargo. The Harmonized System is an international nomenclature for the classification of products developed and maintained by the World Customs Organization (WCO). It allows participating countries to classify traded goods on a common basis for customs purposes. Reference: https://unstats.un.org/unsd/tradekb/Knowledgebase/50018/Harmonized-Commodity-Description-and-Coding-Systems-HS"
																				},
																				"nationalHarmonizedSystemCode": {
																					"type": "string",
																					"example": "4016",
																					"description": "A numeric value that records the Harmonized System Codes of container cargo, based on the tariff/scheme used by the country of shipping, to denote further classification of the products/goods. This could be up to 10 digits, the first 6 digits are the same as WCO HS codes."
																				},
																				"commodityValue": {
																					"type": "integer",
																					"example": 10,
																					"description": "A value greater than zero, in whole dollars, of the commodity. Twenty dollars per kilo may be used if the value is unknown."
																				},
																				"weight": {
																					"type": "number",
																					"example": 23.9,
																					"description": "A value greater than zero representing the net weight in pounds or kilos of the commodity."
																				},
																				"weightUnit": {
																					"type": "object",
																					"description": "Records the unit in which the weight of the commodity is recorded.",
																					"properties": {
																						"dnbCode": {
																							"type": "integer",
																							"example": 34968,
																							"description": "A unique code assigned by Dun & Bradstreet specifying unit of the weight can be in kilograms or tons or any other common metric unit.<br/>Refer to Reference code table \"67 [Unit of Measure]\" for all possible values."
																						},
																						"description": {
																							"type": "string",
																							"example": "Load",
																							"description": "Text specifying unit of the weight can be in kilograms or tons or any other common metric unit."
																						}
																					},
																					"additionalProperties": true
																				}
																			},
																			"additionalProperties": true,
																			"type": "object"
																		}
																	}
																},
																"additionalProperties": true,
																"type": "object"
															}
														},
														"hazardousMaterialDetails": {
															"type": "array",
															"description": "Records the details regarding the Hazardous Materials in the container. Hazardous Material (in short HAZMAT) are goods which may pose a threat to safety because they are poisonous, toxic, corrosive, explosive, flammable, etc. More precisely, hazardous materials are defined by the U.S. Department of Transportation in accordance with the Federal Hazardous Material Law.",
															"items": {
																"properties": {
																	"classCode": {
																		"type": "string",
																		"example": "",
																		"description": "A code that describes the hazardous material class."
																	},
																	"contactName": {
																		"type": "string",
																		"example": "",
																		"description": "The name and/or phone number of the person or department to contact in case of an emergency."
																	},
																	"imdgPageNumber": {
																		"type": "string",
																		"example": "",
																		"description": "The page number in the IMDG code in which the hazardous material identification appears."
																	},
																	"isFlashPointTemperatureNegative": {
																		"type": "boolean",
																		"example": true,
																		"description": "When set to \"true\", it means that this flashpoint temperature is negative, that is, below 0 degrees Centigrade/Celsius<br/><br/>When set to \"false\", it means that this flashpoint temperature is positive."
																	},
																	"flashPointTemperature": {
																		"type": "string",
																		"example": "",
																		"description": "The lowest temperature at which the vapor of a hazardous combustible liquid will ignite in the air."
																	},
																	"flashPointTemperatureUnit": {
																		"type": "object",
																		"description": "Records the basic unit of measurement (UOM) for the flashpoint temperature.",
																		"properties": {
																			"dnbCode": {
																				"type": "integer",
																				"example": 34979,
																				"description": "A unique code assigned by Dun & Bradstreet that denotes the basic unit of measurement (UOM).<br/>Refer to Reference code table \"67 [Unit of Measure]\" for all possible values."
																			},
																			"description": {
																				"type": "string",
																				"example": "Degrees Centigrade/Celsius.",
																				"description": "Text that denotes the basic unit of measurement (UOM)."
																			}
																		},
																		"additionalProperties": true
																	},
																	"classificationText": {
																		"type": "string",
																		"example": "",
																		"description": "Records the free form description of hazardous material classification, division, or label requirements."
																	},
																	"undgNumber": {
																		"type": "string",
																		"example": "",
																		"description": "A code representing the identification number assigned to the hazardous material in the International Maritime Dangerous Goods (IMDG) code."
																	},
																	"qualifierCode": {
																		"type": "string",
																		"example": "",
																		"description": "A code representing the hazardous class or division designated for the material in the International Maritime Dangerous Goods (IMDG) code."
																	},
																	"materialDescription": {
																		"type": "string",
																		"example": "",
																		"description": "Text that records the proper shipping name of the material designated as hazardous. It also provides any special instructions, and/or the phone number, if applicable."
																	}
																},
																"additionalProperties": true,
																"type": "object"
															}
														},
														"containerDescriptions": {
															"type": "array",
															"description": "Records the written description of the symbols and markings that are on the outside of the container.",
															"items": {
																"properties": {
																	"priority": {
																		"type": "integer",
																		"example": 2,
																		"description": "An order number in which the items are represented in a sequential order where the lowest the number being presented as the earlier being presented."
																	},
																	"text": {
																		"type": "string",
																		"example": "AS PACKING LIST",
																		"description": "Text that records the written description of the symbols and markings that are on the outside of the container."
																	}
																},
																"additionalProperties": true,
																"type": "object"
															}
														}
													},
													"additionalProperties": true,
													"type": "object"
												}
											},
											"origin": {
												"type": "object",
												"description": "Records the origin details during the container transaction process. Origin (Point of Origin) is the location where the shipment is transferred from the shipper (customer) to the carrier.",
												"properties": {
													"vesselName": {
														"type": "string",
														"example": "MSC AURORA",
														"description": "The name of the carrier vessel carrying the cargo to the port of load."
													},
													"vesselIMONumber": {
														"type": "string",
														"example": "IMO8814275",
														"description": "The IMO number of the main carrier vessel from port of load.<br/>International Maritime Organization (IMO) number is a unique identifier for vessels. IMO numbers help to improve maritime safety and security and to reduce illegal activities. For ships, the IMO number remains linked to the hull for its lifetime, regardless of a change in name, flag, or owner."
													},
													"vesselVoyageNumber": {
														"type": "string",
														"example": "QL940",
														"description": "Voyage Number of the main carrier vessel from port of load."
													},
													"vesselCountryISOAlpha2Code": {
														"type": "string",
														"example": "CN",
														"description": "An International Organization for Standardization (ISO) country code representing the flag country of the conveyance."
													},
													"portUNLocationCode": {
														"type": "string",
														"example": "DZ",
														"description": "A code that specifies United Nations Location for the port of load.<br/><br/>United Nations Code for Trade and Transport Locations, is a geographic coding scheme developed and maintained by United Nations Economic Commission for Europe (UNECE). UN/LOCODE assigns codes to locations used in trade and transport with functions such as seaports, rail and road terminals, airports, Postal Exchange Office and border crossing points."
													},
													"portCountryName": {
														"type": "string",
														"example": "China",
														"description": "The name of the country in which port of load is located."
													},
													"portAddressLocalityName": {
														"type": "string",
														"example": "Shanghai",
														"description": "The city in which port of load is located."
													},
													"estimatedDepartureLocalTimestamp": {
														"type": "string",
														"example": "2019-10-01 03:20:47.000000",
														"description": "The estimated date and timestamp of departure from port of load in local time."
													},
													"estimatedDepartureUTCTimestamp": {
														"type": "string",
														"example": "2020-07-31T10:54:08Z",
														"description": "The estimated date and timestamp of departure from port of load in UTC time."
													},
													"placeOfReceipt": {
														"type": "string",
														"example": "Shanghai",
														"description": "Records the free form location where the carrier takes ownership of the cargo from the customer."
													},
													"foreignPortCode": {
														"type": "string",
														"example": "2709",
														"description": "A code representing the foreign port in which cargo was laden on board the conveyance destined to the U.S ."
													},
													"placeOfReceiptEstimatedDepartureLocalTimestamp": {
														"type": "string",
														"example": "2019-10-01 03:20:47.000000",
														"description": "The estimated date and timestamp of departure from place of delivery in local time."
													},
													"placeOfReceiptEstimatedDepartureUTCTimestamp": {
														"type": "string",
														"example": "2020-07-31T10:54:08Z",
														"description": "The estimated date and timestamp of departure from place of delivery in UTC time."
													},
													"placeOfReceiptAddressLocalityName": {
														"type": "string",
														"example": "Shanghai",
														"description": "The city in which place of receipt is located."
													},
													"placeOfReceiptCountryName": {
														"type": "string",
														"example": "China",
														"description": "The name of the country in which place of receipt is located. Place of Receipt is where the carrier takes ownership of the cargo from the customer and this will be same as port of load country in most of the cases."
													},
													"placeOfReceiptUNLocationCode": {
														"type": "string",
														"example": "CN",
														"description": "A code that specifies United Nations Location in which the carrier first took possession of the cargo destined to the U.S. for the port of discharge.<br/><br/>United Nations Code for Trade and Transport Locations, is a geographic coding scheme developed and maintained by United Nations Economic Commission for Europe (UNECE). UN/LOCODE assigns codes to locations used in trade and transport with functions such as seaports, rail and road terminals, airports, Postal Exchange Office and border crossing points."
													},
													"isForeignPort": {
														"type": "boolean",
														"example": true,
														"description": "When set to \"true\", it specifies that this origin port is a foreign port in which cargo was laden on board the conveyance destined to the U.S."
													}
												},
												"additionalProperties": true
											},
											"destination": {
												"type": "object",
												"description": "Records the destination details during the container transaction process. Destination (Point of Destination) is the location where shipment is delivered to the consignee (customer).<br/>The port at which the cargo is unloaded from the vessel to be delivered to the consignee, is called Port of Discharge or Port of Destination.",
												"properties": {
													"vesselName": {
														"type": "string",
														"example": "MSC AURORA",
														"description": "The name of the carrier vessel carrying the cargo to the port of unload."
													},
													"vesselVoyageNumber": {
														"type": "string",
														"example": "IMO8814275",
														"description": "Voyage Number of the main carrier vessel from port of unload."
													},
													"vesselIMONumber": {
														"type": "string",
														"example": "QL940",
														"description": "The IMO number of the main carrier vessel from port of unload.<br/>International Maritime Organization (IMO) number is a unique identifier for vessels. IMO numbers help to improve maritime safety and security and to reduce illegal activities. For ships, the IMO number remains linked to the hull for its lifetime, regardless of a change in name, flag, or owner."
													},
													"vesselCountryISOAlpha2Code": {
														"type": "string",
														"example": "CN",
														"description": "An International Organization for Standardization (ISO) country code representing the flag country of the conveyance."
													},
													" portUNLocationCode": {
														"type": "string",
														"example": "DZ",
														"description": "A code that specifies United Nations Location for the port of unload.<br/><br/>United Nations Code for Trade and Transport Locations, is a geographic coding scheme developed and maintained by United Nations Economic Commission for Europe (UNECE). UN/LOCODE assigns codes to locations used in trade and transport with functions such as seaports, rail and road terminals, airports, Postal Exchange Office and border crossing points."
													},
													" portCountryName": {
														"type": "string",
														"example": "China",
														"description": "The name of the country in which port of unload is located."
													},
													" portAddressLocalityName": {
														"type": "string",
														"example": "Shanghai",
														"description": "The city in which port of unload is located."
													},
													"placeOfDeliveryEstimatedArrivalTimestamp": {
														"type": "string",
														"example": "2019-10-01 03:20:47.000000",
														"description": "The estimated date and timestamp of arrival at the place of delivery in local time."
													},
													"placeOfDeliveryEstimatedArrivalUTCTimestamp": {
														"type": "string",
														"example": "2020-07-31T10:54:08Z",
														"description": "The estimated date and timestamp of arrival at the place of delivery in UTC time."
													},
													"placeOfDeliveryUNLocationCode": {
														"type": "string",
														"example": "DX",
														"description": "A code that specifies United Nations Location where the customer takes delivery of the cargo from the carrier and this will be same as port of discharge country in most of the cases.<br/><br/>United Nations Code for Trade and Transport Locations, is a geographic coding scheme developed and maintained by United Nations Economic Commission for Europe (UNECE). UN/LOCODE assigns codes to locations used in trade and transport with functions such as seaports, rail and road terminals, airports, Postal Exchange Office and border crossing points."
													},
													"placeOfDeliveryCountryName": {
														"type": "string",
														"example": "China",
														"description": "The name of the country in which place of delivery is located. Place of delivery is where the customer takes delivery of the cargo from the carrier and this will be same as port of discharge country in most of the cases."
													},
													"placeOfDeliveryAddressLocalityName": {
														"type": "string",
														"example": "Shanghai",
														"description": "The city in which place of delivery is located."
													},
													"foreignPortCode": {
														"type": "string",
														"example": "1280",
														"description": "The foreign port to which the cargo is destined to."
													},
													"isForeignPort": {
														"type": "boolean",
														"example": true,
														"description": "When set to \"true\", it specifies that this destination port is a foreign port."
													},
													"estimatedArrivalTimestamp": {
														"type": "string",
														"example": "2019-10-01 03:20:47.000000",
														"description": "The estimated date and timestamp of arrival at the port of departure in local time."
													},
													"estimatedArrivalUTCTimestamp": {
														"type": "string",
														"example": "2020-07-31T10:54:08Z",
														"description": "The estimated date and timestamp of arrival at the port of departure in UTC time."
													},
													"unladingPortCode": {
														"type": "string",
														"example": "2709",
														"description": "A code representing the CBP district/port."
													},
													"destinationPortCode": {
														"type": "string",
														"example": "1288",
														"description": "A code representing the in‑bond port of destination. See Census Schedule D and CAMIR Appendix E for valid port codes."
													}
												},
												"additionalProperties": true
											},
											"notifyParty": {
												"type": "array",
												"description": "Records the secondary notify party authorized to receive a copy of the bill of lading notification.",
												"items": {
													"properties": {
														"carrierCode": {
															"type": "string",
															"example": "YMLU",
															"description": "The Standard Carrier Alpha Code (SCAC) or automated FIRMS of the notify party."
														},
														"priority": {
															"type": "integer",
															"example": 3,
															"description": "An order number in which the items are represented in a sequential order where the lowest the number being presented as the earlier being presented."
														}
													},
													"additionalProperties": true,
													"type": "object"
												}
											},
											"shipmentSummary": {
												"type": "object",
												"description": "Records the summarized information about the shipments.",
												"properties": {
													"manifestQuantity": {
														"type": "integer",
														"example": 2310,
														"description": "A value representing the total number of pieces on the bill of lading. This value must be greater than zero. If quantity is less than 11 digits, right justify with leading zeroes."
													},
													"manifestUnitCode": {
														"type": "string",
														"example": "CTN",
														"description": "A code representing the manifest unit of measure, such as CTNS (cartons)."
													},
													"weight": {
														"type": "number",
														"example": 16747,
														"description": "The gross weight in specified unit of measure. The value must be greater than zero."
													},
													"weightUnit": {
														"type": "object",
														"description": "Records the unit in which the weight of the shipment is recorded.",
														"properties": {
															"dnbCode": {
																"type": "integer",
																"example": 34968,
																"description": "A unique code assigned by Dun & Bradstreet specifying unit of the weight can be in kilograms or tons or any other common metric unit.<br/>Refer to Reference code table \"67 [Unit of Measure]\" for all possible values."
															},
															"description": {
																"type": "string",
																"example": "Load",
																"description": "Text specifying unit of the weight can be in kilograms or tons or any other common metric unit."
															}
														},
														"additionalProperties": true
													},
													"volume": {
														"type": "number",
														"example": 0,
														"description": "A value representing the shipment's volume."
													},
													"volumeUnit": {
														"type": "object",
														"description": "Records the unit in which the volume of the shipment is recorded.",
														"properties": {
															"dnbCode": {
																"type": "integer",
																"example": 3332,
																"description": "A unique code assigned by Dun & Bradstreet specifying unit of the weight can be in kilograms or tons or any other common metric unit.<br/>Refer to Reference code table \"67 [Unit of Measure]\" for all possible values."
															},
															"description": {
																"type": "string",
																"example": "cubic metres",
																"description": "Text specifying unit of the weight can be in kilograms or tons or any other common metric unit."
															}
														},
														"additionalProperties": true
													}
												},
												"additionalProperties": true
											},
											"counterPartyDetails": {
												"type": "array",
												"description": "Records details of all parties involved in the shipment process, This could be the shipper, consignee, forwarder or notify parties involved in this shipment.",
												"items": {
													"properties": {
														"partyType": {
															"type": "object",
															"description": "Records the type of the counter party, e.g., Shipper.",
															"properties": {
																"dnbCode": {
																	"type": "integer",
																	"example": 35020,
																	"description": "A unique code assigned by Dun & Bradstreet, identifying the type of the counter party.<br/>Refer to Reference code table \"808 [Shipment Counter Party Type]\" for all possible values."
																},
																"description": {
																	"type": "string",
																	"example": "Shipper",
																	"description": "Text identifying the type of the counter party."
																}
															},
															"additionalProperties": true
														},
														"duns": {
															"type": "string",
															"example": 804735132,
															"description": "The subject identifier of the counter party under the Data Universal Numbering System."
														},
														"primaryName": {
															"type": "string",
															"example": "GORMAN MANUFACTURING COMPANY, INC.",
															"description": "A name by which the counterparty is known / identified."
														},
														"contactName": {
															"type": "string",
															"example": "MANDY MILLER",
															"description": "The name of the person or office to whom communications should be directed."
														},
														"address": {
															"type": "object",
															"description": "Records the address for the counterparty.",
															"properties": {
																"addressLocality": {
																	"type": "object",
																	"description": "The details of the locality where the organization's Primary Address is located or conducts operations. Locality defined as a district population cluster. City, town, township, village, borough etc.",
																	"properties": {
																		"name": {
																			"type": "string",
																			"example": "SAN FRANCISCO",
																			"description": "The name of the locality where the organization's Primary Address is located or conducts operations. Locality defined as a district population cluster. City, town, township, village, borough etc."
																		}
																	},
																	"additionalProperties": true
																},
																"addressCountry": {
																	"type": "object",
																	"description": "The details of the country/market in which this address is located.",
																	"properties": {
																		"isoAlpha2Code": {
																			"type": "string",
																			"example": "US",
																			"description": "The two-letter country code, defined by the International Organization for Standardization (ISO) ISO 3166-1 scheme identifying the country/market in which this address is located."
																		},
																		"name": {
																			"type": "string",
																			"example": "United States",
																			"description": "The name of the country/market in which this address is located."
																		}
																	},
																	"additionalProperties": true
																},
																"addressRegion": {
																	"type": "object",
																	"description": "The details of the locally governed area that forms part of a centrally governed nation to identify where this address is located.",
																	"properties": {
																		"name": {
																			"type": "string",
																			"example": "California",
																			"description": "The name of the locally governed area that forms part of a centrally governed nation to identify where this address is located."
																		}
																	},
																	"additionalProperties": true
																},
																"streetAddress": {
																	"type": "object",
																	"description": "The details of the street address where the entity is located.",
																	"properties": {
																		"line1": {
																			"type": "string",
																			"example": "492 KOLLER ST",
																			"description": "The first line of the address where the entity is located.<br/><br/>For example, &quot;41 Central Chambers&quot; in the address <br/>41 Central Chambers<br/>Dame Court<br/>Dublin 2"
																		},
																		"line2": {
																			"type": "string",
																			"example": "Suite 100",
																			"description": "The second line of the address where the entity is located.<br/><br/>For example, &quot;Dame Court&quot; in the address <br/>41 Central Chambers<br/>Dame Court<br/>Dublin 2"
																		},
																		"line3": {
																			"type": "string",
																			"example": "Address line 3",
																			"description": "The third line of the address where the entity is located."
																		},
																		"line4": {
																			"type": "string",
																			"example": "Address line 4",
																			"description": "The forth line of the address where the entity is located."
																		}
																	},
																	"additionalProperties": true
																},
																"postalCode": {
																	"type": "string",
																	"example": 941109999,
																	"description": "The postal code of the organization's Primary Address.<br/><br/>Also known locally in various English-speaking countries throughout the world as a postcode, post code, Eircode, PIN or ZIP Code) is a series of letters or digits or both, sometimes including spaces or punctuation, included in a postal address for the purpose of sorting mail. The code is used by the country&#39;s postal authority to identify the address where the organization is located or conducts operations ."
																}
															},
															"additionalProperties": true
														},
														"telephoneNumber": {
															"type": "string",
															"example": 6505550000,
															"description": "A sequence of digits used for voice communication with the entity.<br/>This sequence of digits includes the area code or city code and domestic dialing code."
														},
														"faxNumber": {
															"type": "string",
															"example": 6505550001,
															"description": "A sequence of digits used for facsimile communication with the entity.<br/>This sequence of digits includes the area code or city code and domestic dialing code."
														},
														"emailAddress": {
															"type": "string",
															"example": "someone@company.com",
															"description": "The email address for the entity."
														},
														"isSoleProprietor": {
															"type": "boolean",
															"example": true,
															"description": "When set to \"true\", this denotes that this counter party is a sole proprietor. This information is derived by D&B"
														},
														"isFreightOwner": {
															"type": "boolean",
															"example": true,
															"description": "When set to \"true\", this denotes that this counter party is a carrier, freight forwarder, or other transportation company. This information is derived by D&B"
														},
														"priority": {
															"type": "integer",
															"example": 1,
															"description": "An order number in which the items are represented in a sequential order where the lowest the number being presented as the earlier being presented."
														}
													},
													"additionalProperties": true,
													"type": "object"
												}
											}
										},
										"additionalProperties": true,
										"type": "object"
									}
								},
								"navigators": {
									"type": "object",
									"description": "The details of the available navigators, or filters, for the search response.<br/><br/>The navigators can be added to a follow-up search request to narrow the results. See the Search Criteria Guide for more information.",
									"properties": {
										"originPortCountryName": {
											"type": "array",
											"description": "Records the request parameters and values that can be used to narrow down the search results based on origin port country.",
											"items": {
												"properties": {
													"query": {
														"type": "string",
														"example": "",
														"description": "Text that represents the request parameter value."
													},
													"description": {
														"type": "string",
														"example": "",
														"description": "Textual explanation of the parameter value."
													},
													"candidatesMatchedQuantity": {
														"type": "integer",
														"example": 5000,
														"description": "The number of search results that match the given request parameter value."
													}
												},
												"additionalProperties": true,
												"type": "object"
											}
										},
										"destinationPortCountryName": {
											"type": "array",
											"description": "Records the request parameters and values that can be used to narrow down the search results based on destination port country.",
											"items": {
												"properties": {
													"query": {
														"type": "string",
														"example": "",
														"description": "Text that represents the request parameter value."
													},
													"description": {
														"type": "string",
														"example": "",
														"description": "Textual explanation of the parameter value."
													},
													"candidatesMatchedQuantity": {
														"type": "integer",
														"example": 5000,
														"description": "The number of search results that match the given request parameter value."
													}
												},
												"additionalProperties": true,
												"type": "object"
											}
										},
										"originPortAddressLocalityName": {
											"type": "array",
											"description": "Records the request parameters and values that can be used to narrow down the search results based on origin port country.",
											"items": {
												"properties": {
													"query": {
														"type": "string",
														"example": "",
														"description": "Text that represents the request parameter value."
													},
													"description": {
														"type": "string",
														"example": "",
														"description": "Textual explanation of the parameter value."
													},
													"candidatesMatchedQuantity": {
														"type": "integer",
														"example": 5000,
														"description": "The number of search results that match the given request parameter value."
													}
												},
												"additionalProperties": true,
												"type": "object"
											}
										},
										"destinationPortAddressLocalityName": {
											"type": "array",
											"description": "Records the request parameters and values that can be used to narrow down the search results based on destination port country.",
											"items": {
												"properties": {
													"query": {
														"type": "string",
														"example": "",
														"description": "Text that represents the request parameter value."
													},
													"description": {
														"type": "string",
														"example": "",
														"description": "Textual explanation of the parameter value."
													},
													"candidatesMatchedQuantity": {
														"type": "integer",
														"example": 5000,
														"description": "The number of search results that match the given request parameter value."
													}
												},
												"additionalProperties": true,
												"type": "object"
											}
										},
										"harmonizedSystemCode": {
											"type": "array",
											"description": "Records the request parameters and values that can be used to narrow down the search results based on HS codes.",
											"items": {
												"properties": {
													"query": {
														"type": "string",
														"example": "",
														"description": "Text that represents the request parameter value.<br/><br/>Group based on first 2 digits"
													},
													"description": {
														"type": "string",
														"example": "",
														"description": "Textual explanation of the parameter value."
													},
													"candidatesMatchedQuantity": {
														"type": "integer",
														"example": 5000,
														"description": "The number of search results that match the given request parameter value."
													}
												},
												"additionalProperties": true,
												"type": "object"
											}
										},
										"departedSinceDays": {
											"type": "array",
											"description": "Records the request parameters and values that can be used to narrow down the search results based on days since the shipment deaprted from origin port.",
											"items": {
												"properties": {
													"query": {
														"type": "string",
														"example": "7",
														"description": "Text that represents the request parameter value.<br/><br/>Possible Values : <br/>- 7<br/>- 30<br/>- 90<br/>- 365<br/>- gt 365"
													},
													"description": {
														"type": "string",
														"example": "",
														"description": "Textual explanation of the parameter value."
													},
													"candidatesMatchedQuantity": {
														"type": "integer",
														"example": 5000,
														"description": "The number of search results that match the given request parameter value."
													}
												},
												"additionalProperties": true,
												"type": "object"
											}
										},
										"arrivedSinceDays": {
											"type": "array",
											"description": "Records the request parameters and values that can be used to narrow down the search results based on days since the shipment arrived at destination port.",
											"items": {
												"properties": {
													"query": {
														"type": "string",
														"example": "7",
														"description": "Text that represents the request parameter value.<br/><br/>Possible Values : <br/>- 7<br/>- 30<br/>- 90<br/>- 365<br/>- gt 365"
													},
													"description": {
														"type": "string",
														"example": "",
														"description": "Textual explanation of the parameter value."
													},
													"candidatesMatchedQuantity": {
														"type": "integer",
														"example": 5000,
														"description": "The number of search results that match the given request parameter value."
													}
												},
												"additionalProperties": true,
												"type": "object"
											}
										},
										"shipmentStatus": {
											"type": "array",
											"description": "Records the request parameters and values that can be used to narrow down the search results based on shipment status.",
											"items": {
												"properties": {
													"query": {
														"type": "string",
														"example": "",
														"description": "Text that represents the request parameter value."
													},
													"description": {
														"type": "string",
														"example": "",
														"description": "Textual explanation of the parameter value."
													},
													"candidatesMatchedQuantity": {
														"type": "integer",
														"example": 5000,
														"description": "The number of search results that match the given request parameter value."
													}
												},
												"additionalProperties": true,
												"type": "object"
											}
										}
									},
									"additionalProperties": true
								},
								"links": {
									"type": "object",
									"description": "The links to traverse between pages with search results.",
									"properties": {
										"prev": {
											"type": "string",
											"example": "https://dnblinktopage.com",
											"description": "Link to the previous page of the results."
										},
										"next": {
											"type": "string",
											"example": "https://dnblinktopage.com",
											"description": "Link to the next page of the results."
										},
										"first": {
											"type": "string",
											"example": "https://dnblinktopage.com",
											"description": "Link to the first page of the results."
										},
										"last": {
											"type": "string",
											"example": "https://dnblinktopage.com",
											"description": "Link to the last page of the results"
										}
									},
									"additionalProperties": true
								}
							},
							"description": "",
							"type": "object"
						}
					}
				},
				"security": [],
				"parameters": [
					{
						"in": "header",
						"name": "Authorization",
						"description": "The access token provided by authentication.",
						"required": true,
						"type": "string",
						"x-example": "Bearer alphanumerictoken"
					},
					{
						"in": "query",
						"name": "duns",
						"description": "DUNS number to be used for search (mandatory when Searching by D-U-N-S, otherwise optional)<br/><br/>This is a Standalone parameter; at least one Standalone parameter must be included in the request.",
						"required": false,
						"type": "string",
						"x-example": "804735132"
					},
					{
						"in": "query",
						"name": "shipmentUniqueKey",
						"description": "A unique key identifying this shipment record.<br/><br/>This is a Standalone parameter; at least one Standalone parameter must be included in the request.",
						"required": false,
						"type": "string",
						"x-example": "si:334351482"
					},
					{
						"in": "query",
						"name": "txnStartDate",
						"description": "The date by when no transactions originated before this date will be returned. If this optional property is not specified, then there will be no constraint on how old a returned request may be.<br/><br/>Note : YYYY-MM-DD format only.Should always be used along with txnEndDate. If user requires records from a specific date, both txnStartDate and txnEndDate should be the same.",
						"required": false,
						"type": "string",
						"x-example": "2018-01-01"
					},
					{
						"in": "query",
						"name": "txnEndDate",
						"description": "The date by when no transactions originated after this date will be returned. If this optional property is not specified, then there will be no constraint on how old a returned request may be.<br/><br/>Note : YYYY-MM-DD format only.Should always be used along with txnEndDate. If user requires records from a specific date, both txnStartDate and txnEndDate should be the same.",
						"required": false,
						"type": "string",
						"x-example": "2020-01-01"
					},
					{
						"in": "query",
						"name": "departureStartDate",
						"description": "The date by when shipments departed on or after this date will be returned.  If this optional property is not specified, then there will be no constraint on how old a returned request may be.<br/><br/>Note : YYYY-MM-DD format only<br/>Should always be used along with departureEndDate<br/>If user requires records from a specific date, both departureStartDate and departureEndDate should be the same",
						"required": false,
						"type": "string",
						"x-example": "2020-01-21"
					},
					{
						"in": "query",
						"name": "departureEndDate",
						"description": "The date by when shipments departed on or beforethis date will be returned.  If this optional property is not specified, then there will be no constraint on how old a returned request may be.<br/><br/>Note : YYYY-MM-DD format only<br/>Should always be used along with departureStartDate<br/>If user requires records from a specific date, both departureStartDate and departureEndDate should be the same",
						"required": false,
						"type": "string",
						"x-example": "2020-12-22"
					},
					{
						"in": "query",
						"name": "arrivalStartDate",
						"description": "The date by when shipments are estimated to arrive on or after this date will be returned.  If this optional property is not specified, then there will be no constraint on how old a returned request may be.<br/><br/>Note : YYYY-MM-DD format only<br/>Should always be used along with arrivalEndDate<br/>If user requires records from a specific date, both arrivalStartDate and arrivalEndDate should be the same",
						"required": false,
						"type": "string",
						"x-example": "2020-01-21"
					},
					{
						"in": "query",
						"name": "arrivalEndDate",
						"description": "The date by when shipments are estimated to arrive on or beforethis date will be returned.  If this optional property is not specified, then there will be no constraint on how old a returned request may be.<br/><br/>Note : YYYY-MM-DD format only<br/>Should always be used along with arrivalStartDate<br/>If user requires records from a specific date, both arrivalStartDate and arrivalEndDate should be the same",
						"required": false,
						"type": "string",
						"x-example": "2020-12-22"
					},
					{
						"in": "query",
						"name": "vesselOriginIMONumber",
						"description": "The IMO number of the main carrier vessel from port of load. International Maritime Organization (IMO) number is a unique identifier for vessels. IMO numbers help to improve maritime safety and security and to reduce illegal activities. For ships, the IMO number remains linked to the hull for its lifetime, regardless of a change in name, flag, or owner.<br/><br/>This is a Standalone parameter; at least one Standalone parameter must be included in the request.",
						"required": false,
						"type": "string",
						"x-example": "IMO8814275"
					},
					{
						"in": "query",
						"name": "vesselOriginCountryISOAlpha2Code",
						"description": "The 2-letter country/market code defined by the International Organization for Standardization (ISO) ISO 3166-1 scheme identifying the country of the origin of the shipping vessel.",
						"required": false,
						"type": "string",
						"x-example": "CN"
					},
					{
						"in": "query",
						"name": "vesselDestinationCountryISOAlpha2Code",
						"description": "The 2-letter country/market code defined by the International Organization for Standardization (ISO) ISO 3166-1 scheme identifying the country of the destination of the shipping vessel.",
						"required": false,
						"type": "string",
						"x-example": "CN"
					},
					{
						"in": "query",
						"name": "dataProviderCode",
						"description": "A unique code assigned by Dun&Bradstreet to identify the source from which the Shiiping data was extracted originally for inclusion in this record.",
						"required": false,
						"type": "integer",
						"x-example": 34956
					},
					{
						"in": "query",
						"name": "shipmentStatusCode",
						"description": "A unique code assigned by Dun&Bradstreet identifying the status of shippings.<br/><br/>Note: Supports multiple values separated by comma",
						"required": false,
						"type": "integer",
						"x-example": 34993
					},
					{
						"in": "query",
						"name": "counterPartyTypeCode",
						"description": "A unique code assigned by Dun&Bradstreet, identifying the type of the counter party.<br/><br/>Note: Supports multiple values separated by comma",
						"required": false,
						"type": "integer",
						"x-example": 35020
					},
					{
						"in": "query",
						"name": "harmonizedSystemCode",
						"description": "A numeric value that records the harmonized system codes derived based on the container cargo.<br/><br/>Note:<br/>1.This can either be the 6 digit codes from WCO HS Coding scheme or the 10 digit codes form the HS coding scheme used by shipping country<br/>2.The results with an exact match will be returned",
						"required": false,
						"type": "string",
						"x-example": "640220"
					},
					{
						"in": "query",
						"name": "originPortCountryName",
						"description": "The name of the country in which port of load is located.",
						"required": false,
						"type": "string",
						"x-example": "China"
					},
					{
						"in": "query",
						"name": "destinationPortCountryName",
						"description": "The name of the country in which port of unload is located.",
						"required": false,
						"type": "string",
						"x-example": "United States"
					},
					{
						"in": "query",
						"name": "originPortAddressLocalityName",
						"description": "The city in which port of load is located.<br/><br/>Note : Should always be used along with originPortCountryName",
						"required": false,
						"type": "string",
						"x-example": "Tuticorin"
					},
					{
						"in": "query",
						"name": "destinationPortAddressLocalityName",
						"description": "The city in which port of unload is located.<br/><br/>Note : Should always be used along with destinationPortCountryName",
						"required": false,
						"type": "string",
						"x-example": "Shanghai"
					},
					{
						"in": "query",
						"name": "pageSize",
						"description": "The number of results to return in a single page.    <br/>    <br/>Default value as 10,  but have 1-50 allowed, and min page size =1 and max results = 1000",
						"required": false,
						"type": "integer",
						"x-example": 2
					},
					{
						"in": "query",
						"name": "pageNumber",
						"description": "Search results can be paginated; this attribute specifies which page is to be returned.<br/>Valid values: Integers from 1.",
						"required": false,
						"type": "integer",
						"x-example": 2
					},
					{
						"in": "query",
						"name": "returnNavigators",
						"description": "Denotes the preference of the customer to return the search results navigations information used to narrow down the search results.",
						"required": false,
						"type": "boolean",
						"x-example": true
					},
					{
						"in": "query",
						"name": "customerTransactionID",
						"description": "An ID assigned by the customer to uniquely identify this request.",
						"required": false,
						"type": "string",
						"x-example": 1234
					},
					{
						"in": "query",
						"name": "customerReference",
						"description": "Up to 240 characters for a reference string to be linked to the request in order to support subsequent order reconciliation.",
						"required": false,
						"type": "string",
						"x-example": "customer reference text"
					}
				]
			}
		}
	}
}