{
  "swagger": "2.0",
  "info": {
    "version": "v2",
    "title": "Enrichment"
  },
  "host": "api.experianaperture.io",
  "basePath": "/",
  "paths": {
    "/enrichment/v2/{country}": {
      "post": {
        "tags": [
          "Enrichment"
        ],
        "summary": "Submits an enrichment request to the service and returns enriched data for the given search keys and specified attributes.",
        "operationId": "PostV2Request",
        "consumes": [
          "application/json",
          "application/xml",
          "application/x-msgpack"
        ],
        "produces": [
          "application/json",
          "application/xml",
          "application/x-msgpack"
        ],
        "parameters": [
          {
            "name": "Auth-Token",
            "in": "header",
            "description": "Your unique key, called a token, that is required to submit an API request.",
            "required": true,
            "type": "string"
          },
          {
            "name": "Add-Metadata",
            "in": "header",
            "description": "Specify whether the response should return all fields and values, in addition to the main core information.",
            "required": false,
            "type": "boolean"
          },
          {
            "name": "Reference-Id",
            "in": "header",
            "description": "Optional identifier that will be returned in the response to help you track the request.",
            "required": false,
            "type": "string",
            "maxLength": 256,
            "minLength": 0,
            "pattern": "^[\\w\\-\\/\\:]+$"
          },
          {
            "name": "Match-Rule",
            "in": "header",
            "description": "Ignore, currently only \"Strict\" is supported.",
            "required": false,
            "type": "string"
          },
          {
            "name": "Linkage-Rule",
            "in": "header",
            "description": "Ignore, currently only \"None\" is supported.",
            "required": false,
            "type": "string"
          },
          {
            "name": "Layout",
            "in": "header",
            "description": "Ignore, currently not supported.",
            "required": false,
            "type": "string"
          },
          {
            "name": "Timeout-Seconds",
            "in": "header",
            "description": "Maximum time you are prepared to wait for a response, expressed in seconds. Acceptable values: 2-15. If a timeout occurs, an HTTP status code of 408 - Request Timeout will be returned.",
            "required": false,
            "type": "integer",
            "format": "int32",
            "maximum": 15,
            "minimum": 2
          },
          {
            "name": "country",
            "in": "path",
            "description": "The 3-letter ISO country code.",
            "required": false,
            "type": "string"
          },
          {
            "name": "enrichmentRequest",
            "in": "body",
            "description": "The request body.",
            "required": true,
            "schema": {
              "$ref": "#/definitions/EnrichmentV2Request"
            }
          }
        ],
        "responses": {
          "200": {
            "description": "Success",
            "schema": {
              "$ref": "#/definitions/EnrichmentV2Response"
            },
            "examples": {
              "application/json": {
                "transaction_id": "00000000-0000-0000-0000-000000000000",
                "result": {
                  "geocodes": {
                    "latitude": 33.68945,
                    "longitude": -117.87401,
                    "match_level": "building"
                  }
                },
                "metadata": {
                  "code": "S200",
                  "message": "Success",
                  "detail": "All requested attribute(s) retrieved.",
                  "datasets": {
                    "geocodes": {
                      "latitude": {
                        "code": "S200",
                        "message": "Match",
                        "value": "33.68945"
                      },
                      "longitude": {
                        "code": "S200",
                        "message": "Match",
                        "value": "-117.87401"
                      },
                      "match_level": {
                        "code": "S200",
                        "message": "Match",
                        "value": "building"
                      }
                    }
                  }
                }
              }
            }
          },
          "400": {
            "description": "Bad Request"
          },
          "401": {
            "description": "Unauthorized"
          },
          "403": {
            "description": "Forbidden"
          },
          "404": {
            "description": "Not Found"
          },
          "406": {
            "description": "Not Acceptable"
          },
          "408": {
            "description": "Request Timeout"
          },
          "415": {
            "description": "Unsupported Media Type"
          },
          "429": {
            "description": "Too Many Requests"
          },
          "500": {
            "description": "Internal Server Error"
          },
          "503": {
            "description": "Service Unavailable"
          }
        }
      }
    }
  },
  "definitions": {
    "EnrichmentV2Request": {
      "description": "The request model.",
      "required": [
        "keys",
        "attributes"
      ],
      "type": "object",
      "properties": {
        "country_iso": {
          "description": "The 3-letter ISO country code.",
          "type": "string"
        },
        "keys": {
          "$ref": "#/definitions/EnrichmentV2DatasetKeys",
          "description": "Keys you can use to search datasets."
        },
        "attributes": {
          "$ref": "#/definitions/EnrichmentV2DatasetAttributes",
          "description": "Datasets and their specific attributes."
        }
      },
      "xml": {
        "name": "request"
      },
      "example": {
        "country_iso": "USA",
        "keys": {
          "global_address_key": "aWQ9NDc1IEFudG9uIEJsdmQsIENvc3RhIE1lc2EgQ0EgOTI2MjYsIFVuaXRlZCBTdGF0ZXMgT2YgQW1lcmljYX5hbHRfa2V5PXw0NzUgQW50b24gQmx2ZHx8Q29zdGEgTWVzYSxDQSw5MjYyNi03MDM3fmRhdGFzZXQ9VVNBX1BBRn5mb3JtYXRpZD02YzJkN2RkNC05YzEzLTQ3YWUtYWZiYi0yZWMyYjEyNGE2NDVfVTQwXzI0XzBfMF8wPTQ3NX5xbD0yM35nZW89MA"
        },
        "attributes": {
          "geocodes": [
            "latitude",
            "longitude",
            "match_level"
          ]
        }
      }
    },
    "EnrichmentV2DatasetKeys": {
      "description": "Keys you can use to search datasets.",
      "type": "object",
      "properties": {
        "pin": {
          "description": "Unique Experian-assigned person identifier.",
          "type": "string",
          "example": "100000047"
        },
        "email_address": {
          "description": "The consumer's email address.",
          "type": "string",
          "example": "support@experian.com"
        },
        "mobile": {
          "description": "The consumer's cell phone number.",
          "type": "string",
          "example": "7123456789"
        },
        "dpid": {
          "description": "Unique 8-digit identifier allocated to each address maintained in Australia Post’s National Address File.",
          "type": "string",
          "example": "31176490"
        },
        "gnaf_pid": {
          "description": "Unique 14-character alphanumeric persistent identifier of the address record.\r\nAn additional \"mail_suppresion\" attribute will be returned if the address is\r\nsuppressed and should not be contacted.",
          "type": "string",
          "example": "GAVIC420630433"
        },
        "hin": {
          "description": "Unique Experian-assigned household identifier.",
          "type": "string",
          "example": "987654326"
        },
        "postcode": {
          "description": "The postal code or zip code of the address.",
          "type": "string",
          "example": "7140"
        },
        "global_address_key": {
          "description": "A unique Experian identifier.",
          "type": "string",
          "example": "aWQ9fDEgQXVkcmV5IFphcHAgRHJpdmV8SHVkc29ufEplcnNleSBDaXR5LCBOSiAwNzMwNX5mb3JtYXRJZD0xMjM0NX5RTD05fmdlbz0w"
        }
      }
    },
    "EnrichmentV2DatasetAttributes": {
      "description": "Datasets and their specific attributes.",
      "type": "object",
      "properties": {
        "AUS_CV_Person": {
          "description": "The dataset named Australia ConsumerView Person Data and its associated attributes.",
          "uniqueItems": false,
          "type": "array",
          "items": {
            "enum": [
              "pin",
              "gender",
              "hin",
              "linkage_postcode"
            ],
            "type": "string",
            "xml": {
              "name": "person_attribute"
            }
          },
          "xml": {
            "name": "aus_cv_person",
            "wrapped": true
          }
        },
        "AUS_CV_Household": {
          "description": "The dataset named Australia ConsumerView Household Data and its associated attributes.",
          "uniqueItems": false,
          "type": "array",
          "items": {
            "enum": [
              "hin",
              "address",
              "suburb",
              "postcode",
              "state",
              "residential_flag",
              "gnaf_pid",
              "gnaf_latitude",
              "gnaf_longitude",
              "meshblock",
              "sa1",
              "local_government_area_code",
              "local_government_area_name",
              "mosaic_group_2018",
              "mosaic_type_2018",
              "mosaic_segment_2018",
              "affluence_code",
              "affluence_description",
              "adults_at_address_code",
              "adults_at_address_description",
              "children_at_address_code_0_10_years",
              "children_at_address_description_0_10_years",
              "children_at_address_code_11_18_years",
              "children_at_address_description_11_18_years",
              "credit_demand_code",
              "credit_demand_description",
              "household_income_code",
              "household_income_description",
              "household_composition_code",
              "household_composition_description",
              "head_of_household_age_code",
              "head_of_household_age_description",
              "lifestage_code",
              "lifestage_description",
              "length_of_residence_code",
              "length_of_residence_description",
              "mosaic_factor1_score_2018",
              "mosaic_factor2_score_2018",
              "mosaic_factor3_score_2018",
              "mosaic_factor4_score_2018",
              "mosaic_factor5_score_2018",
              "mosaic_factor1_percentile_2018",
              "mosaic_factor2_percentile_2018",
              "mosaic_factor3_percentile_2018",
              "mosaic_factor4_percentile_2018",
              "mosaic_factor5_percentile_2018",
              "risk_insight_code",
              "risk_insight_description",
              "channel_preference",
              "channel_preference_description",
              "mosaic_group",
              "mosaic_type",
              "mosaic_segment",
              "mosaic_group_2015",
              "mosaic_type_2015",
              "mosaic_segment_2015"
            ],
            "type": "string",
            "xml": {
              "name": "household_attribute"
            }
          },
          "xml": {
            "name": "aus_cv_household",
            "wrapped": true
          }
        },
        "AUS_CV_Postcode": {
          "description": "The dataset named Australia ConsumerView Postcode Data and its associated attributes.",
          "uniqueItems": false,
          "type": "array",
          "items": {
            "enum": [
              "postcode",
              "adults_at_address_code",
              "adults_at_address_description",
              "affluence_code",
              "affluence_code_description",
              "children_at_address_code_0_10_years",
              "children_at_address_description_0_10_years",
              "children_at_address_code_11_18_years",
              "children_at_address_description_11_18_years",
              "credit_demand_code",
              "credit_demand_description",
              "head_of_household_age_code",
              "head_of_household_age_description",
              "household_income_code",
              "household_income_description",
              "length_of_residence_code",
              "length_of_residence_description",
              "lifestage_code",
              "lifestage_code_description",
              "mosaic_group_2018",
              "mosaic_type_2018",
              "household_composition_code",
              "household_composition_description",
              "risk_insight_code",
              "risk_insight_description",
              "mosaic_group",
              "mosaic_type",
              "mosaic_group_2015",
              "mosaic_type_2015"
            ],
            "type": "string",
            "xml": {
              "name": "postcode_attribute"
            }
          },
          "xml": {
            "name": "aus_cv_postcode",
            "wrapped": true
          }
        },
        "geocodes": {
          "description": "The dataset named Geocodes and its associated attributes.",
          "uniqueItems": false,
          "type": "array",
          "items": {
            "enum": [
              "latitude",
              "longitude",
              "match_level"
            ],
            "type": "string",
            "xml": {
              "name": "geocodes_attribute"
            }
          },
          "xml": {
            "name": "geocodes",
            "wrapped": true
          }
        },
        "gbr_regional_geocodes": {
          "description": "The dataset named GBR Regional Geocodes and its associated attributes.",
          "uniqueItems": false,
          "type": "array",
          "items": {
            "enum": [
              "latitude",
              "longitude",
              "match_level",
              "udprn",
              "uprn",
              "x_coordinate",
              "y_coordinate"
            ],
            "type": "string",
            "xml": {
              "name": "gbr_regional_geocodes_attribute"
            }
          },
          "xml": {
            "name": "gbr_regional_geocodes",
            "wrapped": true
          }
        },
        "usa_regional_geocodes": {
          "description": "The dataset named USA Regional Geocodes and its associated attributes.",
          "uniqueItems": false,
          "type": "array",
          "items": {
            "enum": [
              "latitude",
              "longitude",
              "match_level"
            ],
            "type": "string",
            "xml": {
              "name": "usa_regional_geocodes_attribute"
            }
          },
          "xml": {
            "name": "usa_regional_geocodes",
            "wrapped": true
          }
        },
        "aus_regional_geocodes": {
          "description": "The dataset named AUS Regional Geocodes and its associated attributes.",
          "uniqueItems": false,
          "type": "array",
          "items": {
            "enum": [
              "latitude",
              "longitude",
              "match_level",
              "sa1",
              "meshblock",
              "lga_code",
              "lga_name"
            ],
            "type": "string",
            "xml": {
              "name": "aus_regional_geocodes_attribute"
            }
          },
          "xml": {
            "name": "aus_regional_geocodes",
            "wrapped": true
          }
        },
        "uk_location_complete": {
          "description": "The dataset named UK Location Complete and its associated attributes.",
          "uniqueItems": false,
          "type": "array",
          "items": {
            "enum": [
              "latitude",
              "longitude",
              "match_level",
              "udprn",
              "uprn",
              "x_coordinate",
              "y_coordinate"
            ],
            "type": "string",
            "xml": {
              "name": "uk_location_complete_attribute"
            }
          },
          "xml": {
            "name": "uk_location_complete",
            "wrapped": true
          }
        },
        "uk_location_essential": {
          "description": "The dataset named UK Location Essential and its associated attributes.",
          "uniqueItems": false,
          "type": "array",
          "items": {
            "enum": [
              "latitude",
              "longitude",
              "match_level",
              "udprn",
              "uprn",
              "x_coordinate",
              "y_coordinate"
            ],
            "type": "string",
            "xml": {
              "name": "uk_location_essential_attribute"
            }
          },
          "xml": {
            "name": "uk_location_essential",
            "wrapped": true
          }
        }
      }
    },
    "EnrichmentV2Response": {
      "description": "The response model.",
      "type": "object",
      "properties": {
        "reference_id": {
          "description": "If you chose to submit a \"Reference-Id\" in the response body, the value will be returned with the response.",
          "type": "string"
        },
        "transaction_id": {
          "description": "Unique Experian-assigned transaction identifier.",
          "type": "string",
          "example": "ab123ab1-abc1-1234-abcd-ab1a123a1a12"
        },
        "error": {
          "$ref": "#/definitions/ResponseError",
          "description": "The error details."
        },
        "result": {
          "$ref": "#/definitions/EnrichmentV2Result",
          "description": "The results."
        },
        "metadata": {
          "$ref": "#/definitions/EnrichmentV2Metadata",
          "description": "Metadata containing additional dataset specific values where relevant."
        }
      },
      "xml": {
        "name": "response"
      }
    },
    "ResponseError": {
      "description": "Error model containing the error details.",
      "type": "object",
      "properties": {
        "type": {
          "description": "A link to documentation that provides more details about the error you’ve encountered.",
          "type": "string"
        },
        "title": {
          "description": "The title of the error.",
          "type": "string",
          "example": "Bad Request"
        },
        "detail": {
          "description": "A description of the error.",
          "type": "string",
          "example": "The request body was malformed."
        },
        "instance": {
          "description": "The endpoint that returned the error.",
          "type": "string"
        }
      }
    },
    "EnrichmentV2Result": {
      "description": "Details about the result. Includes the enriched data.",
      "type": "object",
      "properties": {
        "aus_cv_household": {
          "$ref": "#/definitions/EnrichmentV2DatasetAusCVHousehold",
          "description": "The dataset named Australia ConsumerView Household Data and its associated attributes."
        },
        "aus_cv_person": {
          "$ref": "#/definitions/EnrichmentV2DatasetAusCVPerson",
          "description": "The dataset named Australia ConsumerView Person Data and its associated attributes."
        },
        "aus_cv_postcode": {
          "$ref": "#/definitions/EnrichmentV2DatasetAusCVPostcode",
          "description": "The dataset named Australia ConsumerView Postcode Data and its associated attributes."
        },
        "geocodes": {
          "$ref": "#/definitions/EnrichmentV2DatasetGeocodes",
          "description": "The dataset named Geocodes and its associated attributes."
        },
        "gbr_regional_geocodes": {
          "$ref": "#/definitions/EnrichmentV2DatasetGbrRegionalGeocodes",
          "description": "The dataset named GBR Geocodes Enhanced and its associated attributes."
        },
        "usa_regional_geocodes": {
          "$ref": "#/definitions/EnrichmentV2DatasetUsaRegionalGeocodes",
          "description": "The dataset named USA Geocodes Enhanced and its associated attributes."
        },
        "aus_regional_geocodes": {
          "$ref": "#/definitions/EnrichmentV2DatasetAusRegionalGeocodes",
          "description": "The dataset named AUS Geocodes Enhanced and its associated attributes."
        },
        "uk_location_complete": {
          "$ref": "#/definitions/EnrichmentV2DatasetUkLocationComplete",
          "description": "The dataset named UK Location Complete and its associated attributes."
        },
        "uk_location_essential": {
          "$ref": "#/definitions/EnrichmentV2DatasetUkLocationEssential",
          "description": "The dataset named UK Location Essential and its associated attributes."
        }
      }
    },
    "EnrichmentV2Metadata": {
      "description": "The metadata model.",
      "type": "object",
      "properties": {
        "code": {
          "description": "Response-level metadata code.",
          "type": "string",
          "example": "S200"
        },
        "message": {
          "description": "Response-level metadata message.",
          "type": "string",
          "example": "Success"
        },
        "detail": {
          "description": "Response-level metadata detail.",
          "type": "string",
          "example": "All requested attribute(s) retrieved."
        },
        "datasets": {
          "$ref": "#/definitions/EnrichmentV2MetadataDatasets",
          "description": "The dataset name and related attributes."
        }
      }
    },
    "EnrichmentV2DatasetAusCVHousehold": {
      "description": "Enrichment attributes that can be returned, based on the Australian ConsumerView Household Data dataset.",
      "type": "object",
      "properties": {
        "hin": {
          "description": "Unique Experian-assigned household identifier.",
          "type": "string",
          "example": "987654326"
        },
        "address": {
          "description": "The full address. An additional mail_suppression attribute\r\n           will be returned if the address is suppressed and should not be contacted.",
          "type": "string",
          "example": "22 TOURMALINE DR"
        },
        "suburb": {
          "description": "The suburb where the address is located.",
          "type": "string",
          "example": "WEST WODONGA"
        },
        "postcode": {
          "description": "The postal code or zip code of the address.",
          "type": "string",
          "example": "7140"
        },
        "state": {
          "description": "The state where the address is located.",
          "type": "string",
          "example": "VIC"
        },
        "residential_flag": {
          "description": "Indicates whether the address is residential.",
          "type": "string",
          "example": "R"
        },
        "gnaf_pid": {
          "description": "Unique 14-character alphanumeric persistent identifier of the address record.\r\nAn additional \"mail_suppresion\" attribute will be returned if the address is\r\nsuppressed and should not be contacted.",
          "type": "string",
          "example": "GAVIC420630433"
        },
        "gnaf_latitude": {
          "format": "double",
          "description": "The latitude of the address.",
          "type": "number",
          "example": "-36.1243447"
        },
        "gnaf_longitude": {
          "format": "double",
          "description": "The longitude of the address.",
          "type": "number",
          "example": "146.86340866"
        },
        "meshblock": {
          "description": "Unique 11-digit identifier allocated to each Mesh Block.",
          "type": "string",
          "example": "20620060000"
        },
        "sa1": {
          "description": "The 7-digit SA1 code.",
          "type": "string",
          "example": "2107330"
        },
        "local_government_area_code": {
          "description": "The Local Government Area persistent identifier.",
          "type": "string",
          "example": "27170"
        },
        "local_government_area_name": {
          "description": "The Local Government Area name.",
          "type": "string",
          "example": "Wodonga (RC)"
        },
        "mosaic_group_2018": {
          "description": "Experian Mosaic group (2018). Alphabetic value. See the ConsumerView Fact Sheet for more details.",
          "type": "string",
          "example": "M"
        },
        "mosaic_type_2018": {
          "description": "Experian Mosaic type (2018). Alphanumeric value. See the ConsumerView Fact Sheet for more details.",
          "type": "string",
          "example": "M47"
        },
        "mosaic_segment_2018": {
          "description": "Experian Mosaic segment (2018). May contain letters, numbers and special characters.\r\nSee the ConsumerView Fact Sheet for more details.",
          "type": "string",
          "example": "M47_3"
        },
        "affluence_code": {
          "description": "A code which indicates the household level of wealth based\r\non household demographics, assets and investments.\r\nNumber 1-7 or null. See \"affluence_description\" for more information.",
          "type": "string",
          "example": "4"
        },
        "affluence_description": {
          "description": "Describes the household's level of wealth. See the ConsumerView Fact Sheet for more details.",
          "type": "string",
          "example": "Average income Average assets"
        },
        "adults_at_address_code": {
          "description": "A code which estimates the number of adults (people aged 18+) living in the household.\r\nNumber 1-10 or null. See \"adults_at_address_description\" for more information.",
          "type": "string",
          "example": "2"
        },
        "adults_at_address_description": {
          "description": "Describes the number of adults (people aged 18+) living in the household. See the ConsumerView Fact Sheet for more details.",
          "type": "string",
          "example": "Two adults"
        },
        "children_at_address_code_0_10_years": {
          "description": "A code which represents the likelihood of the presence of children aged 0-10 in the household.\r\nNumber 1-10 or null. See \"children_at_address_description_0_10_years\" for more information.",
          "type": "string",
          "example": "5"
        },
        "children_at_address_description_0_10_years": {
          "description": "Describes the likelihood of the presence of children aged 0-10 in the household. See the ConsumerView Fact Sheet for more details.",
          "type": "string",
          "example": "Average likelihood"
        },
        "children_at_address_code_11_18_years": {
          "description": "A code which represents the likelihood of the presence of children aged 11-18 in the household.\r\nNumber 1-10 or null. See \"children_at_address_description_11_18_years\" for more information.",
          "type": "string",
          "example": "7"
        },
        "children_at_address_description_11_18_years": {
          "description": "Describes the likelihood of the presence of children aged 11-18 in the household. See the ConsumerView Fact Sheet for more details.",
          "type": "string",
          "example": "Moderately high likelihood"
        },
        "credit_demand_code": {
          "description": "A code which indicates the demand for credit. Number 1-12 or null.\r\nSee \"credit_demand_description\" for more information.\r\nNote: for privacy reasons, credit data is aggregated at sub-Mesh Block level, rather than address level.",
          "type": "string",
          "example": "6"
        },
        "credit_demand_description": {
          "description": "Describes the demand for credit. See the ConsumerView Fact Sheet for more details.",
          "type": "string",
          "example": "Moderate Likelihood of Credit Demand (60-70%)"
        },
        "household_income_code": {
          "description": "A code which estimates the annual income of the household. Number 1-7 or null.\r\nSee \"household_income_description\" for more information.",
          "type": "string",
          "example": "2"
        },
        "household_income_description": {
          "description": "Describes the annual income of the household. See the ConsumerView Fact Sheet for more details.",
          "type": "string",
          "example": "$20,800 - $41,599"
        },
        "household_composition_code": {
          "description": "A code which indicates the composition of the household. Number 1-6 or null.\r\nSee \"household_composition_description\" for more information.",
          "type": "string",
          "example": "3"
        },
        "household_composition_description": {
          "description": "Describes the composition of the household. See the ConsumerView Fact Sheet for more details.",
          "type": "string",
          "example": "Couples"
        },
        "head_of_household_age_code": {
          "description": "A code which estimates the age category of the person likely to be the head of the household.\r\nNumber 1-15 or null. See \"head_of_household_age_description\" for more information.",
          "type": "string",
          "example": "15"
        },
        "head_of_household_age_description": {
          "description": "Describes the age category of the person likely to be the head of the household.\r\nSee the ConsumerView Fact Sheet for more details.",
          "type": "string",
          "example": "Age 85 and over"
        },
        "lifestage_code": {
          "description": "A code which indicates the life stage of the household's occupants.\r\nNumber 1-10 or null. See \"lifestage_description\" for more information.",
          "type": "string",
          "example": "9"
        },
        "lifestage_description": {
          "description": "Describes the life stage of the household's occupants. See the ConsumerView Fact Sheet for more details.",
          "type": "string",
          "example": "Elderly Couples"
        },
        "length_of_residence_code": {
          "description": "A code which estimates the length of time the occupants have been living in the household for.\r\nNumber 1-15 or null. See \"length_of_residence_description\" for more information.",
          "type": "string",
          "example": "15"
        },
        "length_of_residence_description": {
          "description": "Describes the length of time the occupants have been living in the household for. See the ConsumerView Fact Sheet for more details.",
          "type": "string",
          "example": "14+ yrs"
        },
        "mosaic_factor1_score_2018": {
          "description": "Experian Mosaic factor score for Family Composition. Number ranging from -40000 to 40000.",
          "type": "string",
          "example": "1012"
        },
        "mosaic_factor2_score_2018": {
          "description": "Experian Mosaic factor score for Prosperity. Number ranging from -40000 to 40000.",
          "type": "string",
          "example": "-13182"
        },
        "mosaic_factor3_score_2018": {
          "description": "Experian Mosaic factor score for Dependants. Number ranging from -40000 to 40000.",
          "type": "string",
          "example": "869"
        },
        "mosaic_factor4_score_2018": {
          "description": "Experian Mosaic factor score for Cultural Diversity. Number ranging from -40000 to 40000.",
          "type": "string",
          "example": "10913"
        },
        "mosaic_factor5_score_2018": {
          "description": "Experian Mosaic factor score for Housing Ownership. Number ranging from -40000 to 40000.",
          "type": "string",
          "example": "850"
        },
        "mosaic_factor1_percentile_2018": {
          "description": "Experian Mosaic factor percentile for Family Composition. Number ranging from 0 to 99.",
          "type": "string",
          "example": "51"
        },
        "mosaic_factor2_percentile_2018": {
          "description": "Experian Mosaic factor percentile for Prosperity. Number ranging from 0 to 99.",
          "type": "string",
          "example": "2"
        },
        "mosaic_factor3_percentile_2018": {
          "description": "Experian Mosaic factor percentile for Dependants. Number ranging from 0 to 99.",
          "type": "string",
          "example": "50"
        },
        "mosaic_factor4_percentile_2018": {
          "description": "Experian Mosaic factor percentile for Cultural Diversity. Number ranging from 0 to 99.",
          "type": "string",
          "example": "86"
        },
        "mosaic_factor5_percentile_2018": {
          "description": "Experian Mosaic factor percentile for Housing Ownership. Number ranging from 0 to 99.",
          "type": "string",
          "example": "39"
        },
        "risk_insight_code": {
          "description": "A code which indicates financial risk. Number 1-12 or 99.\r\nSee \"risk_insight_description\" for more information.\r\nNote: for privacy reasons, credit data is aggregated at sub-Mesh Block level, rather than address level.",
          "type": "string",
          "example": "1"
        },
        "risk_insight_description": {
          "description": "Describes the financial risk. See the ConsumerView Fact Sheet for more details.",
          "type": "string",
          "example": "Highest Likelihood of Credit Risk (top 5%)"
        },
        "channel_preference": {
          "description": "A code which indicates the household’s preferred form of media. Number 1-8 or null.\r\nSee \"channel_preference_description\" for more information.",
          "type": "string",
          "example": "8"
        },
        "channel_preference_description": {
          "description": "Describes the household's preferred form of media. See the ConsumerView Fact Sheet for more details.",
          "type": "string",
          "example": "Keeping it Local"
        },
        "mosaic_group": {
          "description": "Experian Mosaic group. Alphabetic value. This attribute mainly has backward compatibility purposes.\r\nPlease consider using the latest available Experian Mosaic attributes instead.",
          "type": "string",
          "example": "L"
        },
        "mosaic_type": {
          "description": "Experian Mosaic type. Alphanumeric value. This attribute mainly has backward compatibility purposes.\r\nPlease consider using the latest available Experian Mosaic attributes instead.",
          "type": "string",
          "example": "L46"
        },
        "mosaic_segment": {
          "description": "Experian Mosaic segment. May contain letters, numbers and special characters.\r\nThis attribute mainly has backward compatibility purposes.\r\nPlease consider using the latest available Experian Mosaic attributes instead.",
          "type": "string",
          "example": "L46_5"
        },
        "mosaic_group_2015": {
          "description": "Experian Mosaic group (2015). Alphabetic value. This attribute mainly has backward compatibility purposes.\r\nPlease consider using the latest available Experian Mosaic attributes instead.",
          "type": "string",
          "example": "L"
        },
        "mosaic_type_2015": {
          "description": "Experian Mosaic type (2015). Alphanumeric value. This attribute mainly has backward compatibility purposes.\r\nPlease consider using the latest available Experian Mosaic attributes instead.",
          "type": "string",
          "example": "L46"
        },
        "mosaic_segment_2015": {
          "description": "Experian Mosaic segment (2015). May contain letters, numbers and special characters.\r\nThis attribute mainly has backward compatibility purposes.\r\nPlease consider using the latest available Experian Mosaic attributes instead.",
          "type": "string",
          "example": "L46_5"
        },
        "mail_suppression": {
          "description": "Only returned if the address is suppressed and should not be contacted. Only possible value: \"Y\".",
          "type": "string",
          "example": "Y"
        }
      }
    },
    "EnrichmentV2DatasetAusCVPerson": {
      "description": "Enrichment attributes that can be returned, based on the Australian ConsumerView Person Data dataset.",
      "type": "object",
      "properties": {
        "pin": {
          "description": "Unique Experian-assigned person identifier.",
          "type": "string",
          "example": "100000047"
        },
        "gender": {
          "description": "The consumer's gender.",
          "type": "string",
          "example": "F"
        },
        "hin": {
          "description": "Unique Experian-assigned household identifier.",
          "type": "string",
          "example": "987654326"
        },
        "linkage_postcode": {
          "description": "The linkage postal code.",
          "type": "string"
        }
      }
    },
    "EnrichmentV2DatasetAusCVPostcode": {
      "description": "Enrichment attributes that can be returned, based on the Australian ConsumerView Postcode Data dataset.",
      "type": "object",
      "properties": {
        "postcode": {
          "description": "The postal code or zip code of the address.",
          "type": "string",
          "example": "7140"
        },
        "adults_at_address_code": {
          "description": "A code which estimates the number of adults (people aged 18+) living in the household.\r\nNumber 1-10 or null. See \"adults_at_address_description\" for more information.",
          "type": "string",
          "example": "2"
        },
        "adults_at_address_description": {
          "description": "Describes the number of adults (people aged 18+) living in the household. See the ConsumerView Fact Sheet for more details.",
          "type": "string",
          "example": "Two adults"
        },
        "affluence_code": {
          "description": "A code which indicates the household level of wealth based\r\non household demographics, assets and investments.\r\nNumber 1-7 or null. See \"affluence_description\" for more information.",
          "type": "string",
          "example": "4"
        },
        "affluence_code_description": {
          "description": "Describes the household's level of wealth. See the ConsumerView Fact Sheet for more details.",
          "type": "string",
          "example": "Average income Average assets"
        },
        "children_at_address_code_0_10_years": {
          "description": "A code which represents the likelihood of the presence of children aged 0-10 in the household.\r\nNumber 1-10 or null. See \"children_at_address_description_0_10_years\" for more information.",
          "type": "string",
          "example": "5"
        },
        "children_at_address_description_0_10_years": {
          "description": "Describes the likelihood of the presence of children aged 0-10 in the household. See the ConsumerView Fact Sheet for more details.",
          "type": "string",
          "example": "Average likelihood"
        },
        "children_at_address_code_11_18_years": {
          "description": "A code which represents the likelihood of the presence of children aged 11-18 in the household.\r\nNumber 1-10 or null. See \"children_at_address_description_11_18_years\" for more information.",
          "type": "string",
          "example": "7"
        },
        "children_at_address_description_11_18_years": {
          "description": "Describes the likelihood of the presence of children aged 11-18 in the household. See the ConsumerView Fact Sheet for more details.",
          "type": "string",
          "example": "Moderately high likelihood"
        },
        "credit_demand_code": {
          "description": "A code which indicates the demand for credit. Number 1-12 or null.\r\nSee \"credit_demand_description\" for more information.\r\nNote: for privacy reasons, credit data is aggregated at sub-Mesh Block level, rather than address level.",
          "type": "string",
          "example": "6"
        },
        "credit_demand_description": {
          "description": "Describes the demand for credit. See the ConsumerView Fact Sheet for more details.",
          "type": "string",
          "example": "Moderate Likelihood of Credit Demand (60-70%)"
        },
        "head_of_household_age_code": {
          "description": "A code which estimates the age category of the person likely to be the head of the household.\r\nNumber 1-15 or null. See \"head_of_household_age_description\" for more information.",
          "type": "string",
          "example": "15"
        },
        "head_of_household_age_description": {
          "description": "Describes the age category of the person likely to be the head of the household.\r\nSee the ConsumerView Fact Sheet for more details.",
          "type": "string",
          "example": "Age 85 and over"
        },
        "household_income_code": {
          "description": "A code which estimates the annual income of the household. Number 1-7 or null.\r\nSee \"household_income_description\" for more information.",
          "type": "string",
          "example": "2"
        },
        "household_income_description": {
          "description": "Describes the annual income of the household. See the ConsumerView Fact Sheet for more details.",
          "type": "string",
          "example": "$20,800 - $41,599"
        },
        "length_of_residence_code": {
          "description": "A code which estimates the length of time the occupants have been living in the household for.\r\nNumber 1-15 or null. See \"length_of_residence_description\" for more information.",
          "type": "string",
          "example": "15"
        },
        "length_of_residence_description": {
          "description": "Describes the length of time the occupants have been living in the household for. See the ConsumerView Fact Sheet for more details.",
          "type": "string",
          "example": "14+ yrs"
        },
        "lifestage_code": {
          "description": "A code which indicates the life stage of the household's occupants.\r\nNumber 1-10 or null. See \"lifestage_description\" for more information.",
          "type": "string",
          "example": "9"
        },
        "lifestage_code_description": {
          "description": "Describes the life stage of the household's occupants. See the ConsumerView Fact Sheet for more details.",
          "type": "string",
          "example": "Elderly Couples"
        },
        "mosaic_group_2018": {
          "description": "Experian Mosaic group (2018). Alphabetic value. See the ConsumerView Fact Sheet for more details.",
          "type": "string",
          "example": "M"
        },
        "mosaic_type_2018": {
          "description": "Experian Mosaic type (2018). Alphanumeric value. See the ConsumerView Fact Sheet for more details.",
          "type": "string",
          "example": "M47"
        },
        "household_composition_code": {
          "description": "A code which indicates the composition of the household. Number 1-6 or null.\r\nSee \"household_composition_description\" for more information.",
          "type": "string",
          "example": "3"
        },
        "household_composition_description": {
          "description": "Describes the composition of the household. See the ConsumerView Fact Sheet for more details.",
          "type": "string",
          "example": "Couples"
        },
        "risk_insight_code": {
          "description": "A code which indicates financial risk. Number 1-12 or 99.\r\nSee \"risk_insight_description\" for more information.\r\nNote: for privacy reasons, credit data is aggregated at sub-Mesh Block level, rather than address level.",
          "type": "string",
          "example": "1"
        },
        "risk_insight_description": {
          "description": "Describes the financial risk. See the ConsumerView Fact Sheet for more details.",
          "type": "string",
          "example": "Highest Likelihood of Credit Risk (top 5%)"
        },
        "mosaic_group": {
          "description": "Experian Mosaic group. Alphabetic value. This attribute mainly has backward compatibility purposes.\r\nPlease consider using the latest available Experian Mosaic attributes instead.",
          "type": "string",
          "example": "L"
        },
        "mosaic_type": {
          "description": "Experian Mosaic type. Alphanumeric value. This attribute mainly has backward compatibility purposes.\r\nPlease consider using the latest available Experian Mosaic attributes instead.",
          "type": "string",
          "example": "L46"
        },
        "mosaic_group_2015": {
          "description": "Experian Mosaic group (2015). Alphabetic value. This attribute mainly has backward compatibility purposes.\r\nPlease consider using the latest available Experian Mosaic attributes instead.",
          "type": "string",
          "example": "L"
        },
        "mosaic_type_2015": {
          "description": "Experian Mosaic type (2015). Alphanumeric value. This attribute mainly has backward compatibility purposes.\r\nPlease consider using the latest available Experian Mosaic attributes instead.",
          "type": "string",
          "example": "L46"
        }
      }
    },
    "EnrichmentV2DatasetGeocodes": {
      "description": "Enrichment attributes that can be returned, based on the Geocodes dataset.",
      "type": "object",
      "properties": {
        "latitude": {
          "format": "double",
          "description": "The latitude.",
          "type": "number",
          "example": "52.941300"
        },
        "longitude": {
          "format": "double",
          "description": "The longitude.",
          "type": "number",
          "example": "1.163120"
        },
        "match_level": {
          "description": "Specifies the accuracy of the coordinates for the specified address.",
          "type": "string",
          "example": "Premises"
        }
      }
    },
    "EnrichmentV2DatasetGbrRegionalGeocodes": {
      "description": "Enrichment attributes that can be returned, based on the GBR Regional Geocodes dataset.",
      "type": "object",
      "properties": {
        "latitude": {
          "format": "double",
          "description": "The latitude.",
          "type": "number",
          "example": "51.5014256"
        },
        "longitude": {
          "format": "double",
          "description": "The longitude.",
          "type": "number",
          "example": "-0.104257"
        },
        "match_level": {
          "description": "Specifies the accuracy of the coordinates for the specified address.",
          "type": "string",
          "example": "Building"
        },
        "udprn": {
          "description": "The udprn.",
          "type": "string",
          "example": "55244256"
        },
        "uprn": {
          "description": "The uprn.",
          "type": "string",
          "example": "010091977422"
        },
        "x_coordinate": {
          "format": "double",
          "description": "The X coordinate.",
          "type": "number",
          "example": "531677.95"
        },
        "y_coordinate": {
          "format": "double",
          "description": "The Y coordinate.",
          "type": "number",
          "example": "179757.59"
        }
      }
    },
    "EnrichmentV2DatasetUsaRegionalGeocodes": {
      "description": "Enrichment attributes that can be returned, based on the USA Regional Geocodes dataset.",
      "type": "object",
      "properties": {
        "latitude": {
          "format": "double",
          "description": "The latitude.",
          "type": "number",
          "example": "33.693284"
        },
        "longitude": {
          "format": "double",
          "description": "The longitude.",
          "type": "number",
          "example": "-117.874283"
        },
        "match_level": {
          "description": "Specifies the accuracy of the coordinates for the specified address.",
          "type": "string",
          "example": "Street"
        }
      }
    },
    "EnrichmentV2DatasetAusRegionalGeocodes": {
      "description": "Enrichment attributes that can be returned, based on the AUS Regional Geocodes dataset.",
      "type": "object",
      "properties": {
        "latitude": {
          "format": "double",
          "description": "The latitude.",
          "type": "number",
          "example": "-37.90471923"
        },
        "longitude": {
          "format": "double",
          "description": "The longitude.",
          "type": "number",
          "example": "144.99818990"
        },
        "match_level": {
          "description": "Specifies the accuracy of the coordinates for the specified address.",
          "type": "string",
          "example": "Building"
        },
        "sa1": {
          "description": "The SA1.",
          "type": "string",
          "example": "2116938"
        },
        "meshblock": {
          "description": "The meshblock.",
          "type": "string",
          "example": "20045090000"
        },
        "lga_code": {
          "description": "The LGA code.",
          "type": "string",
          "example": "20910"
        },
        "lga_name": {
          "description": "The LGA name.",
          "type": "string",
          "example": "Bayside (C)"
        }
      }
    },
    "EnrichmentV2DatasetUkLocationComplete": {
      "description": "Enrichment attributes that can be returned, based on the UK Location Complete dataset.",
      "type": "object",
      "properties": {
        "latitude": {
          "format": "double",
          "description": "The latitude.",
          "type": "number",
          "example": "51.5011234"
        },
        "longitude": {
          "format": "double",
          "description": "The longitude.",
          "type": "number",
          "example": "-0.1041234"
        },
        "match_level": {
          "description": "Specifies the accuracy of the coordinates for the specified address.",
          "type": "string",
          "example": "Building"
        },
        "udprn": {
          "description": "Specifies the UDPRN for the specified address.",
          "type": "string",
          "example": "55244256"
        },
        "uprn": {
          "description": "Specifies the UPRN for the specified address.",
          "type": "string",
          "example": "010091977422"
        },
        "x_coordinate": {
          "format": "double",
          "description": "The x coordinate.",
          "type": "number",
          "example": "531677.95"
        },
        "y_coordinate": {
          "format": "double",
          "description": "The y coordinate.",
          "type": "number",
          "example": "179757.59"
        }
      }
    },
    "EnrichmentV2DatasetUkLocationEssential": {
      "description": "Enrichment attributes that can be returned, based on the UK Location Essential dataset.",
      "type": "object",
      "properties": {
        "latitude": {
          "format": "double",
          "description": "The latitude.",
          "type": "number",
          "example": "51.5011234"
        },
        "longitude": {
          "format": "double",
          "description": "The longitude.",
          "type": "number",
          "example": "-0.1041234"
        },
        "match_level": {
          "description": "Specifies the accuracy of the coordinates for the specified address.",
          "type": "string",
          "example": "Building"
        },
        "udprn": {
          "description": "The UDPRN.",
          "type": "string",
          "example": "55244256"
        },
        "uprn": {
          "description": "The UPRN.",
          "type": "string",
          "example": "010091977422"
        },
        "x_coordinate": {
          "format": "double",
          "description": "The x coordinate.",
          "type": "number",
          "example": "531677.95"
        },
        "y_coordinate": {
          "format": "double",
          "description": "The y coordinate.",
          "type": "number",
          "example": "179757.59"
        }
      }
    },
    "EnrichmentV2MetadataDatasets": {
      "description": "The dataset name and related attributes.",
      "type": "object",
      "properties": {
        "aus_cv_household": {
          "$ref": "#/definitions/EnrichmentV2AusCVHouseholdMetadata",
          "description": "The dataset named Australia ConsumerView Household Data and its associated attributes."
        },
        "aus_cv_person": {
          "$ref": "#/definitions/EnrichmentV2AusCVPersonMetadata",
          "description": "The dataset named Australia ConsumerView Person Data and its associated attributes."
        },
        "aus_cv_postcode": {
          "$ref": "#/definitions/EnrichmentV2AusCVPostcodeMetadata",
          "description": "The dataset named Australia ConsumerView Postcode Data and its associated attributes."
        },
        "geocodes": {
          "$ref": "#/definitions/EnrichmentV2GeocodesMetadata",
          "description": "The dataset named Geocodes and its associated attributes."
        },
        "gbr_regional_geocodes": {
          "$ref": "#/definitions/EnrichmentV2GbrRegionalGeocodesMetadata",
          "description": "The dataset named GBR Regional Geocodes and its associated attributes."
        },
        "usa_regional_geocodes": {
          "$ref": "#/definitions/EnrichmentV2UsaRegionalGeocodesMetadata",
          "description": "The dataset named USA Regional Geocodes and its associated attributes."
        },
        "aus_regional_geocodes": {
          "$ref": "#/definitions/EnrichmentV2AusRegionalGeocodesMetadata",
          "description": "The dataset named AUS Regional Geocodes and its associated attributes."
        },
        "uk_location_complete": {
          "$ref": "#/definitions/EnrichmentV2UkLocationCompleteMetadata",
          "description": "The dataset named UK Location Complete and its associated attributes."
        },
        "uk_location_essential": {
          "$ref": "#/definitions/EnrichmentV2UkLocationEssentialMetadata",
          "description": "The dataset named UK Location Essential and its associated attributes."
        }
      }
    },
    "EnrichmentV2AusCVHouseholdMetadata": {
      "description": "Attribute-level metadata for the Australian ConsumerView Household Data dataset.",
      "type": "object",
      "properties": {
        "hin": {
          "$ref": "#/definitions/DatasetMetadata",
          "description": "Unique Experian-assigned household identifier.",
          "example": "987654326"
        },
        "address": {
          "$ref": "#/definitions/DatasetMetadata",
          "description": "The full address. An additional mail_suppression attribute\r\n           will be returned if the address is suppressed and should not be contacted.",
          "example": "22 TOURMALINE DR"
        },
        "suburb": {
          "$ref": "#/definitions/DatasetMetadata",
          "description": "The suburb where the address is located.",
          "example": "WEST WODONGA"
        },
        "postcode": {
          "$ref": "#/definitions/DatasetMetadata",
          "description": "The postal code or zip code of the address.",
          "example": "7140"
        },
        "state": {
          "$ref": "#/definitions/DatasetMetadata",
          "description": "The state where the address is located.",
          "example": "VIC"
        },
        "residential_flag": {
          "$ref": "#/definitions/DatasetMetadata",
          "description": "Indicates whether the address is residential.",
          "example": "R"
        },
        "gnaf_pid": {
          "$ref": "#/definitions/DatasetMetadata",
          "description": "Unique 14-character alphanumeric persistent identifier of the address record.\r\nAn additional \"mail_suppresion\" attribute will be returned if the address is\r\nsuppressed and should not be contacted.",
          "example": "GAVIC420630433"
        },
        "gnaf_latitude": {
          "$ref": "#/definitions/DatasetMetadata",
          "description": "The latitude of the address.",
          "example": "-36.1243447"
        },
        "gnaf_longitude": {
          "$ref": "#/definitions/DatasetMetadata",
          "description": "The longitude of the address.",
          "example": "146.86340866"
        },
        "meshblock": {
          "$ref": "#/definitions/DatasetMetadata",
          "description": "Unique 11-digit identifier allocated to each Mesh Block.",
          "example": "20620060000"
        },
        "sa1": {
          "$ref": "#/definitions/DatasetMetadata",
          "description": "The 7-digit SA1 code.",
          "example": "2107330"
        },
        "local_government_area_code": {
          "$ref": "#/definitions/DatasetMetadata",
          "description": "The Local Government Area persistent identifier.",
          "example": "27170"
        },
        "local_government_area_name": {
          "$ref": "#/definitions/DatasetMetadata",
          "description": "The Local Government Area name.",
          "example": "Wodonga (RC)"
        },
        "mosaic_group_2018": {
          "$ref": "#/definitions/DatasetMetadata",
          "description": "Experian Mosaic group (2018). Alphabetic value. See the ConsumerView Fact Sheet for more details.",
          "example": "M"
        },
        "mosaic_type_2018": {
          "$ref": "#/definitions/DatasetMetadata",
          "description": "Experian Mosaic type (2018). Alphanumeric value. See the ConsumerView Fact Sheet for more details.",
          "example": "M47"
        },
        "mosaic_segment_2018": {
          "$ref": "#/definitions/DatasetMetadata",
          "description": "Experian Mosaic segment (2018). May contain letters, numbers and special characters.\r\nSee the ConsumerView Fact Sheet for more details.",
          "example": "M47_3"
        },
        "affluence_code": {
          "$ref": "#/definitions/DatasetMetadata",
          "description": "A code which indicates the household level of wealth based\r\non household demographics, assets and investments.\r\nNumber 1-7 or null. See \"affluence_description\" for more information.",
          "example": "4"
        },
        "affluence_description": {
          "$ref": "#/definitions/DatasetMetadata",
          "description": "Describes the household's level of wealth. See the ConsumerView Fact Sheet for more details.",
          "example": "Average income Average assets"
        },
        "adults_at_address_code": {
          "$ref": "#/definitions/DatasetMetadata",
          "description": "A code which estimates the number of adults (people aged 18+) living in the household.\r\nNumber 1-10 or null. See \"adults_at_address_description\" for more information.",
          "example": "2"
        },
        "adults_at_address_description": {
          "$ref": "#/definitions/DatasetMetadata",
          "description": "Describes the number of adults (people aged 18+) living in the household. See the ConsumerView Fact Sheet for more details.",
          "example": "Two adults"
        },
        "children_at_address_code_0_10_years": {
          "$ref": "#/definitions/DatasetMetadata",
          "description": "A code which represents the likelihood of the presence of children aged 0-10 in the household.\r\nNumber 1-10 or null. See \"children_at_address_description_0_10_years\" for more information.",
          "example": "5"
        },
        "children_at_address_description_0_10_years": {
          "$ref": "#/definitions/DatasetMetadata",
          "description": "Describes the likelihood of the presence of children aged 0-10 in the household. See the ConsumerView Fact Sheet for more details.",
          "example": "Average likelihood"
        },
        "children_at_address_code_11_18_years": {
          "$ref": "#/definitions/DatasetMetadata",
          "description": "A code which represents the likelihood of the presence of children aged 11-18 in the household.\r\nNumber 1-10 or null. See \"children_at_address_description_11_18_years\" for more information.",
          "example": "7"
        },
        "children_at_address_description_11_18_years": {
          "$ref": "#/definitions/DatasetMetadata",
          "description": "Describes the likelihood of the presence of children aged 11-18 in the household. See the ConsumerView Fact Sheet for more details.",
          "example": "Moderately high likelihood"
        },
        "credit_demand_code": {
          "$ref": "#/definitions/DatasetMetadata",
          "description": "A code which indicates the demand for credit. Number 1-12 or null.\r\nSee \"credit_demand_description\" for more information.\r\nNote: for privacy reasons, credit data is aggregated at sub-Mesh Block level, rather than address level.",
          "example": "6"
        },
        "credit_demand_description": {
          "$ref": "#/definitions/DatasetMetadata",
          "description": "Describes the demand for credit. See the ConsumerView Fact Sheet for more details.",
          "example": "Moderate Likelihood of Credit Demand (60-70%)"
        },
        "household_income_code": {
          "$ref": "#/definitions/DatasetMetadata",
          "description": "A code which estimates the annual income of the household. Number 1-7 or null.\r\nSee \"household_income_description\" for more information.",
          "example": "2"
        },
        "household_income_description": {
          "$ref": "#/definitions/DatasetMetadata",
          "description": "Describes the annual income of the household. See the ConsumerView Fact Sheet for more details.",
          "example": "$20,800 - $41,599"
        },
        "household_composition_code": {
          "$ref": "#/definitions/DatasetMetadata",
          "description": "A code which indicates the composition of the household. Number 1-6 or null.\r\nSee \"household_composition_description\" for more information.",
          "example": "3"
        },
        "household_composition_description": {
          "$ref": "#/definitions/DatasetMetadata",
          "description": "Describes the composition of the household. See the ConsumerView Fact Sheet for more details.",
          "example": "Couples"
        },
        "head_of_household_age_code": {
          "$ref": "#/definitions/DatasetMetadata",
          "description": "A code which estimates the age category of the person likely to be the head of the household.\r\nNumber 1-15 or null. See \"head_of_household_age_description\" for more information.",
          "example": "15"
        },
        "head_of_household_age_description": {
          "$ref": "#/definitions/DatasetMetadata",
          "description": "Describes the age category of the person likely to be the head of the household.\r\nSee the ConsumerView Fact Sheet for more details.",
          "example": "Age 85 and over"
        },
        "lifestage_code": {
          "$ref": "#/definitions/DatasetMetadata",
          "description": "A code which indicates the life stage of the household's occupants.\r\nNumber 1-10 or null. See \"lifestage_description\" for more information.",
          "example": "9"
        },
        "lifestage_description": {
          "$ref": "#/definitions/DatasetMetadata",
          "description": "Describes the life stage of the household's occupants. See the ConsumerView Fact Sheet for more details.",
          "example": "Elderly Couples"
        },
        "length_of_residence_code": {
          "$ref": "#/definitions/DatasetMetadata",
          "description": "A code which estimates the length of time the occupants have been living in the household for.\r\nNumber 1-15 or null. See \"length_of_residence_description\" for more information.",
          "example": "15"
        },
        "length_of_residence_description": {
          "$ref": "#/definitions/DatasetMetadata",
          "description": "Describes the length of time the occupants have been living in the household for. See the ConsumerView Fact Sheet for more details.",
          "example": "14+ yrs"
        },
        "mosaic_factor1_score_2018": {
          "$ref": "#/definitions/DatasetMetadata",
          "description": "Experian Mosaic factor score for Family Composition. Number ranging from -40000 to 40000.",
          "example": "1012"
        },
        "mosaic_factor2_score_2018": {
          "$ref": "#/definitions/DatasetMetadata",
          "description": "Experian Mosaic factor score for Prosperity. Number ranging from -40000 to 40000.",
          "example": "-13182"
        },
        "mosaic_factor3_score_2018": {
          "$ref": "#/definitions/DatasetMetadata",
          "description": "Experian Mosaic factor score for Dependants. Number ranging from -40000 to 40000.",
          "example": "869"
        },
        "mosaic_factor4_score_2018": {
          "$ref": "#/definitions/DatasetMetadata",
          "description": "Experian Mosaic factor score for Cultural Diversity. Number ranging from -40000 to 40000.",
          "example": "10913"
        },
        "mosaic_factor5_score_2018": {
          "$ref": "#/definitions/DatasetMetadata",
          "description": "Experian Mosaic factor score for Housing Ownership. Number ranging from -40000 to 40000.",
          "example": "850"
        },
        "mosaic_factor1_percentile_2018": {
          "$ref": "#/definitions/DatasetMetadata",
          "description": "Experian Mosaic factor percentile for Family Composition. Number ranging from 0 to 99.",
          "example": "51"
        },
        "mosaic_factor2_percentile_2018": {
          "$ref": "#/definitions/DatasetMetadata",
          "description": "Experian Mosaic factor percentile for Prosperity. Number ranging from 0 to 99.",
          "example": "2"
        },
        "mosaic_factor3_percentile_2018": {
          "$ref": "#/definitions/DatasetMetadata",
          "description": "Experian Mosaic factor percentile for Dependants. Number ranging from 0 to 99.",
          "example": "50"
        },
        "mosaic_factor4_percentile_2018": {
          "$ref": "#/definitions/DatasetMetadata",
          "description": "Experian Mosaic factor percentile for Cultural Diversity. Number ranging from 0 to 99.",
          "example": "86"
        },
        "mosaic_factor5_percentile_2018": {
          "$ref": "#/definitions/DatasetMetadata",
          "description": "Experian Mosaic factor percentile for Housing Ownership. Number ranging from 0 to 99.",
          "example": "39"
        },
        "risk_insight_code": {
          "$ref": "#/definitions/DatasetMetadata",
          "description": "A code which indicates financial risk. Number 1-12 or 99.\r\nSee \"risk_insight_description\" for more information.\r\nNote: for privacy reasons, credit data is aggregated at sub-Mesh Block level, rather than address level.",
          "example": "1"
        },
        "risk_insight_description": {
          "$ref": "#/definitions/DatasetMetadata",
          "description": "Describes the financial risk. See the ConsumerView Fact Sheet for more details.",
          "example": "Highest Likelihood of Credit Risk (top 5%)"
        },
        "channel_preference": {
          "$ref": "#/definitions/DatasetMetadata",
          "description": "A code which indicates the household’s preferred form of media. Number 1-8 or null.\r\nSee \"channel_preference_description\" for more information.",
          "example": "8"
        },
        "channel_preference_description": {
          "$ref": "#/definitions/DatasetMetadata",
          "description": "Describes the household's preferred form of media. See the ConsumerView Fact Sheet for more details.",
          "example": "Keeping it Local"
        },
        "mosaic_group": {
          "$ref": "#/definitions/DatasetMetadata",
          "description": "Experian Mosaic group. Alphabetic value. This attribute mainly has backward compatibility purposes.\r\nPlease consider using the latest available Experian Mosaic attributes instead.",
          "example": "L"
        },
        "mosaic_type": {
          "$ref": "#/definitions/DatasetMetadata",
          "description": "Experian Mosaic type. Alphanumeric value. This attribute mainly has backward compatibility purposes.\r\nPlease consider using the latest available Experian Mosaic attributes instead.",
          "example": "L46"
        },
        "mosaic_segment": {
          "$ref": "#/definitions/DatasetMetadata",
          "description": "Experian Mosaic segment. May contain letters, numbers and special characters.\r\nThis attribute mainly has backward compatibility purposes.\r\nPlease consider using the latest available Experian Mosaic attributes instead.",
          "example": "L46_5"
        },
        "mosaic_group_2015": {
          "$ref": "#/definitions/DatasetMetadata",
          "description": "Experian Mosaic group (2015). Alphabetic value. This attribute mainly has backward compatibility purposes.\r\nPlease consider using the latest available Experian Mosaic attributes instead.",
          "example": "L"
        },
        "mosaic_type_2015": {
          "$ref": "#/definitions/DatasetMetadata",
          "description": "Experian Mosaic type (2015). Alphanumeric value. This attribute mainly has backward compatibility purposes.\r\nPlease consider using the latest available Experian Mosaic attributes instead.",
          "example": "L46"
        },
        "mosaic_segment_2015": {
          "$ref": "#/definitions/DatasetMetadata",
          "description": "Experian Mosaic segment (2015). May contain letters, numbers and special characters.\r\nThis attribute mainly has backward compatibility purposes.\r\nPlease consider using the latest available Experian Mosaic attributes instead.",
          "example": "L46_5"
        },
        "mail_suppression": {
          "$ref": "#/definitions/DatasetMetadata",
          "description": "Only returned if the address is suppressed and should not be contacted. Only possible value: \"Y\".",
          "example": "Y"
        }
      }
    },
    "EnrichmentV2AusCVPersonMetadata": {
      "description": "Attribute-level metadata for the Australian ConsumerView Person Data dataset.",
      "type": "object",
      "properties": {
        "pin": {
          "$ref": "#/definitions/DatasetMetadata",
          "description": "Unique Experian-assigned person identifier.",
          "example": "100000047"
        },
        "gender": {
          "$ref": "#/definitions/DatasetMetadata",
          "description": "The consumer's gender.",
          "example": "F"
        },
        "hin": {
          "$ref": "#/definitions/DatasetMetadata",
          "description": "Unique Experian-assigned household identifier.",
          "example": "987654326"
        },
        "linkage_postcode": {
          "$ref": "#/definitions/DatasetMetadata",
          "description": "The linkage postal code."
        }
      }
    },
    "EnrichmentV2AusCVPostcodeMetadata": {
      "description": "Attribute-level metadata for the Australian ConsumerView Postcode Data dataset.",
      "type": "object",
      "properties": {
        "postcode": {
          "$ref": "#/definitions/DatasetMetadata",
          "description": "The postal code or zip code of the address.",
          "example": "7140"
        },
        "adults_at_address_code": {
          "$ref": "#/definitions/DatasetMetadata",
          "description": "A code which estimates the number of adults (people aged 18+) living in the household.\r\nNumber 1-10 or null. See \"adults_at_address_description\" for more information.",
          "example": "2"
        },
        "adults_at_address_description": {
          "$ref": "#/definitions/DatasetMetadata",
          "description": "Describes the number of adults (people aged 18+) living in the household. See the ConsumerView Fact Sheet for more details.",
          "example": "Two adults"
        },
        "affluence_code": {
          "$ref": "#/definitions/DatasetMetadata",
          "description": "A code which indicates the household level of wealth based\r\non household demographics, assets and investments.\r\nNumber 1-7 or null. See \"affluence_description\" for more information.",
          "example": "4"
        },
        "affluence_code_description": {
          "$ref": "#/definitions/DatasetMetadata",
          "description": "Describes the household's level of wealth. See the ConsumerView Fact Sheet for more details.",
          "example": "Average income Average assets"
        },
        "children_at_address_code_0_10_years": {
          "$ref": "#/definitions/DatasetMetadata",
          "description": "A code which represents the likelihood of the presence of children aged 0-10 in the household.\r\nNumber 1-10 or null. See \"children_at_address_description_0_10_years\" for more information.",
          "example": "5"
        },
        "children_at_address_description_0_10_years": {
          "$ref": "#/definitions/DatasetMetadata",
          "description": "Describes the likelihood of the presence of children aged 0-10 in the household. See the ConsumerView Fact Sheet for more details.",
          "example": "Average likelihood"
        },
        "children_at_address_code_11_18_years": {
          "$ref": "#/definitions/DatasetMetadata",
          "description": "A code which represents the likelihood of the presence of children aged 11-18 in the household.\r\nNumber 1-10 or null. See \"children_at_address_description_11_18_years\" for more information.",
          "example": "7"
        },
        "children_at_address_description_11_18_years": {
          "$ref": "#/definitions/DatasetMetadata",
          "description": "Describes the likelihood of the presence of children aged 11-18 in the household. See the ConsumerView Fact Sheet for more details.",
          "example": "Moderately high likelihood"
        },
        "credit_demand_code": {
          "$ref": "#/definitions/DatasetMetadata",
          "description": "A code which indicates the demand for credit. Number 1-12 or null.\r\nSee \"credit_demand_description\" for more information.\r\nNote: for privacy reasons, credit data is aggregated at sub-Mesh Block level, rather than address level.",
          "example": "6"
        },
        "credit_demand_description": {
          "$ref": "#/definitions/DatasetMetadata",
          "description": "Describes the demand for credit. See the ConsumerView Fact Sheet for more details.",
          "example": "Moderate Likelihood of Credit Demand (60-70%)"
        },
        "head_of_household_age_code": {
          "$ref": "#/definitions/DatasetMetadata",
          "description": "A code which estimates the age category of the person likely to be the head of the household.\r\nNumber 1-15 or null. See \"head_of_household_age_description\" for more information.",
          "example": "15"
        },
        "head_of_household_age_description": {
          "$ref": "#/definitions/DatasetMetadata",
          "description": "Describes the age category of the person likely to be the head of the household.\r\nSee the ConsumerView Fact Sheet for more details.",
          "example": "Age 85 and over"
        },
        "household_income_code": {
          "$ref": "#/definitions/DatasetMetadata",
          "description": "A code which estimates the annual income of the household. Number 1-7 or null.\r\nSee \"household_income_description\" for more information.",
          "example": "2"
        },
        "household_income_description": {
          "$ref": "#/definitions/DatasetMetadata",
          "description": "Describes the annual income of the household. See the ConsumerView Fact Sheet for more details.",
          "example": "$20,800 - $41,599"
        },
        "length_of_residence_code": {
          "$ref": "#/definitions/DatasetMetadata",
          "description": "A code which estimates the length of time the occupants have been living in the household for.\r\nNumber 1-15 or null. See \"length_of_residence_description\" for more information.",
          "example": "15"
        },
        "length_of_residence_description": {
          "$ref": "#/definitions/DatasetMetadata",
          "description": "Describes the length of time the occupants have been living in the household for. See the ConsumerView Fact Sheet for more details.",
          "example": "14+ yrs"
        },
        "lifestage_code": {
          "$ref": "#/definitions/DatasetMetadata",
          "description": "A code which indicates the life stage of the household's occupants.\r\nNumber 1-10 or null. See \"lifestage_description\" for more information.",
          "example": "9"
        },
        "lifestage_code_description": {
          "$ref": "#/definitions/DatasetMetadata",
          "description": "Describes the life stage of the household's occupants. See the ConsumerView Fact Sheet for more details.",
          "example": "Elderly Couples"
        },
        "mosaic_group_2018": {
          "$ref": "#/definitions/DatasetMetadata",
          "description": "Experian Mosaic group (2018). Alphabetic value. See the ConsumerView Fact Sheet for more details.",
          "example": "M"
        },
        "mosaic_type_2018": {
          "$ref": "#/definitions/DatasetMetadata",
          "description": "Experian Mosaic type (2018). Alphanumeric value. See the ConsumerView Fact Sheet for more details.",
          "example": "M47"
        },
        "household_composition_code": {
          "$ref": "#/definitions/DatasetMetadata",
          "description": "A code which indicates the composition of the household. Number 1-6 or null.\r\nSee \"household_composition_description\" for more information.",
          "example": "3"
        },
        "household_composition_description": {
          "$ref": "#/definitions/DatasetMetadata",
          "description": "Describes the composition of the household. See the ConsumerView Fact Sheet for more details.",
          "example": "Couples"
        },
        "risk_insight_code": {
          "$ref": "#/definitions/DatasetMetadata",
          "description": "A code which indicates financial risk. Number 1-12 or 99.\r\nSee \"risk_insight_description\" for more information.\r\nNote: for privacy reasons, credit data is aggregated at sub-Mesh Block level, rather than address level.",
          "example": "1"
        },
        "risk_insight_description": {
          "$ref": "#/definitions/DatasetMetadata",
          "description": "Describes the financial risk. See the ConsumerView Fact Sheet for more details.",
          "example": "Highest Likelihood of Credit Risk (top 5%)"
        },
        "mosaic_group": {
          "$ref": "#/definitions/DatasetMetadata",
          "description": "Experian Mosaic group. Alphabetic value. This attribute mainly has backward compatibility purposes.\r\nPlease consider using the latest available Experian Mosaic attributes instead.",
          "example": "L"
        },
        "mosaic_type": {
          "$ref": "#/definitions/DatasetMetadata",
          "description": "Experian Mosaic type. Alphanumeric value. This attribute mainly has backward compatibility purposes.\r\nPlease consider using the latest available Experian Mosaic attributes instead.",
          "example": "L46"
        },
        "mosaic_group_2015": {
          "$ref": "#/definitions/DatasetMetadata",
          "description": "Experian Mosaic group (2015). Alphabetic value. This attribute mainly has backward compatibility purposes.\r\nPlease consider using the latest available Experian Mosaic attributes instead.",
          "example": "L"
        },
        "mosaic_type_2015": {
          "$ref": "#/definitions/DatasetMetadata",
          "description": "Experian Mosaic type (2015). Alphanumeric value. This attribute mainly has backward compatibility purposes.\r\nPlease consider using the latest available Experian Mosaic attributes instead.",
          "example": "L46"
        }
      }
    },
    "EnrichmentV2GeocodesMetadata": {
      "description": "Attribute-level metadata for the Geocodes dataset.",
      "type": "object",
      "properties": {
        "latitude": {
          "$ref": "#/definitions/DatasetMetadata",
          "description": "The latitude.",
          "example": "52.941300"
        },
        "longitude": {
          "$ref": "#/definitions/DatasetMetadata",
          "description": "The longitude.",
          "example": "-1.163120"
        },
        "match_level": {
          "$ref": "#/definitions/DatasetMetadata",
          "description": "Specifies the accuracy of the coordinates for the specified address.",
          "example": "Premises"
        }
      }
    },
    "EnrichmentV2GbrRegionalGeocodesMetadata": {
      "description": "Attribute-level metadata for the GBR Regional Geocodes dataset.",
      "type": "object",
      "properties": {
        "latitude": {
          "$ref": "#/definitions/DatasetMetadata",
          "description": "The latitude.",
          "example": "52.941300"
        },
        "longitude": {
          "$ref": "#/definitions/DatasetMetadata",
          "description": "The longitude.",
          "example": "-1.163120"
        },
        "match_level": {
          "$ref": "#/definitions/DatasetMetadata",
          "description": "Specifies the accuracy of the coordinates for the specified address.",
          "example": "Premises"
        },
        "udprn": {
          "$ref": "#/definitions/DatasetMetadata",
          "description": "The udprn.",
          "example": "55244256"
        },
        "uprn": {
          "$ref": "#/definitions/DatasetMetadata",
          "description": "The uprn.",
          "example": "010091977422"
        },
        "x_coordinate": {
          "$ref": "#/definitions/DatasetMetadata",
          "description": "The X coordinate.",
          "example": "531677.95"
        },
        "y_coordinate": {
          "$ref": "#/definitions/DatasetMetadata",
          "description": "The Y coordinate.",
          "example": "179757.59"
        }
      }
    },
    "EnrichmentV2UsaRegionalGeocodesMetadata": {
      "description": "Attribute-level metadata for the USA Regional Geocodes dataset.",
      "type": "object",
      "properties": {
        "latitude": {
          "$ref": "#/definitions/DatasetMetadata",
          "description": "The latitude.",
          "example": "52.941300"
        },
        "longitude": {
          "$ref": "#/definitions/DatasetMetadata",
          "description": "The longitude.",
          "example": "-1.163120"
        },
        "match_level": {
          "$ref": "#/definitions/DatasetMetadata",
          "description": "Specifies the accuracy of the coordinates for the specified address.",
          "example": "Premises"
        }
      }
    },
    "EnrichmentV2AusRegionalGeocodesMetadata": {
      "description": "Attribute-level metadata for the AUS Regional Geocodes dataset.",
      "type": "object",
      "properties": {
        "latitude": {
          "$ref": "#/definitions/DatasetMetadata",
          "description": "The latitude.",
          "example": "-37.90471923"
        },
        "longitude": {
          "$ref": "#/definitions/DatasetMetadata",
          "description": "The longitude.",
          "example": "144.99818990"
        },
        "match_level": {
          "$ref": "#/definitions/DatasetMetadata",
          "description": "Specifies the accuracy of the coordinates for the specified address.",
          "example": "Building"
        },
        "sa1": {
          "$ref": "#/definitions/DatasetMetadata",
          "description": "The SA1.",
          "example": "2116938"
        },
        "meshblock": {
          "$ref": "#/definitions/DatasetMetadata",
          "description": "The meshblock.",
          "example": "20045090000"
        },
        "lga_code": {
          "$ref": "#/definitions/DatasetMetadata",
          "description": "The LGA code.",
          "example": "20910"
        },
        "lga_name": {
          "$ref": "#/definitions/DatasetMetadata",
          "description": "The LGA name.",
          "example": "Bayside (C)"
        }
      }
    },
    "EnrichmentV2UkLocationCompleteMetadata": {
      "description": "Attribute-level metadata for the UK Location Complete dataset.",
      "type": "object",
      "properties": {
        "latitude": {
          "$ref": "#/definitions/DatasetMetadata",
          "description": "The latitude.",
          "example": "51.5011234"
        },
        "longitude": {
          "$ref": "#/definitions/DatasetMetadata",
          "description": "The longitude.",
          "example": "-0.1041234"
        },
        "match_level": {
          "$ref": "#/definitions/DatasetMetadata",
          "description": "Specifies the accuracy of the coordinates for the specified address.",
          "example": "Building"
        },
        "udprn": {
          "$ref": "#/definitions/DatasetMetadata",
          "description": "Specifies the UDPRN for the specified address.",
          "example": "55244256"
        },
        "uprn": {
          "$ref": "#/definitions/DatasetMetadata",
          "description": "Specifies the UPRN for the specified address.",
          "example": "010091977422"
        },
        "x_coordinate": {
          "$ref": "#/definitions/DatasetMetadata",
          "description": "The x coordinate.",
          "example": "531677.95"
        },
        "y_coordinate": {
          "$ref": "#/definitions/DatasetMetadata",
          "description": "The y coordinate.",
          "example": "179757.59"
        }
      }
    },
    "EnrichmentV2UkLocationEssentialMetadata": {
      "description": "Attribute-level metadata for the UK Location Essential dataset.",
      "type": "object",
      "properties": {
        "latitude": {
          "$ref": "#/definitions/DatasetMetadata",
          "description": "The latitude.",
          "example": "51.5011234"
        },
        "longitude": {
          "$ref": "#/definitions/DatasetMetadata",
          "description": "The longitude.",
          "example": "-0.1041234"
        },
        "match_level": {
          "$ref": "#/definitions/DatasetMetadata",
          "description": "Specifies the accuracy of the coordinates for the specified address.",
          "example": "Building"
        },
        "udprn": {
          "$ref": "#/definitions/DatasetMetadata",
          "description": "The UDPRN.",
          "example": "55244256"
        },
        "uprn": {
          "$ref": "#/definitions/DatasetMetadata",
          "description": "The UPRN.",
          "example": "010091977422"
        },
        "x_coordinate": {
          "$ref": "#/definitions/DatasetMetadata",
          "description": "The X coordinate.",
          "example": "531677.95"
        },
        "y_coordinate": {
          "$ref": "#/definitions/DatasetMetadata",
          "description": "The Y coordinate.",
          "example": "179757.59"
        }
      }
    },
    "DatasetMetadata": {
      "description": "The attribute's metadata.",
      "type": "object",
      "properties": {
        "code": {
          "description": "Attribute-level metadata code.",
          "type": "string",
          "example": "S200"
        },
        "message": {
          "description": "Attribute-level metadata message.",
          "type": "string",
          "example": "Match"
        },
        "value": {
          "description": "The attribute's value that was returned by the API.",
          "type": "string"
        }
      }
    }
  }
}